%!PS-Adobe-2.0 EPSF-2.0
%%BoundingBox:  0 0 567 544
%%Title: plots/CorrelationMatrixB.eps: Correlations between MVA input variables (background)
%%Creator: ROOT Version 5.34/36
%%CreationDate: Thu Feb  2 21:59:07 2017
%%EndComments
%%BeginProlog
80 dict begin
/s {stroke} def /l {lineto} def /m {moveto} def /t {translate} def
/r {rotate} def /rl {roll}  def /R {repeat} def
/d {rlineto} def /rm {rmoveto} def /gr {grestore} def /f {eofill} def
/c {setrgbcolor} def /black {0 setgray} def /sd {setdash} def
/cl {closepath} def /sf {scalefont setfont} def /lw {setlinewidth} def
/box {m dup 0 exch d exch 0 d 0 exch neg d cl} def
/NC{systemdict begin initclip end}def/C{NC box clip newpath}def
/bl {box s} def /bf {gsave box gsave f grestore 1 lw [] 0 sd s grestore} def /Y { 0 exch d} def /X { 0 d} def 
/K {{pop pop 0 moveto} exch kshow} bind def
/ita {/ang 15 def gsave [1 0 ang dup sin exch cos div 1 0 0] concat} def 
/mp {newpath /y exch def /x exch def} def
/side {[w .77 mul w .23 mul] .385 w mul sd w 0 l currentpoint t -144 r} def
/mr {mp x y w2 0 360 arc} def /m24 {mr s} def /m20 {mr f} def
/mb {mp x y w2 add m w2 neg 0 d 0 w neg d w 0 d 0 w d cl} def
/mt {mp x y w2 add m w2 neg w neg d w 0 d cl} def
/m21 {mb f} def /m25 {mb s} def /m22 {mt f} def /m26{mt s} def
/m23 {mp x y w2 sub m w2 w d w neg 0 d cl f} def
/m27 {mp x y w2 add m w3 neg w2 neg d w3 w2 neg d w3 w2 d cl s} def
/m28 {mp x w2 sub y w2 sub w3 add m w3 0 d  0 w3 neg d w3 0 d 0 w3 d w3 0 d  0 w3 d w3 neg 0 d 0 w3 d w3 neg 0 d 0 w3 neg d w3 neg 0 d cl s } def
/m29 {mp gsave x w2 sub y w2 add w3 sub m currentpoint t 4 {side} repeat cl fill gr} def
/m30 {mp gsave x w2 sub y w2 add w3 sub m currentpoint t 4 {side} repeat cl s gr} def
/m31 {mp x y w2 sub m 0 w d x w2 sub y m w 0 d x w2 sub y w2 add m w w neg d x w2 sub y w2 sub m w w d s} def
/m32 {mp x y w2 sub m w2 w d w neg 0 d cl s} def
/m33 {mp x y w2 add m w3 neg w2 neg d w3 w2 neg d w3 w2 d cl f} def
/m34 {mp x w2 sub y w2 sub w3 add m w3 0 d  0 w3 neg d w3 0 d 0 w3 d w3 0 d  0 w3 d w3 neg 0 d 0 w3 d w3 neg 0 d 0 w3 neg d w3 neg 0 d cl f } def
/m2 {mp x y w2 sub m 0 w d x w2 sub y m w 0 d s} def
/m5 {mp x w2 sub y w2 sub m w w d x w2 sub y w2 add m w w neg d s} def
/reEncode {exch findfont dup length dict begin {1 index /FID eq  {pop pop} {def} ifelse } forall /Encoding exch def currentdict end dup /FontName get exch definefont pop } def [/Times-Bold /Times-Italic /Times-BoldItalic /Helvetica /Helvetica-Oblique
 /Helvetica-Bold /Helvetica-BoldOblique /Courier /Courier-Oblique /Courier-Bold /Courier-BoldOblique /Times-Roman /AvantGarde-Book /AvantGarde-BookOblique /AvantGarde-Demi /AvantGarde-DemiOblique /Bookman-Demi /Bookman-DemiItalic /Bookman-Light
 /Bookman-LightItalic /Helvetica-Narrow /Helvetica-Narrow-Bold /Helvetica-Narrow-BoldOblique /Helvetica-Narrow-Oblique /NewCenturySchlbk-Roman /NewCenturySchlbk-Bold /NewCenturySchlbk-BoldItalic /NewCenturySchlbk-Italic /Palatino-Bold
 /Palatino-BoldItalic /Palatino-Italic /Palatino-Roman ] {ISOLatin1Encoding reEncode } forall
%%EndProlog
%%BeginSetup
%%EndSetup
newpath  gsave  .25 .25 scale  gsave  0 0 t 0.490196 0.545098 0.615686 c[  ] 0 sd 3 lw 0.941176 0.941176 0.941176 c 2268 2176 0 0 bf black 1 1 0.992157 c 1633 1567 340 326 bf black 1633 1567 340 326 bl 1 1 0.992157 c 1633 1567 340 326 bf black 1633
 1567 340 326 bl 1 1 1 c 1 0 0 c 272 262 340 326 bf 0 1 0.333333 c 272 262 612 326 bf 273 262 884 326 bf 0 1 0.0533333 c 272 262 1157 326 bf 272 262 1429 326 bf 272 262 1701 326 bf 0 1 0.333333 c 272 261 340 588 bf 1 0 0 c 272 261 612 588 bf 0 1 0.52
 c 273 261 884 588 bf 0 1 0.333333 c 272 261 1157 588 bf 0.413333 1 0 c 272 261 1429 588 bf 0 1 0.0533333 c 272 261 1701 588 bf 0 1 0.333333 c 272 261 340 849 bf 0 1 0.52 c 272 261 612 849 bf 1 0 0 c 273 261 884 849 bf 0 1 0.333333 c 272 261 1157 849
 bf 272 261 1429 849 bf 0 1 0.0533333 c 272 261 1701 849 bf 272 261 340 1110 bf 0 1 0.333333 c 272 261 612 1110 bf 273 261 884 1110 bf 1 0 0 c 272 261 1157 1110 bf 0 1 0.0533333 c 272 261 1429 1110 bf 272 261 1701 1110 bf 272 261 340 1371 bf 0.413333
 1 0 c 272 261 612 1371 bf 0 1 0.333333 c 273 261 884 1371 bf 0 1 0.0533333 c 272 261 1157 1371 bf 1 0 0 c 272 261 1429 1371 bf 0 1 0.333333 c 272 261 1701 1371 bf 0 1 0.0533333 c 272 261 340 1632 bf 272 261 612 1632 bf 273 261 884 1632 bf 272 261
 1157 1632 bf 0 1 0.333333 c 272 261 1429 1632 bf 1 0 0 c 272 261 1701 1632 bf 0.386667 0 1 c 102 79 1984 326 bf 0.2 0 1 c 102 78 1984 405 bf 0 0.0800001 1 c 102 79 1984 483 bf 0 0.266667 1 c 102 78 1984 562 bf 0 0.546666 1 c 102 78 1984 640 bf 0
 0.733333 1 c 102 79 1984 718 bf 0 1 0.986667 c 102 78 1984 797 bf 0 1 0.8 c 102 78 1984 875 bf 0 1 0.52 c 102 79 1984 953 bf 0 1 0.333333 c 102 78 1984 1032 bf 0 1 0.0533333 c 102 78 1984 1110 bf 0.133333 1 0 c 102 79 1984 1188 bf 0.413333 1 0 c 102
 78 1984 1267 bf 0.6 1 0 c 102 78 1984 1345 bf 0.88 1 0 c 102 79 1984 1423 bf 1 0.933333 0 c 102 78 1984 1502 bf 1 0.653333 0 c 102 78 1984 1580 bf 1 0.466667 0 c 102 79 1984 1658 bf 1 0.186667 0 c 102 78 1984 1737 bf 1 0 0 c 102 78 1984 1815 bf
 black 2086 326 m 1567 Y s 2037 326 m 49 X s 2037 483 m 49 X s 2037 640 m 49 X s 2037 797 m 49 X s 2037 953 m 49 X s 2037 1110 m 49 X s 2037 1267 m 49 X s 2037 1423 m 49 X s 2037 1580 m 49 X s 2037 1737 m 49 X s 2037 1893 m 49 X s
 gsave  2268 2176 0 0 C 2138.35 296.782 t 0 r /Helvetica-Bold findfont 79.9028 sf 0 0 m (100) show NC gr 
 gsave  2268 2176 0 0 C 2096.5 296.782 t 0 r /Symbol findfont 79.9028 sf 0 0 m (-) show NC gr 
 gsave  2268 2176 0 0 C 2138.35 452.782 t 0 r /Helvetica-Bold findfont 79.9028 sf 0 0 m (80) show NC gr 
 gsave  2268 2176 0 0 C 2096.5 452.782 t 0 r /Symbol findfont 79.9028 sf 0 0 m (-) show NC gr 
 gsave  2268 2176 0 0 C 2138.35 612.588 t 0 r /Helvetica-Bold findfont 79.9028 sf 0 0 m (60) show NC gr 
 gsave  2268 2176 0 0 C 2096.5 612.588 t 0 r /Symbol findfont 79.9028 sf 0 0 m (-) show NC gr 
 gsave  2268 2176 0 0 C 2138.35 768.589 t 0 r /Helvetica-Bold findfont 79.9028 sf 0 0 m (40) show NC gr 
 gsave  2268 2176 0 0 C 2096.5 768.589 t 0 r /Symbol findfont 79.9028 sf 0 0 m (-) show NC gr 
 gsave  2268 2176 0 0 C 2138.35 924.589 t 0 r /Helvetica-Bold findfont 79.9028 sf 0 0 m (20) show NC gr 
 gsave  2268 2176 0 0 C 2096.5 924.589 t 0 r /Symbol findfont 79.9028 sf 0 0 m (-) show NC gr 
 gsave  2268 2176 0 0 C 2096.5 1080.59 t 0 r /Helvetica-Bold findfont 79.9028 sf 0 0 m (0) show NC gr 
 gsave  2268 2176 0 0 C 2096.5 1236.59 t 0 r /Helvetica-Bold findfont 79.9028 sf 0 0 m (20) show NC gr 
 gsave  2268 2176 0 0 C 2096.5 1396.4 t 0 r /Helvetica-Bold findfont 79.9028 sf 0 0 m (40) show NC gr 
 gsave  2268 2176 0 0 C 2096.5 1552.4 t 0 r /Helvetica-Bold findfont 79.9028 sf 0 0 m (60) show NC gr 
 gsave  2268 2176 0 0 C 2096.5 1708.4 t 0 r /Helvetica-Bold findfont 79.9028 sf 0 0 m (80) show NC gr 
 gsave  2268 2176 0 0 C 2096.5 1864.4 t 0 r /Helvetica-Bold findfont 79.9028 sf 0 0 m (100) show NC gr  1 1 1 c black 340 326 m 1633 X s
 gsave  2268 2176 0 0 C 468.002 262.538 t -19 r /Helvetica-Bold findfont 53.2685 sf 0 0 m (TMath::Log\(Lc_ENDVERTEX_CHI2/Lc_ENDVERTEX_NDOF\)) show NC gr 
 gsave  2268 2176 0 0 C 738.149 262.538 t -19 r /Helvetica-Bold findfont 53.2685 sf 0 0 m (Lc_TAU) show NC gr 
 gsave  2268 2176 0 0 C 1012.1 262.538 t -19 r /Helvetica-Bold findfont 53.2685 sf 0 0 m (Lc_PT) show NC gr 
 gsave  2268 2176 0 0 C 1282.25 262.538 t -19 r /Helvetica-Bold findfont 53.2685 sf 0 0 m (abs\(TMath::Log\(Lc_DIRA_OWNPV\)\)) show NC gr 
 gsave  2268 2176 0 0 C 1556.2 262.538 t -19 r /Helvetica-Bold findfont 53.2685 sf 0 0 m (Lc_DTF_chi2_0) show NC gr 
 gsave  2268 2176 0 0 C 1826.35 262.538 t -19 r /Helvetica-Bold findfont 53.2685 sf 0 0 m (TMath::Max\(TMath::Max\(p_TRACK_GhostProb,p_TRACK_GhostProb\),L2_TRACK_GhostProb\)) show NC gr  340 373 m -47 Y s[ 4 8] 0 sd 340 1893 m -1567 Y s[  ] 0 sd 612
 373 m -47 Y s[ 4 8] 0 sd 612 1893 m -1567 Y s[  ] 0 sd 884 373 m -47 Y s[ 4 8] 0 sd 884 1893 m -1567 Y s[  ] 0 sd 1157 373 m -47 Y s[ 4 8] 0 sd 1157 1893 m -1567 Y s[  ] 0 sd 1429 373 m -47 Y s[ 4 8] 0 sd 1429 1893 m -1567 Y s[  ] 0 sd 1701 373 m
 -47 Y s[ 4 8] 0 sd 1701 1893 m -1567 Y s[  ] 0 sd 1973 373 m -47 Y s[ 4 8] 0 sd 1973 1893 m -1567 Y s[  ] 0 sd 340 1893 m 1633 X s 340 1846 m 47 Y s 612 1846 m 47 Y s 884 1846 m 47 Y s 1157 1846 m 47 Y s 1429 1846 m 47 Y s 1701 1846 m 47 Y s 1973
 1846 m 47 Y s 340 326 m 1567 Y s
 gsave  2268 2176 0 0 C -1194.74 445.173 t 0 r /Helvetica-Bold findfont 53.2685 sf 0 0 m (TMath::Log\(Lc_ENDVERTEX_CHI2/Lc_ENDVERTEX_NDOF\)) show NC gr 
 gsave  2268 2176 0 0 C 114.147 700.1 t 0 r /Helvetica-Bold findfont 53.2685 sf 0 0 m (Lc_TAU) show NC gr 
 gsave  2268 2176 0 0 C 152.196 962.638 t 0 r /Helvetica-Bold findfont 53.2685 sf 0 0 m (Lc_PT) show NC gr 
 gsave  2268 2176 0 0 C -593.563 1228.98 t 0 r /Helvetica-Bold findfont 53.2685 sf 0 0 m (abs\(TMath::Log\(Lc_DIRA_OWNPV\)\)) show NC gr 
 gsave  2268 2176 0 0 C -79.9028 1483.91 t 0 r /Helvetica-Bold findfont 53.2685 sf 0 0 m (Lc_DTF_chi2_0) show NC gr 
 gsave  2268 2176 0 0 C -2069.86 1750.25 t 0 r /Helvetica-Bold findfont 53.2685 sf 0 0 m (TMath::Max\(TMath::Max\(p_TRACK_GhostProb,p_TRACK_GhostProb\),L2_TRACK_GhostProb\)) show NC gr  389 326 m -49 X s[ 4 8] 0 sd 1973 326 m -1633 X s[  ] 0 sd 389
 588 m -49 X s[ 4 8] 0 sd 1973 588 m -1633 X s[  ] 0 sd 389 849 m -49 X s[ 4 8] 0 sd 1973 849 m -1633 X s[  ] 0 sd 389 1110 m -49 X s[ 4 8] 0 sd 1973 1110 m -1633 X s[  ] 0 sd 389 1371 m -49 X s[ 4 8] 0 sd 1973 1371 m -1633 X s[  ] 0 sd 389 1632 m
 -49 X s[ 4 8] 0 sd 1973 1632 m -1633 X s[  ] 0 sd 389 1893 m -49 X s[ 4 8] 0 sd 1973 1893 m -1633 X s[  ] 0 sd 1973 326 m 1567 Y s 1924 326 m 49 X s 1924 588 m 49 X s 1924 849 m 49 X s 1924 1110 m 49 X s 1924 1371 m 49 X s 1924 1632 m 49 X s 1924
 1893 m 49 X s 0.490196 0.545098 0.615686 c 0.364706 0.419608 0.490196 c 1587 128 23 2038 bf 0.490196 0.545098 0.615686 c 23 2038 m 1587 X s 1610 2038 m 128 Y s 1610 2166 m -1587 X s 23 2166 m -128 Y s 1 1 1 c black 1 1 1 c
 gsave  2268 2176 0 0 C 91.3174 2077.47 t 0 r /Helvetica-Bold findfont 95.1223 sf 0 0 m (Correlation Matrix \(background\)) show NC gr  black 1 1 1 c
 gsave  2268 2176 0 0 C 422.343 437.563 t 0 r /Helvetica-Bold findfont 60.8783 sf 0 0 m (100) show NC gr  black 1 1 1 c
 gsave  2268 2176 0 0 C 700.1 437.563 t 0 r /Helvetica-Bold findfont 60.8783 sf 0 0 m (\25510) show NC gr  black 1 1 1 c
 gsave  2268 2176 0 0 C 981.663 437.563 t 0 r /Helvetica-Bold findfont 60.8783 sf 0 0 m ( \2555) show NC gr  black 1 1 1 c
 gsave  2268 2176 0 0 C 1255.61 437.563 t 0 r /Helvetica-Bold findfont 60.8783 sf 0 0 m (  6) show NC gr  black 1 1 1 c
 gsave  2268 2176 0 0 C 1529.57 437.563 t 0 r /Helvetica-Bold findfont 60.8783 sf 0 0 m (  3) show NC gr  black 1 1 1 c
 gsave  2268 2176 0 0 C 1799.71 437.563 t 0 r /Helvetica-Bold findfont 60.8783 sf 0 0 m (  6) show NC gr  black 1 1 1 c
 gsave  2268 2176 0 0 C 429.953 696.296 t 0 r /Helvetica-Bold findfont 60.8783 sf 0 0 m (\25510) show NC gr  black 1 1 1 c
 gsave  2268 2176 0 0 C 692.491 696.296 t 0 r /Helvetica-Bold findfont 60.8783 sf 0 0 m (100) show NC gr  black 1 1 1 c
 gsave  2268 2176 0 0 C 974.053 692.491 t 0 r /Helvetica-Bold findfont 60.8783 sf 0 0 m (\25512) show NC gr  black 1 1 1 c
 gsave  2268 2176 0 0 C 1251.81 696.296 t 0 r /Helvetica-Bold findfont 60.8783 sf 0 0 m ( \2555) show NC gr  black 1 1 1 c
 gsave  2268 2176 0 0 C 1521.96 696.296 t 0 r /Helvetica-Bold findfont 60.8783 sf 0 0 m ( 20) show NC gr  black 1 1 1 c
 gsave  2268 2176 0 0 C 437.563 958.833 t 0 r /Helvetica-Bold findfont 60.8783 sf 0 0 m ( \2555) show NC gr  black 1 1 1 c
 gsave  2268 2176 0 0 C 700.1 955.028 t 0 r /Helvetica-Bold findfont 60.8783 sf 0 0 m (\25512) show NC gr  black 1 1 1 c
 gsave  2268 2176 0 0 C 966.443 958.833 t 0 r /Helvetica-Bold findfont 60.8783 sf 0 0 m (100) show NC gr  black 1 1 1 c
 gsave  2268 2176 0 0 C 1251.81 955.028 t 0 r /Helvetica-Bold findfont 60.8783 sf 0 0 m ( \2557) show NC gr  black 1 1 1 c
 gsave  2268 2176 0 0 C 1525.76 955.028 t 0 r /Helvetica-Bold findfont 60.8783 sf 0 0 m ( \2554) show NC gr  black 1 1 1 c
 gsave  2268 2176 0 0 C 1803.52 955.028 t 0 r /Helvetica-Bold findfont 60.8783 sf 0 0 m (  1) show NC gr  black 1 1 1 c
 gsave  2268 2176 0 0 C 441.368 1221.37 t 0 r /Helvetica-Bold findfont 60.8783 sf 0 0 m (  6) show NC gr  black 1 1 1 c
 gsave  2268 2176 0 0 C 707.71 1221.37 t 0 r /Helvetica-Bold findfont 60.8783 sf 0 0 m ( \2555) show NC gr  black 1 1 1 c
 gsave  2268 2176 0 0 C 981.663 1217.57 t 0 r /Helvetica-Bold findfont 60.8783 sf 0 0 m ( \2557) show NC gr  black 1 1 1 c
 gsave  2268 2176 0 0 C 1236.59 1221.37 t 0 r /Helvetica-Bold findfont 60.8783 sf 0 0 m (100) show NC gr  black 1 1 1 c
 gsave  2268 2176 0 0 C 1529.57 1217.57 t 0 r /Helvetica-Bold findfont 60.8783 sf 0 0 m (  4) show NC gr  black 1 1 1 c
 gsave  2268 2176 0 0 C 1799.71 1221.37 t 0 r /Helvetica-Bold findfont 60.8783 sf 0 0 m (  3) show NC gr  black 1 1 1 c
 gsave  2268 2176 0 0 C 441.368 1480.1 t 0 r /Helvetica-Bold findfont 60.8783 sf 0 0 m (  3) show NC gr  black 1 1 1 c
 gsave  2268 2176 0 0 C 703.905 1480.1 t 0 r /Helvetica-Bold findfont 60.8783 sf 0 0 m ( 20) show NC gr  black 1 1 1 c
 gsave  2268 2176 0 0 C 981.663 1476.3 t 0 r /Helvetica-Bold findfont 60.8783 sf 0 0 m ( \2554) show NC gr  black 1 1 1 c
 gsave  2268 2176 0 0 C 1255.61 1476.3 t 0 r /Helvetica-Bold findfont 60.8783 sf 0 0 m (  4) show NC gr  black 1 1 1 c
 gsave  2268 2176 0 0 C 1510.54 1480.1 t 0 r /Helvetica-Bold findfont 60.8783 sf 0 0 m (100) show NC gr  black 1 1 1 c
 gsave  2268 2176 0 0 C 1795.91 1480.1 t 0 r /Helvetica-Bold findfont 60.8783 sf 0 0 m ( \2556) show NC gr  black 1 1 1 c
 gsave  2268 2176 0 0 C 441.368 1742.64 t 0 r /Helvetica-Bold findfont 60.8783 sf 0 0 m (  6) show NC gr  black 1 1 1 c
 gsave  2268 2176 0 0 C 989.272 1738.84 t 0 r /Helvetica-Bold findfont 60.8783 sf 0 0 m (  1) show NC gr  black 1 1 1 c
 gsave  2268 2176 0 0 C 1255.61 1742.64 t 0 r /Helvetica-Bold findfont 60.8783 sf 0 0 m (  3) show NC gr  black 1 1 1 c
 gsave  2268 2176 0 0 C 1525.76 1742.64 t 0 r /Helvetica-Bold findfont 60.8783 sf 0 0 m ( \2556) show NC gr  black 1 1 1 c
 gsave  2268 2176 0 0 C 1780.69 1742.64 t 0 r /Helvetica-Bold findfont 60.8783 sf 0 0 m (100) show NC gr  black
 gsave  2268 2176 0 0 C 1201.89 1915.23 t 0 r /Helvetica-Bold findfont 53.2685 sf 0 0 m (Linear correlation coefficients in %) show NC gr 
 gr  gr showpage
end
%%EOF
