%!PS-Adobe-2.0 EPSF-2.0
%%BoundingBox:  0 0 567 419
%%Title: plots/mva_BDT.eps: TMVA response BDT
%%Creator: ROOT Version 5.34/36
%%CreationDate: Thu Feb  2 21:59:23 2017
%%EndComments
%%BeginProlog
80 dict begin
/s {stroke} def /l {lineto} def /m {moveto} def /t {translate} def
/r {rotate} def /rl {roll}  def /R {repeat} def
/d {rlineto} def /rm {rmoveto} def /gr {grestore} def /f {eofill} def
/c {setrgbcolor} def /black {0 setgray} def /sd {setdash} def
/cl {closepath} def /sf {scalefont setfont} def /lw {setlinewidth} def
/box {m dup 0 exch d exch 0 d 0 exch neg d cl} def
/NC{systemdict begin initclip end}def/C{NC box clip newpath}def
/bl {box s} def /bf {gsave box gsave f grestore 1 lw [] 0 sd s grestore} def /Y { 0 exch d} def /X { 0 d} def 
/K {{pop pop 0 moveto} exch kshow} bind def
/ita {/ang 15 def gsave [1 0 ang dup sin exch cos div 1 0 0] concat} def 
/mp {newpath /y exch def /x exch def} def
/side {[w .77 mul w .23 mul] .385 w mul sd w 0 l currentpoint t -144 r} def
/mr {mp x y w2 0 360 arc} def /m24 {mr s} def /m20 {mr f} def
/mb {mp x y w2 add m w2 neg 0 d 0 w neg d w 0 d 0 w d cl} def
/mt {mp x y w2 add m w2 neg w neg d w 0 d cl} def
/m21 {mb f} def /m25 {mb s} def /m22 {mt f} def /m26{mt s} def
/m23 {mp x y w2 sub m w2 w d w neg 0 d cl f} def
/m27 {mp x y w2 add m w3 neg w2 neg d w3 w2 neg d w3 w2 d cl s} def
/m28 {mp x w2 sub y w2 sub w3 add m w3 0 d  0 w3 neg d w3 0 d 0 w3 d w3 0 d  0 w3 d w3 neg 0 d 0 w3 d w3 neg 0 d 0 w3 neg d w3 neg 0 d cl s } def
/m29 {mp gsave x w2 sub y w2 add w3 sub m currentpoint t 4 {side} repeat cl fill gr} def
/m30 {mp gsave x w2 sub y w2 add w3 sub m currentpoint t 4 {side} repeat cl s gr} def
/m31 {mp x y w2 sub m 0 w d x w2 sub y m w 0 d x w2 sub y w2 add m w w neg d x w2 sub y w2 sub m w w d s} def
/m32 {mp x y w2 sub m w2 w d w neg 0 d cl s} def
/m33 {mp x y w2 add m w3 neg w2 neg d w3 w2 neg d w3 w2 d cl f} def
/m34 {mp x w2 sub y w2 sub w3 add m w3 0 d  0 w3 neg d w3 0 d 0 w3 d w3 0 d  0 w3 d w3 neg 0 d 0 w3 d w3 neg 0 d 0 w3 neg d w3 neg 0 d cl f } def
/m2 {mp x y w2 sub m 0 w d x w2 sub y m w 0 d s} def
/m5 {mp x w2 sub y w2 sub m w w d x w2 sub y w2 add m w w neg d s} def
/reEncode {exch findfont dup length dict begin {1 index /FID eq  {pop pop} {def} ifelse } forall /Encoding exch def currentdict end dup /FontName get exch definefont pop } def [/Times-Bold /Times-Italic /Times-BoldItalic /Helvetica /Helvetica-Oblique
 /Helvetica-Bold /Helvetica-BoldOblique /Courier /Courier-Oblique /Courier-Bold /Courier-BoldOblique /Times-Roman /AvantGarde-Book /AvantGarde-BookOblique /AvantGarde-Demi /AvantGarde-DemiOblique /Bookman-Demi /Bookman-DemiItalic /Bookman-Light
 /Bookman-LightItalic /Helvetica-Narrow /Helvetica-Narrow-Bold /Helvetica-Narrow-BoldOblique /Helvetica-Narrow-Oblique /NewCenturySchlbk-Roman /NewCenturySchlbk-Bold /NewCenturySchlbk-BoldItalic /NewCenturySchlbk-Italic /Palatino-Bold
 /Palatino-BoldItalic /Palatino-Italic /Palatino-Roman ] {ISOLatin1Encoding reEncode } forall
%%EndProlog
%%BeginSetup
%%EndSetup
newpath  gsave  .25 .25 scale  gsave  0 0 t 0.490196 0.545098 0.615686 c[  ] 0 sd 3 lw 0.941176 0.941176 0.941176 c 2268 1674 0 0 bf black 1 1 0.992157 c 1916 1306 238 201 bf black 1916 1306 238 201 bl 1 1 0.992157 c 1916 1306 238 201 bf black 1916
 1306 238 201 bl 238 201 m 1916 X s
 gsave  2268 1674 0 0 C 1689.37 30.4391 t 0 r /Helvetica-Bold findfont 68.4881 sf 0 0 m (BDT response) show NC gr  421 243 m -42 Y s 490 222 m -21 Y s 558 222 m -21 Y s 627 222 m -21 Y s 696 222 m -21 Y s 764 243 m -42 Y s 833 222 m -21 Y s 901 222 m
 -21 Y s 970 222 m -21 Y s 1039 222 m -21 Y s 1107 243 m -42 Y s 1176 222 m -21 Y s 1244 222 m -21 Y s 1313 222 m -21 Y s 1382 222 m -21 Y s 1450 243 m -42 Y s 1519 222 m -21 Y s 1587 222 m -21 Y s 1656 222 m -21 Y s 1725 222 m -21 Y s 1793 243 m -42
 Y s 1862 222 m -21 Y s 1930 222 m -21 Y s 1999 222 m -21 Y s 2068 222 m -21 Y s 2136 243 m -42 Y s 421 243 m -42 Y s 353 222 m -21 Y s 284 222 m -21 Y s 2136 243 m -42 Y s
 gsave  2268 1674 0 0 C 391.904 129.366 t 0 r /Helvetica-Bold findfont 60.8783 sf 0 0 m (0.2) show NC gr 
 gsave  2268 1674 0 0 C 357.66 129.366 t 0 r /Symbol findfont 60.8783 sf 0 0 m (-) show NC gr 
 gsave  2268 1674 0 0 C 738.149 129.366 t 0 r /Helvetica-Bold findfont 60.8783 sf 0 0 m (0.1) show NC gr 
 gsave  2268 1674 0 0 C 703.905 129.366 t 0 r /Symbol findfont 60.8783 sf 0 0 m (-) show NC gr 
 gsave  2268 1674 0 0 C 1088.2 129.366 t 0 r /Helvetica-Bold findfont 60.8783 sf 0 0 m (0) show NC gr 
 gsave  2268 1674 0 0 C 1411.62 129.366 t 0 r /Helvetica-Bold findfont 60.8783 sf 0 0 m (0.1) show NC gr 
 gsave  2268 1674 0 0 C 1750.25 129.366 t 0 r /Helvetica-Bold findfont 60.8783 sf 0 0 m (0.2) show NC gr 
 gsave  2268 1674 0 0 C 2092.69 129.366 t 0 r /Helvetica-Bold findfont 60.8783 sf 0 0 m (0.3) show NC gr  238 1507 m 1916 X s 421 1464 m 43 Y s 490 1486 m 21 Y s 558 1486 m 21 Y s 627 1486 m 21 Y s 696 1486 m 21 Y s 764 1464 m 43 Y s 833 1486 m 21 Y
 s 901 1486 m 21 Y s 970 1486 m 21 Y s 1039 1486 m 21 Y s 1107 1464 m 43 Y s 1176 1486 m 21 Y s 1244 1486 m 21 Y s 1313 1486 m 21 Y s 1382 1486 m 21 Y s 1450 1464 m 43 Y s 1519 1486 m 21 Y s 1587 1486 m 21 Y s 1656 1486 m 21 Y s 1725 1486 m 21 Y s
 1793 1464 m 43 Y s 1862 1486 m 21 Y s 1930 1486 m 21 Y s 1999 1486 m 21 Y s 2068 1486 m 21 Y s 2136 1464 m 43 Y s 421 1464 m 43 Y s 353 1486 m 21 Y s 284 1486 m 21 Y s 2136 1464 m 43 Y s 238 201 m 1306 Y s
 gsave  2268 1674 0 0 C 64.6832 1426.84 t 90 r /Helvetica-Bold findfont 68.4881 sf 0 0 m (dx) show NC gr 
 gsave  2268 1674 0 0 C 34.244 1407.81 t 90 r /Helvetica-Bold findfont 45.6587 sf 0 0 m ( ) show NC gr 
 gsave  2268 1674 0 0 C 64.6832 1388.79 t 90 r /Helvetica-Bold findfont 68.4881 sf 0 0 m (/) show NC gr 
 gsave  2268 1674 0 0 C 30.4391 1369.76 t 90 r /Helvetica-Bold findfont 45.6587 sf 0 0 m ( ) show NC gr 
 gsave  2268 1674 0 0 C 60.8783 1111.03 t 90 r /Helvetica-Bold findfont 68.4881 sf 0 0 m (\(1/N\) dN) show NC gr  291 201 m -53 X s 265 238 m -27 X s 265 275 m -27 X s 265 313 m -27 X s 265 350 m -27 X s 291 387 m -53 X s 265 425 m -27 X s 265 462 m
 -27 X s 265 499 m -27 X s 265 537 m -27 X s 291 574 m -53 X s 265 611 m -27 X s 265 649 m -27 X s 265 686 m -27 X s 265 723 m -27 X s 291 760 m -53 X s 265 798 m -27 X s 265 835 m -27 X s 265 872 m -27 X s 265 910 m -27 X s 291 947 m -53 X s 265 984
 m -27 X s 265 1022 m -27 X s 265 1059 m -27 X s 265 1096 m -27 X s 291 1133 m -53 X s 265 1171 m -27 X s 265 1208 m -27 X s 265 1245 m -27 X s 265 1283 m -27 X s 291 1320 m -53 X s 265 1357 m -27 X s 265 1395 m -27 X s 265 1432 m -27 X s 265 1469 m
 -27 X s 291 1506 m -53 X s 291 1506 m -53 X s
 gsave  2268 1674 0 0 C 175.025 178.83 t 0 r /Helvetica-Bold findfont 60.8783 sf 0 0 m (0) show NC gr 
 gsave  2268 1674 0 0 C 182.635 361.465 t 0 r /Helvetica-Bold findfont 60.8783 sf 0 0 m (1) show NC gr 
 gsave  2268 1674 0 0 C 175.025 547.905 t 0 r /Helvetica-Bold findfont 60.8783 sf 0 0 m (2) show NC gr 
 gsave  2268 1674 0 0 C 175.025 738.149 t 0 r /Helvetica-Bold findfont 60.8783 sf 0 0 m (3) show NC gr 
 gsave  2268 1674 0 0 C 175.025 920.784 t 0 r /Helvetica-Bold findfont 60.8783 sf 0 0 m (4) show NC gr 
 gsave  2268 1674 0 0 C 175.025 1111.03 t 0 r /Helvetica-Bold findfont 60.8783 sf 0 0 m (5) show NC gr 
 gsave  2268 1674 0 0 C 175.025 1297.47 t 0 r /Helvetica-Bold findfont 60.8783 sf 0 0 m (6) show NC gr 
 gsave  2268 1674 0 0 C 175.025 1480.1 t 0 r /Helvetica-Bold findfont 60.8783 sf 0 0 m (7) show NC gr  2154 201 m 1306 Y s 2101 201 m 53 X s 2128 238 m 26 X s 2128 275 m 26 X s 2128 313 m 26 X s 2128 350 m 26 X s 2101 387 m 53 X s 2128 425 m 26 X s
 2128 462 m 26 X s 2128 499 m 26 X s 2128 537 m 26 X s 2101 574 m 53 X s 2128 611 m 26 X s 2128 649 m 26 X s 2128 686 m 26 X s 2128 723 m 26 X s 2101 760 m 53 X s 2128 798 m 26 X s 2128 835 m 26 X s 2128 872 m 26 X s 2128 910 m 26 X s 2101 947 m 53 X
 s 2128 984 m 26 X s 2128 1022 m 26 X s 2128 1059 m 26 X s 2128 1096 m 26 X s 2101 1133 m 53 X s 2128 1171 m 26 X s 2128 1208 m 26 X s 2128 1245 m 26 X s 2128 1283 m 26 X s 2101 1320 m 53 X s 2128 1357 m 26 X s 2128 1395 m 26 X s 2128 1432 m 26 X s
 2128 1469 m 26 X s 2101 1506 m 53 X s 2101 1506 m 53 X s 0.490196 0.545098 0.615686 c 1 1 1 c 0.490196 0.545098 0.615686 c 680 201 238 1306 bl 238 1306 m 680 X s 918 1306 m 201 Y s 918 1507 m -680 X s 238 1507 m -201 Y s black
 gsave  2268 1674 0 0 C 441.368 1434.44 t 0 r /Helvetica-Bold findfont 76.0979 sf 0 0 m (Signal) show NC gr  0.49 0.6 0.82 c 269 1421 m 143 X 71 Y -143 X f 0 0 0.933333 c 6 lw 269 1492 m 143 X s 269 1421 m 143 X s 412 1421 m 71 Y s 269 1421 m 71 Y s
 black
 gsave  2268 1674 0 0 C 441.368 1335.52 t 0 r /Helvetica-Bold findfont 76.0979 sf 0 0 m (Background) show NC gr  1 0 0 c 3 lw 412 1326 m -5 -5 d s 412 1374 m -53 -53 d s 381 1391 m -70 -70 d s 333 1391 m -64 -64 d s 285 1391 m -16 -16 d s 6 lw 0 0
 0.933333 c 1 0 0 c 269 1391 m 143 X s 269 1321 m 143 X s 412 1321 m 70 Y s 269 1321 m 70 Y s 0 0 0.933333 c 0.49 0.6 0.82 c black 3 lw 0.49 0.6 0.82 c 238 201 m 48 X 5 Y 48 X -5 Y 48 X 11 Y 48 X 2 Y 96 X 16 Y 47 X -5 Y 48 X 32 Y 48 X 45 Y 48 X 45 Y
 48 X 56 Y 48 X 32 Y 48 X 66 Y 48 X 54 Y 48 X 220 Y 48 X 40 Y 48 X 197 Y 47 X 51 Y 48 X -35 Y 48 X 101 Y 48 X -69 Y 48 X -104 Y 48 X -26 Y 48 X -85 Y 48 X -24 Y 48 X -48 Y 48 X 34 Y 47 X -13 Y 48 X -130 Y 48 X 10 Y 48 X -157 Y 48 X -85 Y 48 X -48 Y
 48 X -79 Y 48 X -75 Y 48 X 8 Y 48 X -16 Y 48 X -18 Y 47 X 5 Y 48 X -8 Y f 6 lw 0 0 0.933333 c 0.49 0.6 0.82 c 0 0 0.933333 c 238 201 m 48 X 5 Y 48 X -5 Y 48 X 11 Y 48 X 2 Y 96 X 16 Y 47 X -5 Y 48 X 32 Y 48 X 45 Y 48 X 45 Y 48 X 56 Y 48 X 32 Y 48 X
 66 Y 48 X 54 Y 48 X 220 Y 48 X 40 Y 48 X 197 Y 47 X 51 Y 48 X -35 Y 48 X 101 Y 48 X -69 Y 48 X -104 Y 48 X -26 Y 48 X -85 Y 48 X -24 Y 48 X -48 Y 48 X 34 Y 47 X -13 Y 48 X -130 Y 48 X 10 Y 48 X -157 Y 48 X -85 Y 48 X -48 Y 48 X -79 Y 48 X -75 Y 48 X
 8 Y 48 X -16 Y 48 X -18 Y 47 X 5 Y 48 X -8 Y s 1 0 0 c black 3 lw 1 0 0 c 2125 201 m cl s 2077 201 m s 2029 201 m s 1981 201 m cl s 1933 201 m s 1885 201 m cl s 1836 201 m cl s 1798 210 m -10 -9 d s 1749 210 m -9 -9 d s 1723 232 m -31 -31 d s 1709
 265 m -65 -64 d s 1675 280 m -79 -79 d s 1631 284 m -4 -4 d s 1622 275 m -74 -74 d s 1579 281 m -79 -80 d s 1553 302 m -101 -101 d s 1514 312 m -110 -111 d s 1475 321 m -120 -120 d s 1436 329 m -129 -128 d s 1436 377 m -177 -176 d s 1414 404 m -203
 -203 d s 1388 426 m -225 -225 d s 1373 459 m -258 -258 d s 1340 474 m -273 -273 d s 1340 522 m -321 -321 d s 1340 570 m -369 -369 d s 1337 616 m -415 -415 d s 1292 619 m -418 -418 d s 1292 667 m -466 -466 d s 1292 715 m -514 -514 d s 1292 763 m -562
 -562 d s 1292 811 m -610 -610 d s 1270 837 m -636 -636 d s 1244 859 m -658 -658 d s 1244 907 m -706 -706 d s 1244 955 m -754 -754 d s 1244 1004 m -803 -803 d s 1244 1052 m -851 -851 d s 1212 1068 m -639 -639 d s 557 413 m -31 -32 d s 511 367 m -33
 -34 d s 447 302 m -102 -101 d s 1182 1086 m -513 -513 d s 657 561 m -36 -36 d s 574 478 m -1 -1 d s 417 321 m -35 -35 d s 334 238 m s 306 210 m -9 -9 d s 1148 1100 m -431 -431 d s 710 662 m -41 -41 d s 267 219 m -18 -18 d s 1132 1132 m -415 -415 d s
 1100 1149 m -335 -336 d s 734 782 m -17 -17 d s 1055 1151 m -290 -290 d s 1053 1197 m -48 -48 d s 997 1142 m -88 -89 d s 877 1022 m -16 -17 d s 859 1003 m -46 -46 d s 776 920 m -11 -11 d s 1053 1245 m -48 -48 d s 931 1123 m -22 -22 d s 1049 1289 m
 -44 -44 d s 6 lw 238 219 m 48 X -9 Y 48 X 28 Y 48 X 83 Y 48 X -19 Y 48 X 65 Y 48 X 46 Y 47 X 65 Y 48 X 83 Y 48 X 101 Y 48 X 120 Y 48 X 138 Y 48 X 83 Y 48 X 19 Y 48 X 101 Y 48 X 19 Y 48 X 147 Y 48 X -138 Y 47 X -19 Y 48 X -46 Y 48 X -18 Y 48 X -231 Y
 48 X -221 Y 48 X -157 Y 48 X -55 Y 48 X -83 Y 48 X -9 Y 48 X -10 Y 47 X -27 Y 48 X 9 Y 48 X -19 Y 48 X -55 Y 96 X -9 Y 335 X s black 3 lw 238 201 m 1916 X s 421 243 m -42 Y s 490 222 m -21 Y s 558 222 m -21 Y s 627 222 m -21 Y s 696 222 m -21 Y s
 764 243 m -42 Y s 833 222 m -21 Y s 901 222 m -21 Y s 970 222 m -21 Y s 1039 222 m -21 Y s 1107 243 m -42 Y s 1176 222 m -21 Y s 1244 222 m -21 Y s 1313 222 m -21 Y s 1382 222 m -21 Y s 1450 243 m -42 Y s 1519 222 m -21 Y s 1587 222 m -21 Y s 1656
 222 m -21 Y s 1725 222 m -21 Y s 1793 243 m -42 Y s 1862 222 m -21 Y s 1930 222 m -21 Y s 1999 222 m -21 Y s 2068 222 m -21 Y s 2136 243 m -42 Y s 421 243 m -42 Y s 353 222 m -21 Y s 284 222 m -21 Y s 2136 243 m -42 Y s 238 1507 m 1916 X s 421 1464
 m 43 Y s 490 1486 m 21 Y s 558 1486 m 21 Y s 627 1486 m 21 Y s 696 1486 m 21 Y s 764 1464 m 43 Y s 833 1486 m 21 Y s 901 1486 m 21 Y s 970 1486 m 21 Y s 1039 1486 m 21 Y s 1107 1464 m 43 Y s 1176 1486 m 21 Y s 1244 1486 m 21 Y s 1313 1486 m 21 Y s
 1382 1486 m 21 Y s 1450 1464 m 43 Y s 1519 1486 m 21 Y s 1587 1486 m 21 Y s 1656 1486 m 21 Y s 1725 1486 m 21 Y s 1793 1464 m 43 Y s 1862 1486 m 21 Y s 1930 1486 m 21 Y s 1999 1486 m 21 Y s 2068 1486 m 21 Y s 2136 1464 m 43 Y s 421 1464 m 43 Y s 353
 1486 m 21 Y s 284 1486 m 21 Y s 2136 1464 m 43 Y s 238 201 m 1306 Y s 291 201 m -53 X s 265 238 m -27 X s 265 275 m -27 X s 265 313 m -27 X s 265 350 m -27 X s 291 387 m -53 X s 265 425 m -27 X s 265 462 m -27 X s 265 499 m -27 X s 265 537 m -27 X s
 291 574 m -53 X s 265 611 m -27 X s 265 649 m -27 X s 265 686 m -27 X s 265 723 m -27 X s 291 760 m -53 X s 265 798 m -27 X s 265 835 m -27 X s 265 872 m -27 X s 265 910 m -27 X s 291 947 m -53 X s 265 984 m -27 X s 265 1022 m -27 X s 265 1059 m -27
 X s 265 1096 m -27 X s 291 1133 m -53 X s 265 1171 m -27 X s 265 1208 m -27 X s 265 1245 m -27 X s 265 1283 m -27 X s 291 1320 m -53 X s 265 1357 m -27 X s 265 1395 m -27 X s 265 1432 m -27 X s 265 1469 m -27 X s 291 1506 m -53 X s 291 1506 m -53 X
 s 2154 201 m 1306 Y s 2101 201 m 53 X s 2128 238 m 26 X s 2128 275 m 26 X s 2128 313 m 26 X s 2128 350 m 26 X s 2101 387 m 53 X s 2128 425 m 26 X s 2128 462 m 26 X s 2128 499 m 26 X s 2128 537 m 26 X s 2101 574 m 53 X s 2128 611 m 26 X s 2128 649 m
 26 X s 2128 686 m 26 X s 2128 723 m 26 X s 2101 760 m 53 X s 2128 798 m 26 X s 2128 835 m 26 X s 2128 872 m 26 X s 2128 910 m 26 X s 2101 947 m 53 X s 2128 984 m 26 X s 2128 1022 m 26 X s 2128 1059 m 26 X s 2128 1096 m 26 X s 2101 1133 m 53 X s 2128
 1171 m 26 X s 2128 1208 m 26 X s 2128 1245 m 26 X s 2128 1283 m 26 X s 2101 1320 m 53 X s 2128 1357 m 26 X s 2128 1395 m 26 X s 2128 1432 m 26 X s 2128 1469 m 26 X s 2101 1506 m 53 X s 2101 1506 m 53 X s
 gsave  2268 1674 0 0 C 2211.02 192.528 t 90 r /Helvetica-Bold findfont 45.6587 sf 0 0 m (U/O\255flow \(S,B\): \(0.0, 0.0\)% / \(0.0, 0.0\)%) show NC gr  0.490196 0.545098 0.615686 c 0.364706 0.419608 0.490196 c 1362 96 23 1570 bf 0.490196 0.545098
 0.615686 c 23 1570 m 1362 X s 1385 1570 m 96 Y s 1385 1666 m -1362 X s 23 1666 m -96 Y s 1 1 1 c black 1 1 1 c
 gsave  2268 1674 0 0 C 72.293 1598.06 t 0 r /Helvetica-Bold findfont 76.0979 sf 0 0 m (TMVA response for classifier: BDT) show NC gr 
 gr  gr showpage
end
%%EOF
