%!PS-Adobe-2.0 EPSF-2.0
%%BoundingBox:  0 0 567 414
%%Title: plots/rejBvsS.eps: the canvas
%%Creator: ROOT Version 5.34/36
%%CreationDate: Tue Feb 28 17:22:08 2017
%%EndComments
%%BeginProlog
80 dict begin
/s {stroke} def /l {lineto} def /m {moveto} def /t {translate} def
/r {rotate} def /rl {roll}  def /R {repeat} def
/d {rlineto} def /rm {rmoveto} def /gr {grestore} def /f {eofill} def
/c {setrgbcolor} def /black {0 setgray} def /sd {setdash} def
/cl {closepath} def /sf {scalefont setfont} def /lw {setlinewidth} def
/box {m dup 0 exch d exch 0 d 0 exch neg d cl} def
/NC{systemdict begin initclip end}def/C{NC box clip newpath}def
/bl {box s} def /bf {gsave box gsave f grestore 1 lw [] 0 sd s grestore} def /Y { 0 exch d} def /X { 0 d} def 
/K {{pop pop 0 moveto} exch kshow} bind def
/ita {/ang 15 def gsave [1 0 ang dup sin exch cos div 1 0 0] concat} def 
/mp {newpath /y exch def /x exch def} def
/side {[w .77 mul w .23 mul] .385 w mul sd w 0 l currentpoint t -144 r} def
/mr {mp x y w2 0 360 arc} def /m24 {mr s} def /m20 {mr f} def
/mb {mp x y w2 add m w2 neg 0 d 0 w neg d w 0 d 0 w d cl} def
/mt {mp x y w2 add m w2 neg w neg d w 0 d cl} def
/m21 {mb f} def /m25 {mb s} def /m22 {mt f} def /m26{mt s} def
/m23 {mp x y w2 sub m w2 w d w neg 0 d cl f} def
/m27 {mp x y w2 add m w3 neg w2 neg d w3 w2 neg d w3 w2 d cl s} def
/m28 {mp x w2 sub y w2 sub w3 add m w3 0 d  0 w3 neg d w3 0 d 0 w3 d w3 0 d  0 w3 d w3 neg 0 d 0 w3 d w3 neg 0 d 0 w3 neg d w3 neg 0 d cl s } def
/m29 {mp gsave x w2 sub y w2 add w3 sub m currentpoint t 4 {side} repeat cl fill gr} def
/m30 {mp gsave x w2 sub y w2 add w3 sub m currentpoint t 4 {side} repeat cl s gr} def
/m31 {mp x y w2 sub m 0 w d x w2 sub y m w 0 d x w2 sub y w2 add m w w neg d x w2 sub y w2 sub m w w d s} def
/m32 {mp x y w2 sub m w2 w d w neg 0 d cl s} def
/m33 {mp x y w2 add m w3 neg w2 neg d w3 w2 neg d w3 w2 d cl f} def
/m34 {mp x w2 sub y w2 sub w3 add m w3 0 d  0 w3 neg d w3 0 d 0 w3 d w3 0 d  0 w3 d w3 neg 0 d 0 w3 d w3 neg 0 d 0 w3 neg d w3 neg 0 d cl f } def
/m2 {mp x y w2 sub m 0 w d x w2 sub y m w 0 d s} def
/m5 {mp x w2 sub y w2 sub m w w d x w2 sub y w2 add m w w neg d s} def
/reEncode {exch findfont dup length dict begin {1 index /FID eq  {pop pop} {def} ifelse } forall /Encoding exch def currentdict end dup /FontName get exch definefont pop } def [/Times-Bold /Times-Italic /Times-BoldItalic /Helvetica /Helvetica-Oblique
 /Helvetica-Bold /Helvetica-BoldOblique /Courier /Courier-Oblique /Courier-Bold /Courier-BoldOblique /Times-Roman /AvantGarde-Book /AvantGarde-BookOblique /AvantGarde-Demi /AvantGarde-DemiOblique /Bookman-Demi /Bookman-DemiItalic /Bookman-Light
 /Bookman-LightItalic /Helvetica-Narrow /Helvetica-Narrow-Bold /Helvetica-Narrow-BoldOblique /Helvetica-Narrow-Oblique /NewCenturySchlbk-Roman /NewCenturySchlbk-Bold /NewCenturySchlbk-BoldItalic /NewCenturySchlbk-Italic /Palatino-Bold
 /Palatino-BoldItalic /Palatino-Italic /Palatino-Roman ] {ISOLatin1Encoding reEncode } forall
%%EndProlog
%%BeginSetup
%%EndSetup
newpath  gsave  .25 .25 scale  gsave  0 0 t 0.490196 0.545098 0.615686 c[  ] 0 sd 3 lw 0.941176 0.941176 0.941176 c 2268 1657 0 0 bf black 1 1 0.992157 c 1909 1292 245 199 bf black 1909 1292 245 199 bl 1 1 0.992157 c 1909 1292 245 199 bf black 1909
 1292 245 199 bl 245 199 m 1909 X s
 gsave  2268 1657 0 0 C 1597.23 31.5936 t 0 r /Helvetica-Bold findfont 70.2079 sf 0 0 m (Signal efficiency) show NC gr  245 241 m -42 Y s[ 4 8] 0 sd 245 1491 m -1292 Y s[  ] 0 sd 283 220 m -21 Y s 321 220 m -21 Y s 359 220 m -21 Y s 398 220 m -21 Y s
 436 241 m -42 Y s[ 4 8] 0 sd 436 1491 m -1292 Y s[  ] 0 sd 474 220 m -21 Y s 512 220 m -21 Y s 550 220 m -21 Y s 589 220 m -21 Y s 627 241 m -42 Y s[ 4 8] 0 sd 627 1491 m -1292 Y s[  ] 0 sd 665 220 m -21 Y s 703 220 m -21 Y s 741 220 m -21 Y s 780
 220 m -21 Y s 818 241 m -42 Y s[ 4 8] 0 sd 818 1491 m -1292 Y s[  ] 0 sd 856 220 m -21 Y s 894 220 m -21 Y s 932 220 m -21 Y s 970 220 m -21 Y s 1009 241 m -42 Y s[ 4 8] 0 sd 1009 1491 m -1292 Y s[  ] 0 sd 1047 220 m -21 Y s 1085 220 m -21 Y s 1123
 220 m -21 Y s 1161 220 m -21 Y s 1200 241 m -42 Y s[ 4 8] 0 sd 1200 1491 m -1292 Y s[  ] 0 sd 1238 220 m -21 Y s 1276 220 m -21 Y s 1314 220 m -21 Y s 1352 220 m -21 Y s 1391 241 m -42 Y s[ 4 8] 0 sd 1391 1491 m -1292 Y s[  ] 0 sd 1429 220 m -21 Y s
 1467 220 m -21 Y s 1505 220 m -21 Y s 1543 220 m -21 Y s 1582 241 m -42 Y s[ 4 8] 0 sd 1582 1491 m -1292 Y s[  ] 0 sd 1620 220 m -21 Y s 1658 220 m -21 Y s 1696 220 m -21 Y s 1734 220 m -21 Y s 1772 241 m -42 Y s[ 4 8] 0 sd 1772 1491 m -1292 Y s[  ]
 0 sd 1811 220 m -21 Y s 1849 220 m -21 Y s 1887 220 m -21 Y s 1925 220 m -21 Y s 1963 241 m -42 Y s[ 4 8] 0 sd 1963 1491 m -1292 Y s[  ] 0 sd 2002 220 m -21 Y s 2040 220 m -21 Y s 2078 220 m -21 Y s 2116 220 m -21 Y s 2154 241 m -42 Y s[ 4 8] 0 sd
 2154 1491 m -1292 Y s
 gsave  2268 1657 0 0 C 224.665 126.374 t 0 r /Helvetica-Bold findfont 63.1872 sf 0 0 m (0) show NC gr 
 gsave  2268 1657 0 0 C 396.675 126.374 t 0 r /Helvetica-Bold findfont 63.1872 sf 0 0 m (0.1) show NC gr 
 gsave  2268 1657 0 0 C 579.216 126.374 t 0 r /Helvetica-Bold findfont 63.1872 sf 0 0 m (0.2) show NC gr 
 gsave  2268 1657 0 0 C 768.777 126.374 t 0 r /Helvetica-Bold findfont 63.1872 sf 0 0 m (0.3) show NC gr 
 gsave  2268 1657 0 0 C 961.849 126.374 t 0 r /Helvetica-Bold findfont 63.1872 sf 0 0 m (0.4) show NC gr 
 gsave  2268 1657 0 0 C 1151.41 126.374 t 0 r /Helvetica-Bold findfont 63.1872 sf 0 0 m (0.5) show NC gr 
 gsave  2268 1657 0 0 C 1344.48 126.374 t 0 r /Helvetica-Bold findfont 63.1872 sf 0 0 m (0.6) show NC gr 
 gsave  2268 1657 0 0 C 1534.04 126.374 t 0 r /Helvetica-Bold findfont 63.1872 sf 0 0 m (0.7) show NC gr 
 gsave  2268 1657 0 0 C 1723.6 126.374 t 0 r /Helvetica-Bold findfont 63.1872 sf 0 0 m (0.8) show NC gr 
 gsave  2268 1657 0 0 C 1916.68 126.374 t 0 r /Helvetica-Bold findfont 63.1872 sf 0 0 m (0.9) show NC gr 
 gsave  2268 1657 0 0 C 2137.83 126.374 t 0 r /Helvetica-Bold findfont 63.1872 sf 0 0 m (1) show NC gr [  ] 0 sd 245 1491 m 1909 X s 245 1449 m 42 Y s 283 1470 m 21 Y s 321 1470 m 21 Y s 359 1470 m 21 Y s 398 1470 m 21 Y s 436 1449 m 42 Y s 474 1470
 m 21 Y s 512 1470 m 21 Y s 550 1470 m 21 Y s 589 1470 m 21 Y s 627 1449 m 42 Y s 665 1470 m 21 Y s 703 1470 m 21 Y s 741 1470 m 21 Y s 780 1470 m 21 Y s 818 1449 m 42 Y s 856 1470 m 21 Y s 894 1470 m 21 Y s 932 1470 m 21 Y s 970 1470 m 21 Y s 1009
 1449 m 42 Y s 1047 1470 m 21 Y s 1085 1470 m 21 Y s 1123 1470 m 21 Y s 1161 1470 m 21 Y s 1200 1449 m 42 Y s 1238 1470 m 21 Y s 1276 1470 m 21 Y s 1314 1470 m 21 Y s 1352 1470 m 21 Y s 1391 1449 m 42 Y s 1429 1470 m 21 Y s 1467 1470 m 21 Y s 1505
 1470 m 21 Y s 1543 1470 m 21 Y s 1582 1449 m 42 Y s 1620 1470 m 21 Y s 1658 1470 m 21 Y s 1696 1470 m 21 Y s 1734 1470 m 21 Y s 1772 1449 m 42 Y s 1811 1470 m 21 Y s 1849 1470 m 21 Y s 1887 1470 m 21 Y s 1925 1470 m 21 Y s 1963 1449 m 42 Y s 2002
 1470 m 21 Y s 2040 1470 m 21 Y s 2078 1470 m 21 Y s 2116 1470 m 21 Y s 2154 1449 m 42 Y s 245 199 m 1292 Y s
 gsave  2268 1657 0 0 C 63.1871 772.287 t 90 r /Helvetica-Bold findfont 70.2079 sf 0 0 m (Background rejection) show NC gr  298 199 m -53 X s[ 4 8] 0 sd 2154 199 m -1909 X s[  ] 0 sd 271 231 m -26 X s 271 263 m -26 X s 271 296 m -26 X s 271 328 m -26
 X s 298 360 m -53 X s[ 4 8] 0 sd 2154 360 m -1909 X s[  ] 0 sd 271 393 m -26 X s 271 425 m -26 X s 271 457 m -26 X s 271 490 m -26 X s 298 522 m -53 X s[ 4 8] 0 sd 2154 522 m -1909 X s[  ] 0 sd 271 554 m -26 X s 271 587 m -26 X s 271 619 m -26 X s
 271 651 m -26 X s 298 683 m -53 X s[ 4 8] 0 sd 2154 683 m -1909 X s[  ] 0 sd 271 716 m -26 X s 271 748 m -26 X s 271 780 m -26 X s 271 813 m -26 X s 298 845 m -53 X s[ 4 8] 0 sd 2154 845 m -1909 X s[  ] 0 sd 271 877 m -26 X s 271 910 m -26 X s 271
 942 m -26 X s 271 974 m -26 X s 298 1007 m -53 X s[ 4 8] 0 sd 2154 1007 m -1909 X s[  ] 0 sd 271 1039 m -26 X s 271 1071 m -26 X s 271 1104 m -26 X s 271 1136 m -26 X s 298 1168 m -53 X s[ 4 8] 0 sd 2154 1168 m -1909 X s[  ] 0 sd 271 1200 m -26 X s
 271 1233 m -26 X s 271 1265 m -26 X s 271 1297 m -26 X s 298 1330 m -53 X s[ 4 8] 0 sd 2154 1330 m -1909 X s[  ] 0 sd 271 1362 m -26 X s 271 1394 m -26 X s 271 1427 m -26 X s 271 1459 m -26 X s 298 1491 m -53 X s[ 4 8] 0 sd 2154 1491 m -1909 X s[  ]
 0 sd 298 199 m -53 X s[ 4 8] 0 sd 2154 199 m -1909 X s
 gsave  2268 1657 0 0 C 129.885 175.52 t 0 r /Helvetica-Bold findfont 63.1872 sf 0 0 m (0.2) show NC gr 
 gsave  2268 1657 0 0 C 129.885 336.998 t 0 r /Helvetica-Bold findfont 63.1872 sf 0 0 m (0.3) show NC gr 
 gsave  2268 1657 0 0 C 129.885 498.476 t 0 r /Helvetica-Bold findfont 63.1872 sf 0 0 m (0.4) show NC gr 
 gsave  2268 1657 0 0 C 129.885 659.955 t 0 r /Helvetica-Bold findfont 63.1872 sf 0 0 m (0.5) show NC gr 
 gsave  2268 1657 0 0 C 129.885 821.433 t 0 r /Helvetica-Bold findfont 63.1872 sf 0 0 m (0.6) show NC gr 
 gsave  2268 1657 0 0 C 129.885 982.911 t 0 r /Helvetica-Bold findfont 63.1872 sf 0 0 m (0.7) show NC gr 
 gsave  2268 1657 0 0 C 129.885 1144.39 t 0 r /Helvetica-Bold findfont 63.1872 sf 0 0 m (0.8) show NC gr 
 gsave  2268 1657 0 0 C 129.885 1305.87 t 0 r /Helvetica-Bold findfont 63.1872 sf 0 0 m (0.9) show NC gr 
 gsave  2268 1657 0 0 C 193.072 1467.35 t 0 r /Helvetica-Bold findfont 63.1872 sf 0 0 m (1) show NC gr [  ] 0 sd 2154 199 m 1292 Y s 2101 199 m 53 X s 2128 231 m 26 X s 2128 263 m 26 X s 2128 296 m 26 X s 2128 328 m 26 X s 2101 360 m 53 X s 2128 393
 m 26 X s 2128 425 m 26 X s 2128 457 m 26 X s 2128 490 m 26 X s 2101 522 m 53 X s 2128 554 m 26 X s 2128 587 m 26 X s 2128 619 m 26 X s 2128 651 m 26 X s 2101 683 m 53 X s 2128 716 m 26 X s 2128 748 m 26 X s 2128 780 m 26 X s 2128 813 m 26 X s 2101
 845 m 53 X s 2128 877 m 26 X s 2128 910 m 26 X s 2128 942 m 26 X s 2128 974 m 26 X s 2101 1007 m 53 X s 2128 1039 m 26 X s 2128 1071 m 26 X s 2128 1104 m 26 X s 2128 1136 m 26 X s 2101 1168 m 53 X s 2128 1200 m 26 X s 2128 1233 m 26 X s 2128 1265 m
 26 X s 2128 1297 m 26 X s 2101 1330 m 53 X s 2128 1362 m 26 X s 2128 1394 m 26 X s 2128 1427 m 26 X s 2128 1459 m 26 X s 2101 1491 m 53 X s 2101 199 m 53 X s 245 199 m 1909 X s 245 241 m -42 Y s[ 4 8] 0 sd 245 1491 m -1292 Y s[  ] 0 sd 283 220 m -21
 Y s 321 220 m -21 Y s 359 220 m -21 Y s 398 220 m -21 Y s 436 241 m -42 Y s[ 4 8] 0 sd 436 1491 m -1292 Y s[  ] 0 sd 474 220 m -21 Y s 512 220 m -21 Y s 550 220 m -21 Y s 589 220 m -21 Y s 627 241 m -42 Y s[ 4 8] 0 sd 627 1491 m -1292 Y s[  ] 0 sd
 665 220 m -21 Y s 703 220 m -21 Y s 741 220 m -21 Y s 780 220 m -21 Y s 818 241 m -42 Y s[ 4 8] 0 sd 818 1491 m -1292 Y s[  ] 0 sd 856 220 m -21 Y s 894 220 m -21 Y s 932 220 m -21 Y s 970 220 m -21 Y s 1009 241 m -42 Y s[ 4 8] 0 sd 1009 1491 m
 -1292 Y s[  ] 0 sd 1047 220 m -21 Y s 1085 220 m -21 Y s 1123 220 m -21 Y s 1161 220 m -21 Y s 1200 241 m -42 Y s[ 4 8] 0 sd 1200 1491 m -1292 Y s[  ] 0 sd 1238 220 m -21 Y s 1276 220 m -21 Y s 1314 220 m -21 Y s 1352 220 m -21 Y s 1391 241 m -42 Y
 s[ 4 8] 0 sd 1391 1491 m -1292 Y s[  ] 0 sd 1429 220 m -21 Y s 1467 220 m -21 Y s 1505 220 m -21 Y s 1543 220 m -21 Y s 1582 241 m -42 Y s[ 4 8] 0 sd 1582 1491 m -1292 Y s[  ] 0 sd 1620 220 m -21 Y s 1658 220 m -21 Y s 1696 220 m -21 Y s 1734 220 m
 -21 Y s 1772 241 m -42 Y s[ 4 8] 0 sd 1772 1491 m -1292 Y s[  ] 0 sd 1811 220 m -21 Y s 1849 220 m -21 Y s 1887 220 m -21 Y s 1925 220 m -21 Y s 1963 241 m -42 Y s[ 4 8] 0 sd 1963 1491 m -1292 Y s[  ] 0 sd 2002 220 m -21 Y s 2040 220 m -21 Y s 2078
 220 m -21 Y s 2116 220 m -21 Y s 2154 241 m -42 Y s[ 4 8] 0 sd 2154 1491 m -1292 Y s[  ] 0 sd 245 1491 m 1909 X s 245 1449 m 42 Y s 283 1470 m 21 Y s 321 1470 m 21 Y s 359 1470 m 21 Y s 398 1470 m 21 Y s 436 1449 m 42 Y s 474 1470 m 21 Y s 512 1470
 m 21 Y s 550 1470 m 21 Y s 589 1470 m 21 Y s 627 1449 m 42 Y s 665 1470 m 21 Y s 703 1470 m 21 Y s 741 1470 m 21 Y s 780 1470 m 21 Y s 818 1449 m 42 Y s 856 1470 m 21 Y s 894 1470 m 21 Y s 932 1470 m 21 Y s 970 1470 m 21 Y s 1009 1449 m 42 Y s 1047
 1470 m 21 Y s 1085 1470 m 21 Y s 1123 1470 m 21 Y s 1161 1470 m 21 Y s 1200 1449 m 42 Y s 1238 1470 m 21 Y s 1276 1470 m 21 Y s 1314 1470 m 21 Y s 1352 1470 m 21 Y s 1391 1449 m 42 Y s 1429 1470 m 21 Y s 1467 1470 m 21 Y s 1505 1470 m 21 Y s 1543
 1470 m 21 Y s 1582 1449 m 42 Y s 1620 1470 m 21 Y s 1658 1470 m 21 Y s 1696 1470 m 21 Y s 1734 1470 m 21 Y s 1772 1449 m 42 Y s 1811 1470 m 21 Y s 1849 1470 m 21 Y s 1887 1470 m 21 Y s 1925 1470 m 21 Y s 1963 1449 m 42 Y s 2002 1470 m 21 Y s 2040
 1470 m 21 Y s 2078 1470 m 21 Y s 2116 1470 m 21 Y s 2154 1449 m 42 Y s 245 199 m 1292 Y s 298 199 m -53 X s[ 4 8] 0 sd 2154 199 m -1909 X s[  ] 0 sd 271 231 m -26 X s 271 263 m -26 X s 271 296 m -26 X s 271 328 m -26 X s 298 360 m -53 X s[ 4 8] 0 sd
 2154 360 m -1909 X s[  ] 0 sd 271 393 m -26 X s 271 425 m -26 X s 271 457 m -26 X s 271 490 m -26 X s 298 522 m -53 X s[ 4 8] 0 sd 2154 522 m -1909 X s[  ] 0 sd 271 554 m -26 X s 271 587 m -26 X s 271 619 m -26 X s 271 651 m -26 X s 298 683 m -53 X
 s[ 4 8] 0 sd 2154 683 m -1909 X s[  ] 0 sd 271 716 m -26 X s 271 748 m -26 X s 271 780 m -26 X s 271 813 m -26 X s 298 845 m -53 X s[ 4 8] 0 sd 2154 845 m -1909 X s[  ] 0 sd 271 877 m -26 X s 271 910 m -26 X s 271 942 m -26 X s 271 974 m -26 X s 298
 1007 m -53 X s[ 4 8] 0 sd 2154 1007 m -1909 X s[  ] 0 sd 271 1039 m -26 X s 271 1071 m -26 X s 271 1104 m -26 X s 271 1136 m -26 X s 298 1168 m -53 X s[ 4 8] 0 sd 2154 1168 m -1909 X s[  ] 0 sd 271 1200 m -26 X s 271 1233 m -26 X s 271 1265 m -26 X
 s 271 1297 m -26 X s 298 1330 m -53 X s[ 4 8] 0 sd 2154 1330 m -1909 X s[  ] 0 sd 271 1362 m -26 X s 271 1394 m -26 X s 271 1427 m -26 X s 271 1459 m -26 X s 298 1491 m -53 X s[ 4 8] 0 sd 2154 1491 m -1909 X s[  ] 0 sd 298 199 m -53 X s[ 4 8] 0 sd
 2154 199 m -1909 X s[  ] 0 sd 2154 199 m 1292 Y s 2101 199 m 53 X s 2128 231 m 26 X s 2128 263 m 26 X s 2128 296 m 26 X s 2128 328 m 26 X s 2101 360 m 53 X s 2128 393 m 26 X s 2128 425 m 26 X s 2128 457 m 26 X s 2128 490 m 26 X s 2101 522 m 53 X s
 2128 554 m 26 X s 2128 587 m 26 X s 2128 619 m 26 X s 2128 651 m 26 X s 2101 683 m 53 X s 2128 716 m 26 X s 2128 748 m 26 X s 2128 780 m 26 X s 2128 813 m 26 X s 2101 845 m 53 X s 2128 877 m 26 X s 2128 910 m 26 X s 2128 942 m 26 X s 2128 974 m 26 X
 s 2101 1007 m 53 X s 2128 1039 m 26 X s 2128 1071 m 26 X s 2128 1104 m 26 X s 2128 1136 m 26 X s 2101 1168 m 53 X s 2128 1200 m 26 X s 2128 1233 m 26 X s 2128 1265 m 26 X s 2128 1297 m 26 X s 2101 1330 m 53 X s 2128 1362 m 26 X s 2128 1394 m 26 X s
 2128 1427 m 26 X s 2128 1459 m 26 X s 2101 1491 m 53 X s 2101 199 m 53 X s
 gsave  2268 1657 0 0 C 368.592 308.915 t 0 r /Helvetica-Bold findfont 56.1664 sf 0 0 m (MVA Method:) show NC gr  0.490196 0.545098 0.615686 c 0.364706 0.419608 0.490196 c 1587 101 23 1548 bf 0.490196 0.545098 0.615686 c 23 1548 m 1587 X s 1610 1548
 m 101 Y s 1610 1649 m -1587 X s 23 1649 m -101 Y s 1 1 1 c black 1 1 1 c
 gsave  2268 1657 0 0 C 80.7391 1579.68 t 0 r /Helvetica-Bold findfont 66.6975 sf 0 0 m (Background rejection versus Signal efficiency) show NC gr 
 gr  gr showpage
end
%%EOF
