%!PS-Adobe-2.0 EPSF-2.0
%%BoundingBox:  0 0 567 362
%%Title: plots/BDT_ControlPlots.eps: BDT Control Plots
%%Creator: ROOT Version 5.34/36
%%CreationDate: Tue Feb 28 17:22:41 2017
%%EndComments
%%BeginProlog
80 dict begin
/s {stroke} def /l {lineto} def /m {moveto} def /t {translate} def
/r {rotate} def /rl {roll}  def /R {repeat} def
/d {rlineto} def /rm {rmoveto} def /gr {grestore} def /f {eofill} def
/c {setrgbcolor} def /black {0 setgray} def /sd {setdash} def
/cl {closepath} def /sf {scalefont setfont} def /lw {setlinewidth} def
/box {m dup 0 exch d exch 0 d 0 exch neg d cl} def
/NC{systemdict begin initclip end}def/C{NC box clip newpath}def
/bl {box s} def /bf {gsave box gsave f grestore 1 lw [] 0 sd s grestore} def /Y { 0 exch d} def /X { 0 d} def 
/K {{pop pop 0 moveto} exch kshow} bind def
/ita {/ang 15 def gsave [1 0 ang dup sin exch cos div 1 0 0] concat} def 
/mp {newpath /y exch def /x exch def} def
/side {[w .77 mul w .23 mul] .385 w mul sd w 0 l currentpoint t -144 r} def
/mr {mp x y w2 0 360 arc} def /m24 {mr s} def /m20 {mr f} def
/mb {mp x y w2 add m w2 neg 0 d 0 w neg d w 0 d 0 w d cl} def
/mt {mp x y w2 add m w2 neg w neg d w 0 d cl} def
/m21 {mb f} def /m25 {mb s} def /m22 {mt f} def /m26{mt s} def
/m23 {mp x y w2 sub m w2 w d w neg 0 d cl f} def
/m27 {mp x y w2 add m w3 neg w2 neg d w3 w2 neg d w3 w2 d cl s} def
/m28 {mp x w2 sub y w2 sub w3 add m w3 0 d  0 w3 neg d w3 0 d 0 w3 d w3 0 d  0 w3 d w3 neg 0 d 0 w3 d w3 neg 0 d 0 w3 neg d w3 neg 0 d cl s } def
/m29 {mp gsave x w2 sub y w2 add w3 sub m currentpoint t 4 {side} repeat cl fill gr} def
/m30 {mp gsave x w2 sub y w2 add w3 sub m currentpoint t 4 {side} repeat cl s gr} def
/m31 {mp x y w2 sub m 0 w d x w2 sub y m w 0 d x w2 sub y w2 add m w w neg d x w2 sub y w2 sub m w w d s} def
/m32 {mp x y w2 sub m w2 w d w neg 0 d cl s} def
/m33 {mp x y w2 add m w3 neg w2 neg d w3 w2 neg d w3 w2 d cl f} def
/m34 {mp x w2 sub y w2 sub w3 add m w3 0 d  0 w3 neg d w3 0 d 0 w3 d w3 0 d  0 w3 d w3 neg 0 d 0 w3 d w3 neg 0 d 0 w3 neg d w3 neg 0 d cl f } def
/m2 {mp x y w2 sub m 0 w d x w2 sub y m w 0 d s} def
/m5 {mp x w2 sub y w2 sub m w w d x w2 sub y w2 add m w w neg d s} def
/reEncode {exch findfont dup length dict begin {1 index /FID eq  {pop pop} {def} ifelse } forall /Encoding exch def currentdict end dup /FontName get exch definefont pop } def [/Times-Bold /Times-Italic /Times-BoldItalic /Helvetica /Helvetica-Oblique
 /Helvetica-Bold /Helvetica-BoldOblique /Courier /Courier-Oblique /Courier-Bold /Courier-BoldOblique /Times-Roman /AvantGarde-Book /AvantGarde-BookOblique /AvantGarde-Demi /AvantGarde-DemiOblique /Bookman-Demi /Bookman-DemiItalic /Bookman-Light
 /Bookman-LightItalic /Helvetica-Narrow /Helvetica-Narrow-Bold /Helvetica-Narrow-BoldOblique /Helvetica-Narrow-Oblique /NewCenturySchlbk-Roman /NewCenturySchlbk-Bold /NewCenturySchlbk-BoldItalic /NewCenturySchlbk-Italic /Palatino-Bold
 /Palatino-BoldItalic /Palatino-Italic /Palatino-Roman ] {ISOLatin1Encoding reEncode } forall
%%EndProlog
%%BeginSetup
%%EndSetup
newpath  gsave  .25 .25 scale  gsave  0 0 t 0.490196 0.545098 0.615686 c[  ] 0 sd 3 lw 0.941176 0.941176 0.941176 c 2268 1448 0 0 bf 0.490196 0.545098 0.615686 c 0.941176 0.941176 0.941176 c 710 695 23 738 bf 0.490196 0.545098 0.615686 c 0.941176
 0.941176 0.941176 c 710 695 779 738 bf black 1 1 0.992157 c 590 549 864 815 bf black 590 549 864 815 bl 1 1 0.992157 c 590 549 864 815 bf black 590 549 864 815 bl 0 0 1 c 1 1 1 c 0 0 1 c 864 1237 m 6 X -422 Y 584 X s black 864 815 m 590 X s
 gsave  710 695 779 738 C 1295.84 764.342 t 0 r /Helvetica-Bold findfont 25.3611 sf 0 0 m (boost weight) show NC gr  864 832 m -17 Y s 884 823 m -8 Y s 903 823 m -8 Y s 923 823 m -8 Y s 942 823 m -8 Y s 962 832 m -17 Y s 982 823 m -8 Y s 1001 823 m
 -8 Y s 1021 823 m -8 Y s 1041 823 m -8 Y s 1060 832 m -17 Y s 1080 823 m -8 Y s 1100 823 m -8 Y s 1119 823 m -8 Y s 1139 823 m -8 Y s 1159 832 m -17 Y s 1178 823 m -8 Y s 1198 823 m -8 Y s 1218 823 m -8 Y s 1237 823 m -8 Y s 1257 832 m -17 Y s 1277
 823 m -8 Y s 1296 823 m -8 Y s 1316 823 m -8 Y s 1336 823 m -8 Y s 1355 832 m -17 Y s 1375 823 m -8 Y s 1395 823 m -8 Y s 1414 823 m -8 Y s 1434 823 m -8 Y s 1454 832 m -17 Y s
 gsave  710 695 779 738 C 855.456 789.651 t 0 r /Helvetica-Bold findfont 25.3611 sf 0 0 m (0) show NC gr 
 gsave  710 695 779 738 C 954.162 789.651 t 0 r /Helvetica-Bold findfont 25.3611 sf 0 0 m (5) show NC gr 
 gsave  710 695 779 738 C 1042.74 789.651 t 0 r /Helvetica-Bold findfont 25.3611 sf 0 0 m (10) show NC gr 
 gsave  710 695 779 738 C 1141.45 789.651 t 0 r /Helvetica-Bold findfont 25.3611 sf 0 0 m (15) show NC gr 
 gsave  710 695 779 738 C 1240.16 789.651 t 0 r /Helvetica-Bold findfont 25.3611 sf 0 0 m (20) show NC gr 
 gsave  710 695 779 738 C 1338.86 789.651 t 0 r /Helvetica-Bold findfont 25.3611 sf 0 0 m (25) show NC gr 
 gsave  710 695 779 738 C 1437.57 789.651 t 0 r /Helvetica-Bold findfont 25.3611 sf 0 0 m (30) show NC gr  864 1364 m 590 X s 864 1346 m 18 Y s 884 1355 m 9 Y s 903 1355 m 9 Y s 923 1355 m 9 Y s 942 1355 m 9 Y s 962 1346 m 18 Y s 982 1355 m 9 Y s
 1001 1355 m 9 Y s 1021 1355 m 9 Y s 1041 1355 m 9 Y s 1060 1346 m 18 Y s 1080 1355 m 9 Y s 1100 1355 m 9 Y s 1119 1355 m 9 Y s 1139 1355 m 9 Y s 1159 1346 m 18 Y s 1178 1355 m 9 Y s 1198 1355 m 9 Y s 1218 1355 m 9 Y s 1237 1355 m 9 Y s 1257 1346 m
 18 Y s 1277 1355 m 9 Y s 1296 1355 m 9 Y s 1316 1355 m 9 Y s 1336 1355 m 9 Y s 1355 1346 m 18 Y s 1375 1355 m 9 Y s 1395 1355 m 9 Y s 1414 1355 m 9 Y s 1434 1355 m 9 Y s 1454 1346 m 18 Y s 864 815 m 549 Y s 881 815 m -17 X s 872 840 m -8 X s 872 865
 m -8 X s 872 889 m -8 X s 881 914 m -17 X s 872 939 m -8 X s 872 964 m -8 X s 872 989 m -8 X s 881 1014 m -17 X s 872 1039 m -8 X s 872 1063 m -8 X s 872 1088 m -8 X s 881 1113 m -17 X s 872 1138 m -8 X s 872 1163 m -8 X s 872 1188 m -8 X s 881 1213
 m -17 X s 872 1238 m -8 X s 872 1262 m -8 X s 872 1287 m -8 X s 881 1312 m -17 X s 881 1312 m -17 X s 872 1337 m -8 X s 872 1362 m -8 X s
 gsave  710 695 779 738 C 842.801 804.837 t 0 r /Helvetica-Bold findfont 25.3611 sf 0 0 m (0) show NC gr 
 gsave  710 695 779 738 C 814.961 906.074 t 0 r /Helvetica-Bold findfont 25.3611 sf 0 0 m (200) show NC gr 
 gsave  710 695 779 738 C 814.961 1004.78 t 0 r /Helvetica-Bold findfont 25.3611 sf 0 0 m (400) show NC gr 
 gsave  710 695 779 738 C 814.961 1103.49 t 0 r /Helvetica-Bold findfont 25.3611 sf 0 0 m (600) show NC gr 
 gsave  710 695 779 738 C 814.961 1204.72 t 0 r /Helvetica-Bold findfont 25.3611 sf 0 0 m (800) show NC gr 
 gsave  710 695 779 738 C 802.306 1303.43 t 0 r /Helvetica-Bold findfont 25.3611 sf 0 0 m (1000) show NC gr  1454 815 m 549 Y s 1437 815 m 17 X s 1445 840 m 9 X s 1445 865 m 9 X s 1445 889 m 9 X s 1437 914 m 17 X s 1445 939 m 9 X s 1445 964 m 9 X s
 1445 989 m 9 X s 1437 1014 m 17 X s 1445 1039 m 9 X s 1445 1063 m 9 X s 1445 1088 m 9 X s 1437 1113 m 17 X s 1445 1138 m 9 X s 1445 1163 m 9 X s 1445 1188 m 9 X s 1437 1213 m 17 X s 1445 1238 m 9 X s 1445 1262 m 9 X s 1445 1287 m 9 X s 1437 1312 m
 17 X s 1437 1312 m 17 X s 1445 1337 m 9 X s 1445 1362 m 9 X s 0.490196 0.545098 0.615686 c 0.364706 0.419608 0.490196 c 492 40 786 1390 bf 0.490196 0.545098 0.615686 c 786 1390 m 492 X s 1278 1390 m 40 Y s 1278 1430 m -492 X s 786 1430 m -40 Y s 1 1
 1 c black 1 1 1 c
 gsave  710 695 779 738 C 809.899 1402.14 t 0 r /Helvetica-Bold findfont 30.4333 sf 0 0 m (AdaBooost weight distribution) show NC gr  0.490196 0.545098 0.615686 c 0.941176 0.941176 0.941176 c 711 695 1534 738 bf black 1 1 0.992157 c 590 549 1620 815
 bf black 590 549 1620 815 bl 1 1 0.992157 c 590 549 1620 815 bf black 590 549 1620 815 bl 0 0 1 c 1 1 1 c 0 0 1 c 1620 1237 m -74 Y 1 X -47 Y 1 X 45 Y 1 X -127 Y 1 X -40 Y 1 X 14 Y -79 Y 1 X 69 Y 1 X -63 Y 1 X -30 Y 1 X 35 Y 1 X 6 Y 1 X -61 Y 1 X 43
 Y 1 X 26 Y 1 X -62 Y 1 X -37 Y 1 X 43 Y 1 X -27 Y 1 X 35 Y 2 X -2 Y 1 X -40 Y 1 X -6 Y 1 X 26 Y -33 Y 1 X 5 Y 1 X 15 Y -10 Y 1 X 7 Y 1 X 32 Y 1 X -63 Y 1 X 27 Y 1 X -21 Y 22 Y 1 X -17 Y 1 X 16 Y -6 Y 1 X 11 Y 1 X 19 Y -31 Y 1 X 3 Y 1 X 32 Y 1 X -52
 Y 1 X 4 Y 1 X -4 Y 1 X 16 Y 1 X -18 Y 8 Y 2 X 15 Y -6 Y 1 X -6 Y 1 X 23 Y 1 X -26 Y 1 X 10 Y 1 X -18 Y 1 X -9 Y 1 X 58 Y 1 X 3 Y 1 X -15 Y 9 Y 1 X -47 Y 1 X 1 Y 1 X 53 Y -16 Y 1 X -22 Y 1 X -1 Y 7 Y 1 X -14 Y 1 X -5 Y 48 Y 1 X -37 Y 1 X -8 Y 1 X 26
 Y 1 X -25 Y 1 X -3 Y 35 Y 1 X -23 Y 1 X -16 Y 1 X 5 Y 1 X -12 Y 1 X 7 Y 1 X 7 Y 1 X 9 Y -10 Y 1 X -16 Y 1 X 14 Y 1 X 2 Y 1 X 48 Y 1 X -35 Y 1 X -26 Y 1 X 31 Y 1 X -32 Y 1 X -1 Y 2 Y 1 X 15 Y 1 X -17 Y 12 Y 1 X -6 Y 1 X 2 Y -5 Y 1 X 7 Y 1 X 6 Y -10 Y
 1 X 6 Y 1 X -4 Y 1 X -6 Y 10 Y 1 X -9 Y 1 X -1 Y 6 Y 1 X 7 Y 1 X -12 Y 1 X 5 Y 1 X -4 Y 1 X 6 Y 1 X -4 Y 1 X -8 Y 2 Y 1 X 1 Y 1 X 9 Y 1 X -5 Y 1 X 7 Y -8 Y 1 X 1 Y 1 X 16 Y 1 X 42 Y 1 X -57 Y 1 X 26 Y -12 Y 1 X 3 Y 1 X -13 Y 7 Y 1 X 7 Y 1 X -22 Y 3
 Y 1 X 17 Y 1 X -6 Y 1 X 18 Y 1 X -9 Y 1 X 13 Y 1 X -4 Y 1 X 19 Y -29 Y 1 X -2 Y 1 X -17 Y 1 X 2 Y 1 X 18 Y 1 X 45 Y 1 X -35 Y 1 X -33 Y 22 Y 1 X -11 Y 1 X 4 Y -15 Y 1 X 14 Y 1 X -2 Y 1 X 13 Y -2 Y 1 X -15 Y 1 X 23 Y -8 Y 1 X -7 Y 1 X 20 Y 1 X 9 Y 1
 X -19 Y 1 X -6 Y 1 X -19 Y 1 X 18 Y -20 Y 1 X 8 Y 1 X 11 Y 1 X -14 Y 1 X 6 Y -5 Y 1 X 39 Y 1 X 7 Y -24 Y 1 X -2 Y 1 X 8 Y 1 X -28 Y 5 Y 1 X -11 Y 1 X 8 Y -6 Y 1 X 4 Y 1 X 20 Y -8 Y 1 X 5 Y 1 X 17 Y -20 Y 1 X -18 Y 1 X 29 Y 1 X -9 Y 12 Y 1 X -3 Y 1 X
 3 Y -12 Y 1 X -7 Y 1 X -8 Y 7 Y 1 X -15 Y 1 X 18 Y 1 X 21 Y 1 X -20 Y 1 X -8 Y 21 Y 1 X -4 Y 1 X -32 Y 1 X 8 Y 1 X -4 Y 1 X 38 Y 1 X -9 Y 1 X 12 Y -4 Y 1 X -22 Y 1 X 13 Y 1 X 9 Y 1 X -33 Y 17 Y 1 X 27 Y 1 X -38 Y 1 X 15 Y 1 X -11 Y 1 X 11 Y -5 Y 1 X
 6 Y 1 X -17 Y 4 Y 1 X -4 Y 1 X 24 Y 1 X -4 Y 1 X -27 Y 33 Y 1 X 1 Y 1 X -11 Y 1 X -20 Y 22 Y 1 X -6 Y 1 X -14 Y 19 Y 1 X -9 Y 1 X -14 Y 24 Y 1 X -29 Y 1 X 4 Y -5 Y 1 X 2 Y 1 X 1 Y 1 X 10 Y -10 Y 1 X 2 Y 1 X 35 Y 1 X -12 Y 1 X 14 Y -13 Y 1 X 19 Y 1 X
 -31 Y 1 X -5 Y 18 Y 1 X -1 Y 1 X -20 Y 1 X 4 Y 1 X -2 Y 1 X -7 Y 1 X 15 Y -14 Y 1 X 12 Y 1 X -6 Y 1 X -9 Y 1 X 8 Y 1 X -7 Y 1 X 13 Y 1 X 6 Y 1 X 19 Y 1 X -9 Y 1 X 14 Y 1 X -16 Y 1 X 7 Y 1 X -11 Y 1 X -25 Y 27 Y 1 X 22 Y 1 X -33 Y 1 X 16 Y 1 X -16 Y
 6 Y 1 X 4 Y 1 X -21 Y 1 X 5 Y -1 Y 1 X 12 Y 1 X 16 Y -27 Y 1 X -2 Y 1 X 2 Y -2 Y 1 X -3 Y 1 X 6 Y 1 X 1 Y 1 X 1 Y 1 X -5 Y 7 Y 1 X 2 Y 1 X -6 Y 15 Y 1 X -2 Y 1 X -19 Y 7 Y 1 X -8 Y 1 X 19 Y 1 X 7 Y -24 Y 1 X -1 Y 1 X -2 Y 1 X 6 Y 1 X -8 Y 1 X 9 Y 1
 X -2 Y 3 Y 1 X -3 Y 1 X 7 Y 1 X 24 Y 1 X -33 Y 1 X -7 Y 12 Y 1 X -7 Y 1 X 12 Y -10 Y 1 X -6 Y 1 X -1 Y 1 Y 1 X 13 Y 1 X 20 Y 1 X -28 Y 1 X 6 Y 1 X -9 Y 22 Y 1 X -13 Y 1 X 18 Y 1 X -2 Y 1 X -2 Y 1 X -24 Y 1 X 15 Y 1 X -12 Y 1 X 20 Y 1 X -23 Y 1 X 16
 Y 1 X 17 Y -23 Y 1 X 1 Y 1 X -7 Y 1 X -3 Y 8 Y 2 X -2 Y 1 X 7 Y 1 X 3 Y -3 Y 1 X 9 Y 1 X -9 Y 1 X -4 Y 1 X 6 Y 1 X 22 Y -10 Y 1 X -4 Y 1 X -12 Y 13 Y 1 X -22 Y 1 X 14 Y 1 X -14 Y 1 X 18 Y -17 Y 1 X 14 Y 1 X 2 Y 1 X -6 Y 1 X -4 Y 1 X 32 Y -23 Y 1 X 6
 Y 1 X 3 Y -13 Y 1 X 17 Y 1 X -4 Y 1 X -28 Y 1 Y 1 X 8 Y 1 X -7 Y 16 Y 1 X -17 Y 1 X -2 Y 8 Y 1 X -3 Y 1 X 14 Y -4 Y 1 X 1 Y 1 X 6 Y 1 X -18 Y 1 X 19 Y 1 X -13 Y 9 Y 1 X 8 Y 1 X 3 Y -33 Y 1 X 3 Y 1 X 30 Y 1 X 2 Y 1 X 14 Y 1 X -36 Y 12 Y 1 X -8 Y 1 X
 10 Y -16 Y 1 X -5 Y 1 X 21 Y 1 X -19 Y 1 X 27 Y -1 Y 1 X 2 Y 1 X -3 Y 1 X -15 Y 1 X -6 Y 1 X 4 Y 1 X -8 Y 1 X 1 Y 2 X 18 Y 1 X -20 Y 1 X 1 Y 1 X -2 Y 4 Y 1 X 14 Y 1 X -16 Y 1 X 11 Y 1 X -11 Y 2 X -2 Y 1 X -2 Y 3 Y 1 X -1 Y 1 X 14 Y -5 Y 1 X 13 Y 1 X
 -21 Y 20 Y 1 X 4 Y 1 X -25 Y 1 X -5 Y 1 X 1 Y 1 X -2 Y 1 Y 2 X 11 Y -8 Y 1 X 4 Y 1 X -3 Y 2 X -4 Y 4 Y 1 X -3 Y 1 X 19 Y 1 X -20 Y 1 X 3 Y 1 X 13 Y -3 Y 1 X -3 Y 1 X 1 Y -3 Y 1 X 3 Y 1 X -7 Y 1 X -3 Y 21 Y 1 X -11 Y 1 X -3 Y 10 Y 1 X -13 Y 1 X 15 Y
 1 X -1 Y 1 X -13 Y 1 X 7 Y 1 X 3 Y 1 X 10 Y -21 Y 1 X 10 Y 1 X -16 Y 12 Y 1 X -5 Y 1 X 22 Y 1 X -18 Y 1 X 7 Y 1 X 13 Y 1 X -5 Y 1 X -7 Y 1 X 9 Y 1 X -9 Y 1 X -10 Y 1 X -6 Y 1 X 15 Y 1 X 9 Y -19 Y 1 X 12 Y 1 X 22 Y 1 X -28 Y 26 Y 1 X -39 Y 1 X 9 Y 1
 X 20 Y 1 X -29 Y 5 Y 1 X 16 Y 1 X 6 Y 1 X -12 Y 2 Y 1 X 5 Y 1 X 5 Y -3 Y 1 X -2 Y 1 X 10 Y -17 Y 1 X 8 Y 1 X -8 Y 1 X 5 Y 1 X 7 Y 1 X -6 Y 7 Y 2 X -3 Y 18 Y 1 X -36 Y 1 X 15 Y 1 X -23 Y 1 X 4 Y -4 Y 1 X 27 Y 1 X 2 Y 1 X -25 Y 7 Y 1 X 12 Y 1 X -4 Y
 11 Y 1 X -9 Y 1 X -5 Y 7 Y 1 X -9 Y 1 X 13 Y -21 Y 1 X 5 Y 1 X -5 Y 1 X 10 Y -3 Y 1 X -8 Y 1 X -7 Y 40 Y 1 X -8 Y 1 X -17 Y 1 X 1 Y 1 X 16 Y 1 X -5 Y 1 Y 1 X 6 Y 1 X -19 Y 7 Y 2 X 5 Y -18 Y 1 X 2 Y 1 X 20 Y 1 X -2 Y 1 X -24 Y 1 X 9 Y -8 Y 1 X 20 Y 1
 X -25 Y 1 X 41 Y 1 X -13 Y 15 Y 1 X -29 Y 1 X 13 Y 1 X -2 Y 1 X -10 Y 1 X 9 Y 1 X -10 Y 1 X 6 Y -6 Y 1 X 4 Y 1 X 18 Y 1 X -14 Y 1 X 17 Y -34 Y 1 X -3 Y 2 X -1 Y 12 Y 1 X -4 Y 1 X 7 Y 2 X -13 Y 4 Y 1 X -1 Y 1 X 7 Y -2 Y 1 X 3 Y 1 X 20 Y 1 X -35 Y 26
 Y 1 X 8 Y 1 X -11 Y 2 X 1 Y -20 Y 1 X 2 Y 1 X -4 Y 1 X 1 Y 1 X 3 Y 1 X -2 Y 10 Y 1 X -8 Y 1 X 1 Y -2 Y 1 X 9 Y 1 X 21 Y 1 X -2 Y 1 X -1 Y 1 X -24 Y 26 Y 1 X -18 Y 1 X -15 Y 15 Y 1 X -1 Y 1 X 8 Y -15 Y 1 X 1 Y 1 X -5 Y 20 Y 2 X -6 Y 1 X 16 Y -12 Y 1
 X 22 Y 1 X -26 Y 1 X 13 Y 1 X -12 Y 1 X 5 Y 1 X -15 Y 10 Y 1 X 8 Y 1 X -2 Y 1 X -8 Y 5 Y 1 X -7 Y 1 X -10 Y 1 Y 1 X -2 Y 1 X 31 Y 1 X -30 Y 1 X 1 Y 1 X 22 Y -20 Y 1 X 13 Y 1 X -5 Y 2 Y 1 X 12 Y 1 X -23 Y 1 Y 1 X 3 Y 1 X 12 Y 1 X -11 Y 1 X -2 Y 1 X
 19 Y 1 X -10 Y 1 X -5 Y 1 X -8 Y 1 X -3 Y 2 Y 1 X 4 Y 1 X -6 Y 1 X 29 Y 1 X -16 Y 1 X 8 Y -7 Y 1 X 2 Y 1 X -14 Y 3 Y 1 X 7 Y 1 X -7 Y 1 X 1 Y 1 X 28 Y -18 Y 1 X -1 Y 1 X 18 Y 1 X -6 Y 1 X 4 Y 1 X 2 Y -18 Y 1 X 24 Y 1 X -16 Y 5 Y 1 X -9 Y 1 X 10 Y 1
 X -22 Y 1 X -3 Y 1 X -4 Y 3 Y 1 X 11 Y 1 X -3 Y 12 Y 1 X -18 Y 1 X -5 Y 21 Y 1 X -3 Y 1 X 5 Y 1 X 1 Y -10 Y 1 X 23 Y 1 X -37 Y 1 X 8 Y 1 X 17 Y 1 X -10 Y 1 X 17 Y 1 X -11 Y 1 X -17 Y 1 X 16 Y -13 Y 1 X 3 Y 1 X 5 Y -11 Y 1 X -3 Y 1 X 13 Y -14 Y 1 X 6
 Y 1 X 6 Y -15 Y 1 X 4 Y 1 X 18 Y 1 X -17 Y 5 Y 1 X -6 Y 1 X 8 Y 1 X 9 Y 1 X -10 Y 6 Y 1 X -2 Y 1 X 5 Y 1 X s black 1620 815 m 590 X s
 gsave  711 695 1534 738 C 2148.76 761.811 t 0 r /Helvetica-Bold findfont 25.3611 sf 0 0 m (#tree) show NC gr  1620 832 m -17 Y s 1634 823 m -8 Y s 1648 823 m -8 Y s 1661 823 m -8 Y s 1675 823 m -8 Y s 1689 832 m -17 Y s 1703 823 m -8 Y s 1717 823 m
 -8 Y s 1731 823 m -8 Y s 1745 823 m -8 Y s 1759 832 m -17 Y s 1772 823 m -8 Y s 1786 823 m -8 Y s 1800 823 m -8 Y s 1814 823 m -8 Y s 1828 832 m -17 Y s 1842 823 m -8 Y s 1856 823 m -8 Y s 1870 823 m -8 Y s 1883 823 m -8 Y s 1897 832 m -17 Y s 1911
 823 m -8 Y s 1925 823 m -8 Y s 1939 823 m -8 Y s 1953 823 m -8 Y s 1967 832 m -17 Y s 1981 823 m -8 Y s 1994 823 m -8 Y s 2008 823 m -8 Y s 2022 823 m -8 Y s 2036 832 m -17 Y s 2050 823 m -8 Y s 2064 823 m -8 Y s 2078 823 m -8 Y s 2092 823 m -8 Y s
 2105 832 m -17 Y s 2119 823 m -8 Y s 2133 823 m -8 Y s 2147 823 m -8 Y s 2161 823 m -8 Y s 2175 832 m -17 Y s 2175 832 m -17 Y s 2189 823 m -8 Y s 2203 823 m -8 Y s
 gsave  711 695 1534 738 C 1609.67 789.651 t 0 r /Helvetica-Bold findfont 25.3611 sf 0 0 m (0) show NC gr 
 gsave  711 695 1534 738 C 1665.35 789.651 t 0 r /Helvetica-Bold findfont 25.3611 sf 0 0 m (100) show NC gr 
 gsave  711 695 1534 738 C 1733.69 789.651 t 0 r /Helvetica-Bold findfont 25.3611 sf 0 0 m (200) show NC gr 
 gsave  711 695 1534 738 C 1804.56 789.651 t 0 r /Helvetica-Bold findfont 25.3611 sf 0 0 m (300) show NC gr 
 gsave  711 695 1534 738 C 1872.89 789.651 t 0 r /Helvetica-Bold findfont 25.3611 sf 0 0 m (400) show NC gr 
 gsave  711 695 1534 738 C 1943.76 789.651 t 0 r /Helvetica-Bold findfont 25.3611 sf 0 0 m (500) show NC gr 
 gsave  711 695 1534 738 C 2012.09 789.651 t 0 r /Helvetica-Bold findfont 25.3611 sf 0 0 m (600) show NC gr 
 gsave  711 695 1534 738 C 2080.43 789.651 t 0 r /Helvetica-Bold findfont 25.3611 sf 0 0 m (700) show NC gr 
 gsave  711 695 1534 738 C 2151.29 789.651 t 0 r /Helvetica-Bold findfont 25.3611 sf 0 0 m (800) show NC gr  1620 1364 m 590 X s 1620 1346 m 18 Y s 1634 1355 m 9 Y s 1648 1355 m 9 Y s 1661 1355 m 9 Y s 1675 1355 m 9 Y s 1689 1346 m 18 Y s 1703 1355 m
 9 Y s 1717 1355 m 9 Y s 1731 1355 m 9 Y s 1745 1355 m 9 Y s 1759 1346 m 18 Y s 1772 1355 m 9 Y s 1786 1355 m 9 Y s 1800 1355 m 9 Y s 1814 1355 m 9 Y s 1828 1346 m 18 Y s 1842 1355 m 9 Y s 1856 1355 m 9 Y s 1870 1355 m 9 Y s 1883 1355 m 9 Y s 1897
 1346 m 18 Y s 1911 1355 m 9 Y s 1925 1355 m 9 Y s 1939 1355 m 9 Y s 1953 1355 m 9 Y s 1967 1346 m 18 Y s 1981 1355 m 9 Y s 1994 1355 m 9 Y s 2008 1355 m 9 Y s 2022 1355 m 9 Y s 2036 1346 m 18 Y s 2050 1355 m 9 Y s 2064 1355 m 9 Y s 2078 1355 m 9 Y s
 2092 1355 m 9 Y s 2105 1346 m 18 Y s 2119 1355 m 9 Y s 2133 1355 m 9 Y s 2147 1355 m 9 Y s 2161 1355 m 9 Y s 2175 1346 m 18 Y s 2175 1346 m 18 Y s 2189 1355 m 9 Y s 2203 1355 m 9 Y s 1620 815 m 549 Y s
 gsave  711 695 1534 738 C 1581.83 1207.26 t 90 r /Helvetica-Bold findfont 25.3611 sf 0 0 m (boost weight) show NC gr  1637 815 m -17 X s 1628 827 m -8 X s 1628 839 m -8 X s 1628 852 m -8 X s 1628 864 m -8 X s 1637 876 m -17 X s 1628 889 m -8 X s
 1628 901 m -8 X s 1628 913 m -8 X s 1628 926 m -8 X s 1637 938 m -17 X s 1628 950 m -8 X s 1628 963 m -8 X s 1628 975 m -8 X s 1628 987 m -8 X s 1637 999 m -17 X s 1628 1012 m -8 X s 1628 1024 m -8 X s 1628 1036 m -8 X s 1628 1049 m -8 X s 1637 1061
 m -17 X s 1628 1073 m -8 X s 1628 1086 m -8 X s 1628 1098 m -8 X s 1628 1110 m -8 X s 1637 1123 m -17 X s 1628 1135 m -8 X s 1628 1147 m -8 X s 1628 1160 m -8 X s 1628 1172 m -8 X s 1637 1184 m -17 X s 1628 1196 m -8 X s 1628 1209 m -8 X s 1628 1221
 m -8 X s 1628 1233 m -8 X s 1637 1246 m -17 X s 1628 1258 m -8 X s 1628 1270 m -8 X s 1628 1283 m -8 X s 1628 1295 m -8 X s 1637 1307 m -17 X s 1637 1307 m -17 X s 1628 1320 m -8 X s 1628 1332 m -8 X s 1628 1344 m -8 X s 1628 1357 m -8 X s
 gsave  711 695 1534 738 C 1599.55 804.837 t 0 r /Helvetica-Bold findfont 25.3611 sf 0 0 m (0) show NC gr 
 gsave  711 695 1534 738 C 1564.12 868.11 t 0 r /Helvetica-Bold findfont 25.3611 sf 0 0 m (0.05) show NC gr 
 gsave  711 695 1534 738 C 1581.83 928.853 t 0 r /Helvetica-Bold findfont 25.3611 sf 0 0 m (0.1) show NC gr 
 gsave  711 695 1534 738 C 1564.12 989.595 t 0 r /Helvetica-Bold findfont 25.3611 sf 0 0 m (0.15) show NC gr 
 gsave  711 695 1534 738 C 1579.3 1052.87 t 0 r /Helvetica-Bold findfont 25.3611 sf 0 0 m (0.2) show NC gr 
 gsave  711 695 1534 738 C 1564.12 1113.61 t 0 r /Helvetica-Bold findfont 25.3611 sf 0 0 m (0.25) show NC gr 
 gsave  711 695 1534 738 C 1579.3 1174.35 t 0 r /Helvetica-Bold findfont 25.3611 sf 0 0 m (0.3) show NC gr 
 gsave  711 695 1534 738 C 1564.12 1237.63 t 0 r /Helvetica-Bold findfont 25.3611 sf 0 0 m (0.35) show NC gr 
 gsave  711 695 1534 738 C 1579.3 1298.37 t 0 r /Helvetica-Bold findfont 25.3611 sf 0 0 m (0.4) show NC gr  2210 815 m 549 Y s 2193 815 m 17 X s 2201 827 m 9 X s 2201 839 m 9 X s 2201 852 m 9 X s 2201 864 m 9 X s 2193 876 m 17 X s 2201 889 m 9 X s
 2201 901 m 9 X s 2201 913 m 9 X s 2201 926 m 9 X s 2193 938 m 17 X s 2201 950 m 9 X s 2201 963 m 9 X s 2201 975 m 9 X s 2201 987 m 9 X s 2193 999 m 17 X s 2201 1012 m 9 X s 2201 1024 m 9 X s 2201 1036 m 9 X s 2201 1049 m 9 X s 2193 1061 m 17 X s
 2201 1073 m 9 X s 2201 1086 m 9 X s 2201 1098 m 9 X s 2201 1110 m 9 X s 2193 1123 m 17 X s 2201 1135 m 9 X s 2201 1147 m 9 X s 2201 1160 m 9 X s 2201 1172 m 9 X s 2193 1184 m 17 X s 2201 1196 m 9 X s 2201 1209 m 9 X s 2201 1221 m 9 X s 2201 1233 m 9
 X s 2193 1246 m 17 X s 2201 1258 m 9 X s 2201 1270 m 9 X s 2201 1283 m 9 X s 2201 1295 m 9 X s 2193 1307 m 17 X s 2193 1307 m 17 X s 2201 1320 m 9 X s 2201 1332 m 9 X s 2201 1344 m 9 X s 2201 1357 m 9 X s 0.490196 0.545098 0.615686 c 0.364706
 0.419608 0.490196 c 355 40 1542 1390 bf 0.490196 0.545098 0.615686 c 1542 1390 m 355 X s 1897 1390 m 40 Y s 1897 1430 m -355 X s 1542 1430 m -40 Y s 1 1 1 c black 1 1 1 c
 gsave  711 695 1534 738 C 1561.59 1402.14 t 0 r /Helvetica-Bold findfont 30.4333 sf 0 0 m (Boost weights vs tree) show NC gr  0.490196 0.545098 0.615686 c 0.941176 0.941176 0.941176 c 710 695 23 14 bf black 1 1 0.992157 c 590 549 108 91 bf black 590
 549 108 91 bl 1 1 0.992157 c 590 549 108 91 bf black 590 549 108 91 bl 0 0 1 c 1 1 1 c 0 0 1 c 108 375 m 1 X 38 Y 1 X -14 Y 1 X 41 Y 1 X 14 Y 1 X -5 Y 27 Y 1 X -23 Y 1 X 17 Y 1 X 14 Y 1 X -10 Y 1 X -4 Y 1 X 21 Y 1 X -14 Y 1 X -9 Y 1 X 15 Y 1 X 18 Y
 1 X -11 Y 1 X -3 Y 9 Y 1 X -5 Y 1 X -7 Y 1 X 1 Y 1 X 14 Y 1 X 2 Y 1 X -9 Y 1 X 11 Y -2 Y 1 X -5 Y 1 X 4 Y -3 Y 1 X -11 Y 1 X 22 Y 1 X -10 Y 1 X 8 Y -8 Y 1 X 6 Y 1 X -6 Y 1 X 2 Y -3 Y 1 X -7 Y 1 X 11 Y -1 Y 1 X -11 Y 1 X 18 Y 1 X -2 Y 1 X 2 Y 1 X -6
 Y 1 X 6 Y 1 X -2 Y 1 X -5 Y 1 X 3 Y 1 X -7 Y 1 X 9 Y 1 X -4 Y 1 X 4 Y 1 X 5 Y 1 X -6 Y 1 X -14 Y 1 X 5 Y 1 X -3 Y 16 Y 2 X -19 Y 6 Y 1 X 7 Y 1 X 1 Y 1 X -3 Y 5 Y 1 X 2 Y 1 X -17 Y 13 Y 1 X 3 Y 1 X -9 Y 1 X 9 Y 1 X -12 Y 1 X 8 Y 1 X 3 Y 1 X 3 Y -2 Y
 1 X 1 Y 1 X 3 Y -2 Y 1 X -2 Y 1 X -4 Y 4 Y 1 X 5 Y 1 X -4 Y 1 X -1 Y 2 X -17 Y 12 Y 1 X 5 Y 1 X 4 Y -10 Y 1 X 11 Y 1 X -1 Y 1 X -5 Y 1 X 6 Y 1 X -4 Y 2 Y 1 X -1 Y 1 X 2 Y -2 Y 1 X -3 Y 1 X 4 Y -2 Y 1 X 1 Y 1 X 2 Y -3 Y 1 X 3 Y 2 X -4 Y 1 X 1 Y 1 X 3
 Y -2 Y 1 X 2 Y 1 X -3 Y 1 X 2 Y 1 X 3 Y -1 Y 1 X -1 Y 1 X -1 Y 1 X -2 Y 2 Y 1 X -2 Y 1 X 2 Y 1 X -5 Y 1 X -15 Y 1 X 20 Y 1 X -9 Y 4 Y 1 X -1 Y 1 X 4 Y 1 X -5 Y 1 X 8 Y 1 X -7 Y 1 X 2 Y 1 X -6 Y 1 X 3 Y 1 X -2 Y 1 X -2 Y 1 Y 1 X -7 Y 1 X 11 Y 1 X 5 Y
 1 X 1 Y 1 X -7 Y 1 X -15 Y 1 X 12 Y 1 X 11 Y 1 X -7 Y 3 Y 1 X -1 Y 1 X 5 Y -4 Y 2 X -4 Y 1 X 5 Y 1 X -8 Y 3 Y 1 X 3 Y 1 X -2 Y 1 X -8 Y 2 X 8 Y 1 X 7 Y 1 X -7 Y 8 Y 1 X -3 Y 1 X -4 Y 1 X 5 Y 1 X -2 Y 1 X 1 Y -13 Y 1 X -2 Y 1 X 9 Y 1 X -3 Y 1 X 9 Y
 -1 Y 1 X 4 Y 1 X -3 Y 1 X 2 Y -2 Y 1 X -6 Y 1 X 2 Y -1 Y 1 X -6 Y 1 X 13 Y 1 X -10 Y 1 X 3 Y -4 Y 1 X 1 Y 1 X -1 Y 1 X 6 Y 1 X 3 Y 1 X -2 Y 5 Y 1 X -5 Y 1 X -9 Y 1 X 7 Y 1 X 3 Y -7 Y 1 X 1 Y 1 X 8 Y 1 X 3 Y -2 Y 2 X 1 Y -13 Y 1 X 3 Y 1 X -4 Y 1 Y 1
 X 8 Y 1 X -5 Y 1 X -3 Y 1 X 11 Y 1 X -15 Y 1 X 7 Y 1 X 7 Y -6 Y 1 X 4 Y 1 X -4 Y 2 Y 1 X -2 Y 1 X 6 Y 1 X -2 Y 2 Y 1 X -8 Y 1 X -1 Y 2 Y 1 X 9 Y 1 X -12 Y 1 X 4 Y 1 X 7 Y -7 Y 1 X 2 Y 1 X 4 Y 1 X -6 Y 3 Y 1 X 5 Y 1 X -8 Y 10 Y 1 X -2 Y 1 X 2 Y -1 Y
 2 X -4 Y 4 Y 1 X -1 Y 1 X -6 Y 1 X -6 Y 4 Y 1 X -5 Y 1 X 5 Y -6 Y 1 X 10 Y 1 X 2 Y -6 Y 2 X 7 Y 1 X -1 Y 2 X 3 Y 1 X -6 Y 1 X 5 Y -4 Y 1 X 2 Y 1 X 3 Y 1 X -3 Y 1 X 2 Y 1 X 1 Y -5 Y 2 X -8 Y 1 X 1 Y 1 X 2 Y -5 Y 1 X 5 Y 1 X -2 Y 1 X 4 Y 1 X 9 Y 1 X
 -17 Y 1 X 5 Y 1 X 6 Y -5 Y 1 X 5 Y 1 X -3 Y 1 X 7 Y 1 X -2 Y 1 X -4 Y 1 X -5 Y 1 X 10 Y 1 X -1 Y 1 X 2 Y 1 X -2 Y 1 X -1 Y 1 Y 1 X -1 Y 1 X 2 Y -3 Y 2 X 2 Y 1 X -5 Y 1 X 7 Y 1 X -3 Y 3 Y 1 X -6 Y 1 X -3 Y 9 Y 3 X -2 Y 1 X 1 Y 1 X 2 Y -3 Y 1 X 1 Y 1
 X -1 Y 1 Y 1 X -3 Y 1 X -8 Y 1 X 11 Y 1 X 3 Y 1 X -4 Y 2 Y 1 X -4 Y 1 X 6 Y 2 X -5 Y 1 X -7 Y 1 X 10 Y 1 X -2 Y 1 X 3 Y 1 X -8 Y 5 Y 1 X -6 Y 2 X 1 Y 1 X 8 Y 1 X -5 Y 1 X 4 Y 1 X -7 Y 1 X 5 Y 1 X 3 Y -5 Y 1 X -6 Y 1 X 8 Y -1 Y 1 X 3 Y 1 X 1 Y -3 Y 2
 X 1 Y 1 X -3 Y 2 X -3 Y 1 X 2 Y 1 X 3 Y 1 X -2 Y 1 X -8 Y 4 Y 1 X 1 Y 1 X 4 Y 1 X -4 Y 7 Y 2 X -5 Y 5 Y 1 X -6 Y 1 X 6 Y -5 Y 1 X -1 Y 1 X 3 Y 1 X 1 Y 1 X -11 Y 1 X 8 Y -2 Y 1 X -1 Y 1 X 4 Y -6 Y 1 X 1 Y 1 X 10 Y 1 X -3 Y 1 X 2 Y -5 Y 1 X 6 Y 1 X 1
 Y 1 X -3 Y 1 Y 1 X -5 Y 1 X 2 Y -1 Y 1 X -2 Y 1 X 6 Y 1 X -6 Y 1 X 4 Y -3 Y 1 X -3 Y 1 X -1 Y 1 X 12 Y -1 Y 1 X -8 Y 1 X -4 Y 1 X -4 Y 1 X 12 Y -4 Y 1 X 3 Y 1 X -4 Y 1 X 8 Y 1 X -6 Y 1 X -2 Y 7 Y 1 X -9 Y 1 X -1 Y 1 X 1 Y 1 X 6 Y 1 X 2 Y 1 X -1 Y 1
 X -1 Y 3 Y 2 X -1 Y 1 X -6 Y 1 X 7 Y 2 X 1 Y -2 Y 1 X -5 Y 1 X 3 Y 1 X 3 Y -4 Y 1 X 1 Y 1 X 3 Y 1 X 1 Y 1 X -1 Y 1 X 1 Y 1 X -5 Y 1 Y 1 X -4 Y 1 X 7 Y 1 X -8 Y 1 X 1 Y 1 X 9 Y 2 X 1 Y -1 Y 2 X -4 Y 1 X 3 Y -1 Y 2 X 1 Y 1 X 1 Y 1 X -1 Y 1 Y 1 X -7 Y
 1 X 7 Y 1 X -1 Y 1 X -4 Y 1 X 2 Y 1 X -1 Y 1 X 2 Y -1 Y 1 X 2 Y 1 X 1 Y -7 Y 1 X 3 Y 1 X 1 Y -3 Y 1 X 4 Y 1 X -3 Y 1 X -1 Y 1 X 2 Y 1 X 2 Y -2 Y 1 X -1 Y 1 X -4 Y 8 Y 1 X -4 Y 1 X 5 Y -3 Y 1 X 1 Y 1 X -5 Y 1 X -2 Y 6 Y 1 X -2 Y 1 X -5 Y 1 X 2 Y 1 X
 2 Y 1 X -3 Y 1 X 3 Y 1 X 3 Y 1 X 1 Y 1 X 2 Y -6 Y 1 X -3 Y 1 X 7 Y -4 Y 1 X -8 Y 1 X 10 Y -9 Y 1 X 13 Y 1 X -2 Y 1 X -8 Y 1 X 10 Y 1 X -7 Y 1 X -2 Y 1 X 4 Y -1 Y 1 X -1 Y 1 X -2 Y 1 Y 1 X 1 Y 1 X -4 Y 1 X 6 Y -3 Y 1 X 2 Y 1 X 1 Y -2 Y 1 X -2 Y 1 X 2
 Y -2 Y 2 X 1 Y -7 Y 1 X 13 Y 1 X -3 Y 1 X -2 Y 8 Y 1 X -2 Y 1 X 2 Y -10 Y 1 X -1 Y 1 X 9 Y -2 Y 1 X -4 Y 1 X 1 Y 1 X -4 Y 3 Y 1 X 2 Y 1 X -2 Y 3 Y 1 X -5 Y 1 X 8 Y -2 Y 1 X 2 Y 1 X -4 Y 1 Y 1 X 3 Y 1 X 2 Y 1 X -14 Y 3 Y 1 X 2 Y 1 X 4 Y 1 X -6 Y 1 X
 2 Y 1 X -3 Y 1 X 7 Y -2 Y 2 X -2 Y 1 X 6 Y -1 Y 1 X -6 Y 1 X -1 Y 1 Y 1 X 8 Y 1 X -3 Y 3 Y 1 X -7 Y 1 X 9 Y 1 X -14 Y 1 X 4 Y 1 X -5 Y 10 Y 1 X -2 Y 1 X -2 Y 1 X 4 Y 1 X -3 Y 1 X 3 Y 1 X -2 Y 1 X 2 Y -1 Y 1 X -3 Y 1 X -3 Y 4 Y 1 X -6 Y 1 X 13 Y 2 X
 -4 Y 1 X 2 Y 2 X -3 Y 1 X 5 Y 1 X -2 Y 1 Y 1 X -2 Y 1 X -1 Y 1 X -7 Y 1 X 12 Y -9 Y 1 X -3 Y 1 X 1 Y 1 X 3 Y 2 X 7 Y -1 Y 1 X 2 Y 1 X -1 Y 1 X -1 Y 1 X 1 Y -3 Y 1 X 2 Y 2 X 1 Y -3 Y 1 X -3 Y 1 X -5 Y 1 Y 2 X 8 Y -8 Y 1 X 6 Y 1 X 5 Y 1 X -5 Y 1 X -3
 Y 1 X 6 Y -1 Y 1 X 2 Y 1 X -7 Y 1 X 2 Y 1 X -6 Y 5 Y 1 X -8 Y 1 X 3 Y 1 X 6 Y -4 Y 1 X 2 Y 1 X 2 Y -2 Y 1 X 5 Y 1 X -6 Y 1 X 1 Y 1 X 2 Y -1 Y 1 X 2 Y 1 X 4 Y 1 X -1 Y 1 Y 1 X -5 Y 1 X -6 Y 10 Y 2 X -7 Y 6 Y 1 X -4 Y 1 X 2 Y -1 Y 1 X -4 Y 1 X 8 Y 1 X
 -1 Y 1 X -2 Y 1 X -3 Y 4 Y 1 X 1 Y 1 X -7 Y 1 X 4 Y 2 X 4 Y 1 X 1 Y 1 X -2 Y 1 X 2 Y 1 X -10 Y 1 X 6 Y 1 X -3 Y 2 Y 2 X 4 Y 1 X -3 Y 1 X 1 Y 1 X 2 Y -1 Y 1 X -9 Y 1 X 6 Y 1 X -6 Y 1 X 2 Y 1 X -1 Y 1 X -1 Y 1 X 6 Y -8 Y 1 X 5 Y 1 X -1 Y 3 Y 1 X -4 Y
 1 X 8 Y 1 X 1 Y 1 X 1 Y -1 Y 1 X -4 Y 1 X 1 Y 1 X -4 Y 7 Y 1 X 1 Y 1 X -7 Y 1 Y 1 X -2 Y 1 X 3 Y 1 X -7 Y 1 X 12 Y 1 X -2 Y 1 X -3 Y 1 X -3 Y 3 Y 2 X -6 Y 4 Y 1 X 6 Y 1 X -6 Y 5 Y 1 X -1 Y 1 X -2 Y 1 X 5 Y 1 X -4 Y 1 X 4 Y -2 Y 1 X -2 Y 1 X 5 Y -1 Y
 1 X -6 Y 1 X 6 Y -2 Y 1 X 2 Y 1 X -1 Y 1 X -5 Y 1 X 4 Y 1 X -2 Y 1 X -2 Y 1 X s black 108 91 m 590 X s
 gsave  710 695 23 14 C 635.264 37.964 t 0 r /Helvetica-Bold findfont 25.3611 sf 0 0 m (#tree) show NC gr  108 108 m -17 Y s 122 100 m -9 Y s 136 100 m -9 Y s 150 100 m -9 Y s 163 100 m -9 Y s 177 108 m -17 Y s 191 100 m -9 Y s 205 100 m -9 Y s 219
 100 m -9 Y s 233 100 m -9 Y s 247 108 m -17 Y s 261 100 m -9 Y s 274 100 m -9 Y s 288 100 m -9 Y s 302 100 m -9 Y s 316 108 m -17 Y s 330 100 m -9 Y s 344 100 m -9 Y s 358 100 m -9 Y s 372 100 m -9 Y s 385 108 m -17 Y s 399 100 m -9 Y s 413 100 m -9
 Y s 427 100 m -9 Y s 441 100 m -9 Y s 455 108 m -17 Y s 469 100 m -9 Y s 483 100 m -9 Y s 496 100 m -9 Y s 510 100 m -9 Y s 524 108 m -17 Y s 538 100 m -9 Y s 552 100 m -9 Y s 566 100 m -9 Y s 580 100 m -9 Y s 594 108 m -17 Y s 608 100 m -9 Y s 621
 100 m -9 Y s 635 100 m -9 Y s 649 100 m -9 Y s 663 108 m -17 Y s 663 108 m -17 Y s 677 100 m -9 Y s 691 100 m -9 Y s
 gsave  710 695 23 14 C 98.7064 65.8043 t 0 r /Helvetica-Bold findfont 25.3611 sf 0 0 m (0) show NC gr 
 gsave  710 695 23 14 C 154.387 65.8043 t 0 r /Helvetica-Bold findfont 25.3611 sf 0 0 m (100) show NC gr 
 gsave  710 695 23 14 C 222.722 65.8043 t 0 r /Helvetica-Bold findfont 25.3611 sf 0 0 m (200) show NC gr 
 gsave  710 695 23 14 C 291.057 65.8043 t 0 r /Helvetica-Bold findfont 25.3611 sf 0 0 m (300) show NC gr 
 gsave  710 695 23 14 C 361.924 65.8043 t 0 r /Helvetica-Bold findfont 25.3611 sf 0 0 m (400) show NC gr 
 gsave  710 695 23 14 C 430.259 65.8043 t 0 r /Helvetica-Bold findfont 25.3611 sf 0 0 m (500) show NC gr 
 gsave  710 695 23 14 C 501.125 65.8043 t 0 r /Helvetica-Bold findfont 25.3611 sf 0 0 m (600) show NC gr 
 gsave  710 695 23 14 C 569.46 65.8043 t 0 r /Helvetica-Bold findfont 25.3611 sf 0 0 m (700) show NC gr 
 gsave  710 695 23 14 C 637.795 65.8043 t 0 r /Helvetica-Bold findfont 25.3611 sf 0 0 m (800) show NC gr  108 640 m 590 X s 108 623 m 17 Y s 122 631 m 9 Y s 136 631 m 9 Y s 150 631 m 9 Y s 163 631 m 9 Y s 177 623 m 17 Y s 191 631 m 9 Y s 205 631 m 9
 Y s 219 631 m 9 Y s 233 631 m 9 Y s 247 623 m 17 Y s 261 631 m 9 Y s 274 631 m 9 Y s 288 631 m 9 Y s 302 631 m 9 Y s 316 623 m 17 Y s 330 631 m 9 Y s 344 631 m 9 Y s 358 631 m 9 Y s 372 631 m 9 Y s 385 623 m 17 Y s 399 631 m 9 Y s 413 631 m 9 Y s
 427 631 m 9 Y s 441 631 m 9 Y s 455 623 m 17 Y s 469 631 m 9 Y s 483 631 m 9 Y s 496 631 m 9 Y s 510 631 m 9 Y s 524 623 m 17 Y s 538 631 m 9 Y s 552 631 m 9 Y s 566 631 m 9 Y s 580 631 m 9 Y s 594 623 m 17 Y s 608 631 m 9 Y s 621 631 m 9 Y s 635
 631 m 9 Y s 649 631 m 9 Y s 663 623 m 17 Y s 663 623 m 17 Y s 677 631 m 9 Y s 691 631 m 9 Y s 108 91 m 549 Y s
 gsave  710 695 23 14 C 70.8661 480.877 t 90 r /Helvetica-Bold findfont 25.3611 sf 0 0 m (error fraction) show NC gr  125 91 m -17 X s 116 108 m -8 X s 116 125 m -8 X s 116 142 m -8 X s 116 159 m -8 X s 125 176 m -17 X s 116 193 m -8 X s 116 210 m -8
 X s 116 227 m -8 X s 116 244 m -8 X s 125 261 m -17 X s 116 278 m -8 X s 116 295 m -8 X s 116 312 m -8 X s 116 329 m -8 X s 125 346 m -17 X s 116 363 m -8 X s 116 380 m -8 X s 116 397 m -8 X s 116 414 m -8 X s 125 431 m -17 X s 116 448 m -8 X s 116
 464 m -8 X s 116 481 m -8 X s 116 498 m -8 X s 125 515 m -17 X s 116 532 m -8 X s 116 549 m -8 X s 116 566 m -8 X s 116 583 m -8 X s 125 600 m -17 X s 125 600 m -17 X s 116 617 m -8 X s 116 634 m -8 X s
 gsave  710 695 23 14 C 88.5827 80.9899 t 0 r /Helvetica-Bold findfont 25.3611 sf 0 0 m (0) show NC gr 
 gsave  710 695 23 14 C 70.8661 167.042 t 0 r /Helvetica-Bold findfont 25.3611 sf 0 0 m (0.1) show NC gr 
 gsave  710 695 23 14 C 68.3352 253.093 t 0 r /Helvetica-Bold findfont 25.3611 sf 0 0 m (0.2) show NC gr 
 gsave  710 695 23 14 C 68.3352 336.614 t 0 r /Helvetica-Bold findfont 25.3611 sf 0 0 m (0.3) show NC gr 
 gsave  710 695 23 14 C 68.3352 422.666 t 0 r /Helvetica-Bold findfont 25.3611 sf 0 0 m (0.4) show NC gr 
 gsave  710 695 23 14 C 68.3352 506.187 t 0 r /Helvetica-Bold findfont 25.3611 sf 0 0 m (0.5) show NC gr 
 gsave  710 695 23 14 C 68.3352 592.238 t 0 r /Helvetica-Bold findfont 25.3611 sf 0 0 m (0.6) show NC gr  698 91 m 549 Y s 681 91 m 17 X s 689 108 m 9 X s 689 125 m 9 X s 689 142 m 9 X s 689 159 m 9 X s 681 176 m 17 X s 689 193 m 9 X s 689 210 m 9 X
 s 689 227 m 9 X s 689 244 m 9 X s 681 261 m 17 X s 689 278 m 9 X s 689 295 m 9 X s 689 312 m 9 X s 689 329 m 9 X s 681 346 m 17 X s 689 363 m 9 X s 689 380 m 9 X s 689 397 m 9 X s 689 414 m 9 X s 681 431 m 17 X s 689 448 m 9 X s 689 464 m 9 X s 689
 481 m 9 X s 689 498 m 9 X s 681 515 m 17 X s 689 532 m 9 X s 689 549 m 9 X s 689 566 m 9 X s 689 583 m 9 X s 681 600 m 17 X s 681 600 m 17 X s 689 617 m 9 X s 689 634 m 9 X s 0.490196 0.545098 0.615686 c 0.364706 0.419608 0.490196 c 467 36 30 670 bf
 0.490196 0.545098 0.615686 c 30 670 m 467 X s 497 670 m 36 Y s 497 706 m -467 X s 30 706 m -36 Y s 1 1 1 c black 1 1 1 c
 gsave  710 695 23 14 C 70.8661 675.759 t 0 r /Helvetica-Bold findfont 27.8972 sf 0 0 m (error fraction vs tree number) show NC gr  0.490196 0.545098 0.615686 c 0.941176 0.941176 0.941176 c 710 695 779 14 bf black 1 1 0.992157 c 590 549 864 91 bf
 black 590 549 864 91 bl 1 1 0.992157 c 590 549 864 91 bf black 590 549 864 91 bl 0 0 1 c 1 1 1 c 0 0 1 c 864 457 m 1 X -113 Y 2 X -56 Y 2 X 56 Y -56 Y 1 X 113 Y 1 X -113 Y 1 X 56 Y 1 X 113 Y 1 X -113 Y 2 X -56 Y 113 Y 1 X 56 Y 1 X -113 Y 1 X -56 Y 2
 X 113 Y 1 X -113 Y 1 X 169 Y 1 X -113 Y 1 X 57 Y -57 Y 1 X 57 Y 1 X -113 Y 3 X 56 Y 2 X -112 Y 1 X 112 Y 1 X -56 Y 56 Y 2 X -56 Y 1 X 56 Y 1 X 57 Y 1 X -169 Y 1 X 169 Y 1 X -169 Y 56 Y 2 X -56 Y 1 X 112 Y 1 X -56 Y 1 X 56 Y 1 X 169 Y 1 X -169 Y 1 X
 113 Y 1 X -282 Y 1 X 113 Y 1 X 56 Y -56 Y 2 X 113 Y -57 Y 1 X 57 Y 2 X -113 Y 2 X 169 Y 1 X -113 Y 1 X -56 Y 56 Y 1 X -112 Y 1 X 56 Y 1 X 113 Y -113 Y 2 X 113 Y -57 Y 1 X -56 Y 1 X 113 Y 2 X -113 Y 1 X -56 Y 1 X 56 Y 1 X 56 Y 1 X -56 Y 1 X 56 Y -56
 Y 2 X -113 Y 113 Y 1 X 56 Y 1 X 57 Y 1 X -113 Y 2 X 56 Y 2 X -56 Y 1 X 56 Y 1 X -56 Y 56 Y 2 X -56 Y 56 Y 1 X -56 Y 1 X 56 Y 1 X -56 Y 56 Y 2 X -56 Y 56 Y 1 X -112 Y 1 X 169 Y 1 X -57 Y 2 X -56 Y 56 Y 2 X -56 Y 56 Y 1 X -56 Y 1 X 56 Y -56 Y 1 X -56
 Y 1 X 169 Y 1 X -57 Y 1 X 57 Y 1 X -169 Y 56 Y 1 X 56 Y 1 X 113 Y 1 X -169 Y 1 X 113 Y -113 Y 1 X 113 Y 1 X -113 Y 3 X 56 Y 3 X 113 Y 1 X -56 Y 56 Y 2 X -56 Y 1 X -113 Y 2 X -56 Y 112 Y 1 X 57 Y 1 X -57 Y 113 Y 1 X 56 Y 1 X -169 Y 57 Y 1 X -57 Y 1 X
 -56 Y 1 X -56 Y 112 Y 1 X 57 Y 1 X -113 Y 2 X 113 Y -57 Y 2 X 113 Y 2 X -56 Y 1 X -57 Y 2 X -112 Y 1 X 112 Y 1 X 57 Y 1 X -113 Y 1 X 113 Y -57 Y 1 X 113 Y 1 X -56 Y 1 X 56 Y -56 Y 2 X -57 Y 1 X -56 Y 1 X 56 Y -56 Y 1 X 56 Y 1 X 113 Y -113 Y 1 X 57 Y
 2 X -113 Y 1 X 225 Y 1 X -112 Y 56 Y 1 X -56 Y 1 X 56 Y -56 Y 1 X -57 Y 1 X -56 Y 3 X 113 Y 1 X -57 Y 1 X -56 Y 169 Y 1 X -56 Y 1 X -113 Y 1 X 56 Y 1 X -112 Y 1 X 225 Y 2 X -56 Y 56 Y 1 X -113 Y 1 X 57 Y -57 Y 2 X -112 Y 169 Y 1 X 112 Y 1 X -169 Y 2
 X 113 Y 1 X -113 Y 2 X -56 Y 56 Y 2 X 113 Y 2 X -169 Y 1 X 113 Y 1 X -57 Y 1 X -56 Y 113 Y 1 X -113 Y 1 X 113 Y 1 X -57 Y 1 X -56 Y 1 X 56 Y -56 Y 1 X -56 Y 1 X 56 Y -56 Y 1 X 56 Y 1 X 113 Y 1 X -57 Y 1 X 169 Y 3 X -56 Y 1 X -56 Y 1 X -113 Y 113 Y 1
 X 56 Y 1 X -113 Y 1 X 57 Y 1 X -57 Y 1 X -56 Y 1 X 113 Y 1 X -113 Y 56 Y 2 X -56 Y 56 Y 3 X 57 Y 1 X 56 Y 2 X -56 Y 1 X 112 Y -112 Y 2 X 56 Y 1 X -56 Y 1 X -226 Y 226 Y 1 X 56 Y 2 X -56 Y 56 Y 1 X -169 Y 1 X 113 Y 1 X -113 Y 2 X 169 Y 1 X -113 Y 1 X
 57 Y 1 X -57 Y 2 X 57 Y 1 X -57 Y 57 Y 1 X -113 Y 1 X 113 Y 2 X -57 Y 57 Y 1 X -113 Y 2 X 113 Y -169 Y 1 X 112 Y 1 X 169 Y -169 Y 3 X 57 Y 1 X -57 Y 1 X 57 Y 2 X -57 Y 2 X 57 Y 1 X -169 Y 1 X 56 Y 1 X 56 Y 1 X 57 Y 1 X -113 Y 56 Y 2 X -56 Y 113 Y 1
 X 56 Y 1 X -113 Y 57 Y 3 X -57 Y 1 X 113 Y 1 X -113 Y 1 X 57 Y 1 X -169 Y 1 X 169 Y 1 X -113 Y 1 X 113 Y 1 X -226 Y 1 X 282 Y 2 X -113 Y 1 X -169 Y 1 X 169 Y -56 Y 1 X 56 Y 1 X -56 Y 56 Y 1 X 57 Y 1 X -57 Y 1 X 113 Y 2 X -56 Y 2 X 112 Y 1 X -169 Y 1
 X 57 Y 1 X -57 Y 2 X 57 Y -57 Y 1 X 113 Y 1 X -169 Y 113 Y 1 X 56 Y 1 X -113 Y 2 X 169 Y -169 Y 1 X 113 Y 3 X -56 Y 1 X -169 Y 56 Y 1 X 56 Y 1 X 113 Y 1 X -169 Y 1 X 56 Y 1 X -56 Y 1 X 113 Y 3 X -57 Y 1 X 113 Y 1 X -56 Y 2 X 56 Y -225 Y 1 X 56 Y 1 X
 225 Y 3 X -169 Y 57 Y 2 X -113 Y 1 X 56 Y 1 X 113 Y 1 X -169 Y 1 X 225 Y 1 X -112 Y 2 X 56 Y -113 Y 2 X 57 Y -57 Y 2 X 57 Y 1 X -113 Y 1 X 169 Y 1 X -169 Y 56 Y 1 X 57 Y 1 X -169 Y 56 Y 1 X 56 Y 2 X 57 Y 1 X -57 Y 1 X 57 Y -57 Y 4 X 57 Y -57 Y 1 X
 113 Y 1 X -169 Y 225 Y 1 X -56 Y 1 X -113 Y 1 X -56 Y 1 X -56 Y 1 X 112 Y 1 X -112 Y 1 X 169 Y -113 Y 1 X 56 Y 1 X -56 Y 56 Y 1 X -56 Y 2 X 113 Y 2 X -113 Y 2 X 113 Y -57 Y 1 X 57 Y 1 X -57 Y 1 X 57 Y 2 X -113 Y 113 Y 1 X -113 Y 1 X 113 Y 1 X -57 Y
 1 X 113 Y -56 Y 2 X -57 Y 1 X -56 Y 169 Y 2 X -113 Y 2 X -112 Y 169 Y 1 X -113 Y 1 X 169 Y 1 X -113 Y 2 X 57 Y 3 X 56 Y 1 X -169 Y 113 Y 1 X -113 Y 2 X 169 Y 2 X -113 Y 57 Y 1 X 112 Y 1 X -169 Y 113 Y 1 X -169 Y 1 X 56 Y 1 X 57 Y 1 X -113 Y 1 X 56 Y
 1 X 113 Y 1 X -56 Y 2 X 56 Y -56 Y 5 X 56 Y 1 X -56 Y 1 X -57 Y 113 Y 2 X -56 Y 56 Y 1 X -169 Y 1 X 113 Y -57 Y 1 X -56 Y 2 X 169 Y 1 X -56 Y 1 X -113 Y 56 Y 1 X 113 Y 1 X 56 Y 1 X -112 Y 2 X -57 Y 2 X -56 Y 113 Y 1 X -113 Y 1 X 56 Y -56 Y 1 X -56 Y
 1 X 225 Y 2 X -113 Y 2 X 113 Y 1 X -56 Y 56 Y 1 X 56 Y 1 X -169 Y 1 X 57 Y 1 X 56 Y -113 Y 2 X 113 Y 2 X -169 Y 2 X 169 Y 1 X -169 Y 1 X 169 Y 2 X -56 Y 3 X -57 Y 1 X 113 Y -56 Y 1 X -57 Y 1 X 57 Y -169 Y 1 X 225 Y 1 X -56 Y 56 Y 1 X -56 Y 1 X 56 Y
 1 X -225 Y 56 Y 1 X -56 Y 1 X 56 Y 2 X 56 Y 2 X -112 Y 1 X 56 Y 1 X 113 Y 1 X -113 Y 56 Y 2 X -56 Y 169 Y 1 X 56 Y 1 X -112 Y 1 X 56 Y 1 X -56 Y 1 X -113 Y 2 X -56 Y 1 X 56 Y 1 X 56 Y 1 X -56 Y 1 X 113 Y -169 Y 1 X 56 Y 1 X 169 Y 1 X -56 Y 56 Y 2 X
 -113 Y 113 Y 1 X -169 Y 1 X -56 Y 169 Y 2 X 56 Y -225 Y 1 X 56 Y 2 X 113 Y 1 X -57 Y 1 X 57 Y -113 Y 1 X 169 Y 1 X -169 Y 1 X 169 Y 1 X -56 Y 1 X 56 Y -113 Y 1 X 57 Y 1 X -57 Y 113 Y 2 X -56 Y 1 X -57 Y 1 X -56 Y 2 X 56 Y 1 X 113 Y -169 Y 1 X 56 Y 1
 X 57 Y 1 X -57 Y 1 X 57 Y 1 X 56 Y 1 X -169 Y 1 X 56 Y 2 X 57 Y 2 X 56 Y 2 X -169 Y 113 Y 1 X -57 Y 2 X 57 Y 1 X -113 Y 1 X 169 Y 1 X -113 Y 1 X 57 Y 2 X -57 Y 1 X 57 Y 2 X -113 Y 1 X 169 Y 1 X -113 Y 57 Y 1 X 112 Y 1 X -56 Y 2 X -113 Y 1 X 169 Y 1
 X -56 Y 1 X 56 Y -112 Y 1 X -57 Y 1 X -56 Y 2 X -56 Y 56 Y 1 X 113 Y 1 X 56 Y 1 X -169 Y 2 X 113 Y 1 X 56 Y 1 X -113 Y 1 X 113 Y 1 X -169 Y 56 Y 2 X 113 Y -113 Y 1 X 113 Y 1 X -169 Y 1 X 169 Y -56 Y 1 X -113 Y 1 X 113 Y 1 X -169 Y 1 X 112 Y 1 X -56
 Y 1 X 113 Y 1 X -113 Y 1 X 56 Y 2 X 57 Y 1 X -113 Y 2 X 113 Y 1 X -57 Y 1 X 57 Y 1 X -57 Y 57 Y 2 X s black 864 91 m 590 X s
 gsave  710 695 779 14 C 1392.01 37.964 t 0 r /Helvetica-Bold findfont 25.3611 sf 0 0 m (#tree) show NC gr  864 108 m -17 Y s 878 100 m -9 Y s 892 100 m -9 Y s 905 100 m -9 Y s 919 100 m -9 Y s 933 108 m -17 Y s 947 100 m -9 Y s 961 100 m -9 Y s 975
 100 m -9 Y s 989 100 m -9 Y s 1003 108 m -17 Y s 1016 100 m -9 Y s 1030 100 m -9 Y s 1044 100 m -9 Y s 1058 100 m -9 Y s 1072 108 m -17 Y s 1086 100 m -9 Y s 1100 100 m -9 Y s 1114 100 m -9 Y s 1128 100 m -9 Y s 1141 108 m -17 Y s 1155 100 m -9 Y s
 1169 100 m -9 Y s 1183 100 m -9 Y s 1197 100 m -9 Y s 1211 108 m -17 Y s 1225 100 m -9 Y s 1239 100 m -9 Y s 1252 100 m -9 Y s 1266 100 m -9 Y s 1280 108 m -17 Y s 1294 100 m -9 Y s 1308 100 m -9 Y s 1322 100 m -9 Y s 1336 100 m -9 Y s 1350 108 m
 -17 Y s 1363 100 m -9 Y s 1377 100 m -9 Y s 1391 100 m -9 Y s 1405 100 m -9 Y s 1419 108 m -17 Y s 1419 108 m -17 Y s 1433 100 m -9 Y s 1447 100 m -9 Y s
 gsave  710 695 779 14 C 855.456 65.8043 t 0 r /Helvetica-Bold findfont 25.3611 sf 0 0 m (0) show NC gr 
 gsave  710 695 779 14 C 908.605 65.8043 t 0 r /Helvetica-Bold findfont 25.3611 sf 0 0 m (100) show NC gr 
 gsave  710 695 779 14 C 979.471 65.8043 t 0 r /Helvetica-Bold findfont 25.3611 sf 0 0 m (200) show NC gr 
 gsave  710 695 779 14 C 1047.81 65.8043 t 0 r /Helvetica-Bold findfont 25.3611 sf 0 0 m (300) show NC gr 
 gsave  710 695 779 14 C 1116.14 65.8043 t 0 r /Helvetica-Bold findfont 25.3611 sf 0 0 m (400) show NC gr 
 gsave  710 695 779 14 C 1187.01 65.8043 t 0 r /Helvetica-Bold findfont 25.3611 sf 0 0 m (500) show NC gr 
 gsave  710 695 779 14 C 1255.34 65.8043 t 0 r /Helvetica-Bold findfont 25.3611 sf 0 0 m (600) show NC gr 
 gsave  710 695 779 14 C 1326.21 65.8043 t 0 r /Helvetica-Bold findfont 25.3611 sf 0 0 m (700) show NC gr 
 gsave  710 695 779 14 C 1394.54 65.8043 t 0 r /Helvetica-Bold findfont 25.3611 sf 0 0 m (800) show NC gr  864 640 m 590 X s 864 623 m 17 Y s 878 631 m 9 Y s 892 631 m 9 Y s 905 631 m 9 Y s 919 631 m 9 Y s 933 623 m 17 Y s 947 631 m 9 Y s 961 631 m 9
 Y s 975 631 m 9 Y s 989 631 m 9 Y s 1003 623 m 17 Y s 1016 631 m 9 Y s 1030 631 m 9 Y s 1044 631 m 9 Y s 1058 631 m 9 Y s 1072 623 m 17 Y s 1086 631 m 9 Y s 1100 631 m 9 Y s 1114 631 m 9 Y s 1128 631 m 9 Y s 1141 623 m 17 Y s 1155 631 m 9 Y s 1169
 631 m 9 Y s 1183 631 m 9 Y s 1197 631 m 9 Y s 1211 623 m 17 Y s 1225 631 m 9 Y s 1239 631 m 9 Y s 1252 631 m 9 Y s 1266 631 m 9 Y s 1280 623 m 17 Y s 1294 631 m 9 Y s 1308 631 m 9 Y s 1322 631 m 9 Y s 1336 631 m 9 Y s 1350 623 m 17 Y s 1363 631 m 9
 Y s 1377 631 m 9 Y s 1391 631 m 9 Y s 1405 631 m 9 Y s 1419 623 m 17 Y s 1419 623 m 17 Y s 1433 631 m 9 Y s 1447 631 m 9 Y s 864 91 m 549 Y s
 gsave  710 695 779 14 C 827.615 498.594 t 90 r /Helvetica-Bold findfont 25.3611 sf 0 0 m (#tree nodes) show NC gr  881 91 m -17 X s 872 105 m -8 X s 872 119 m -8 X s 872 133 m -8 X s 881 147 m -17 X s 872 161 m -8 X s 872 175 m -8 X s 872 189 m -8 X
 s 881 204 m -17 X s 872 218 m -8 X s 872 232 m -8 X s 872 246 m -8 X s 881 260 m -17 X s 872 274 m -8 X s 872 288 m -8 X s 872 302 m -8 X s 881 316 m -17 X s 872 330 m -8 X s 872 344 m -8 X s 872 358 m -8 X s 881 372 m -17 X s 872 387 m -8 X s 872
 401 m -8 X s 872 415 m -8 X s 881 429 m -17 X s 872 443 m -8 X s 872 457 m -8 X s 872 471 m -8 X s 881 485 m -17 X s 872 499 m -8 X s 872 513 m -8 X s 872 527 m -8 X s 881 541 m -17 X s 872 555 m -8 X s 872 570 m -8 X s 872 584 m -8 X s 881 598 m
 -17 X s 881 598 m -17 X s 872 612 m -8 X s 872 626 m -8 X s 872 640 m -8 X s
 gsave  710 695 779 14 C 842.801 80.9899 t 0 r /Helvetica-Bold findfont 25.3611 sf 0 0 m (0) show NC gr 
 gsave  710 695 779 14 C 842.801 136.67 t 0 r /Helvetica-Bold findfont 25.3611 sf 0 0 m (2) show NC gr 
 gsave  710 695 779 14 C 842.801 192.351 t 0 r /Helvetica-Bold findfont 25.3611 sf 0 0 m (4) show NC gr 
 gsave  710 695 779 14 C 842.801 250.562 t 0 r /Helvetica-Bold findfont 25.3611 sf 0 0 m (6) show NC gr 
 gsave  710 695 779 14 C 842.801 306.243 t 0 r /Helvetica-Bold findfont 25.3611 sf 0 0 m (8) show NC gr 
 gsave  710 695 779 14 C 830.146 364.454 t 0 r /Helvetica-Bold findfont 25.3611 sf 0 0 m (10) show NC gr 
 gsave  710 695 779 14 C 830.146 417.604 t 0 r /Helvetica-Bold findfont 25.3611 sf 0 0 m (12) show NC gr 
 gsave  710 695 779 14 C 830.146 473.285 t 0 r /Helvetica-Bold findfont 25.3611 sf 0 0 m (14) show NC gr 
 gsave  710 695 779 14 C 830.146 531.496 t 0 r /Helvetica-Bold findfont 25.3611 sf 0 0 m (16) show NC gr 
 gsave  710 695 779 14 C 830.146 589.708 t 0 r /Helvetica-Bold findfont 25.3611 sf 0 0 m (18) show NC gr  1454 91 m 549 Y s 1437 91 m 17 X s 1445 105 m 9 X s 1445 119 m 9 X s 1445 133 m 9 X s 1437 147 m 17 X s 1445 161 m 9 X s 1445 175 m 9 X s 1445
 189 m 9 X s 1437 204 m 17 X s 1445 218 m 9 X s 1445 232 m 9 X s 1445 246 m 9 X s 1437 260 m 17 X s 1445 274 m 9 X s 1445 288 m 9 X s 1445 302 m 9 X s 1437 316 m 17 X s 1445 330 m 9 X s 1445 344 m 9 X s 1445 358 m 9 X s 1437 372 m 17 X s 1445 387 m 9
 X s 1445 401 m 9 X s 1445 415 m 9 X s 1437 429 m 17 X s 1445 443 m 9 X s 1445 457 m 9 X s 1445 471 m 9 X s 1437 485 m 17 X s 1445 499 m 9 X s 1445 513 m 9 X s 1445 527 m 9 X s 1437 541 m 17 X s 1445 555 m 9 X s 1445 570 m 9 X s 1445 584 m 9 X s 1437
 598 m 17 X s 1437 598 m 17 X s 1445 612 m 9 X s 1445 626 m 9 X s 1445 640 m 9 X s 1 0 0 c 1 1 1 c black 1 0 0 c 864 457 m 1 X -113 Y 2 X -56 Y 2 X 56 Y -56 Y 1 X 113 Y 1 X -113 Y 1 X 56 Y 1 X 113 Y 1 X -113 Y 2 X -56 Y 113 Y 1 X 56 Y 1 X -113 Y 1 X
 -56 Y 2 X 113 Y 1 X -113 Y 1 X 169 Y 1 X -113 Y 1 X 57 Y -57 Y 1 X 57 Y 1 X -113 Y 3 X 56 Y 2 X -112 Y 1 X 112 Y 1 X -56 Y 56 Y 2 X -56 Y 1 X 56 Y 1 X 57 Y 1 X -169 Y 1 X 169 Y 1 X -169 Y 56 Y 2 X -56 Y 1 X 112 Y 1 X -56 Y 1 X 56 Y 1 X 169 Y 1 X
 -169 Y 1 X 113 Y 1 X -282 Y 1 X 113 Y 1 X 56 Y -56 Y 2 X 113 Y -57 Y 1 X 57 Y 2 X -113 Y 2 X 169 Y 1 X -113 Y 1 X -56 Y 56 Y 1 X -112 Y 1 X 56 Y 1 X 113 Y -113 Y 2 X 113 Y -57 Y 1 X -56 Y 1 X 113 Y 2 X -113 Y 1 X -56 Y 1 X 56 Y 1 X 56 Y 1 X -56 Y 1
 X 56 Y -56 Y 2 X -113 Y 113 Y 1 X 56 Y 1 X 57 Y 1 X -113 Y 2 X 56 Y 2 X -56 Y 1 X 56 Y 1 X -56 Y 56 Y 2 X -56 Y 56 Y 1 X -56 Y 1 X 56 Y 1 X -56 Y 56 Y 2 X -56 Y 56 Y 1 X -112 Y 1 X 169 Y 1 X -57 Y 2 X -56 Y 56 Y 2 X -56 Y 56 Y 1 X -56 Y 1 X 56 Y -56
 Y 1 X -56 Y 1 X 169 Y 1 X -57 Y 1 X 57 Y 1 X -169 Y 56 Y 1 X 56 Y 1 X 113 Y 1 X -169 Y 1 X 113 Y -113 Y 1 X 113 Y 1 X -113 Y 3 X 56 Y 3 X 113 Y 1 X -56 Y 56 Y 2 X -56 Y 1 X -113 Y 2 X -56 Y 112 Y 1 X 57 Y 1 X -57 Y 113 Y 1 X 56 Y 1 X -169 Y 57 Y 1 X
 -57 Y 1 X -56 Y 1 X -56 Y 112 Y 1 X 57 Y 1 X -113 Y 2 X 113 Y -57 Y 2 X 113 Y 2 X -56 Y 1 X -57 Y 2 X -112 Y 1 X 112 Y 1 X 57 Y 1 X -113 Y 1 X 113 Y -57 Y 1 X 113 Y 1 X -56 Y 1 X 56 Y -56 Y 2 X -57 Y 1 X -56 Y 1 X 56 Y -56 Y 1 X 56 Y 1 X 113 Y -113
 Y 1 X 57 Y 2 X -113 Y 1 X 225 Y 1 X -112 Y 56 Y 1 X -56 Y 1 X 56 Y -56 Y 1 X -57 Y 1 X -56 Y 3 X 113 Y 1 X -57 Y 1 X -56 Y 169 Y 1 X -56 Y 1 X -113 Y 1 X 56 Y 1 X -112 Y 1 X 225 Y 2 X -56 Y 56 Y 1 X -113 Y 1 X 57 Y -57 Y 2 X -112 Y 169 Y 1 X 112 Y 1
 X -169 Y 2 X 113 Y 1 X -113 Y 2 X -56 Y 56 Y 2 X 113 Y 2 X -169 Y 1 X 113 Y 1 X -57 Y 1 X -56 Y 113 Y 1 X -113 Y 1 X 113 Y 1 X -57 Y 1 X -56 Y 1 X 56 Y -56 Y 1 X -56 Y 1 X 56 Y -56 Y 1 X 56 Y 1 X 113 Y 1 X -57 Y 1 X 169 Y 3 X -56 Y 1 X -56 Y 1 X
 -113 Y 113 Y 1 X 56 Y 1 X -113 Y 1 X 57 Y 1 X -57 Y 1 X -56 Y 1 X 113 Y 1 X -113 Y 56 Y 2 X -56 Y 56 Y 3 X 57 Y 1 X 56 Y 2 X -56 Y 1 X 112 Y -112 Y 2 X 56 Y 1 X -56 Y 1 X -226 Y 226 Y 1 X 56 Y 2 X -56 Y 56 Y 1 X -169 Y 1 X 113 Y 1 X -113 Y 2 X 169 Y
 1 X -113 Y 1 X 57 Y 1 X -57 Y 2 X 57 Y 1 X -57 Y 57 Y 1 X -113 Y 1 X 113 Y 2 X -57 Y 57 Y 1 X -113 Y 2 X 113 Y -169 Y 1 X 112 Y 1 X 169 Y -169 Y 3 X 57 Y 1 X -57 Y 1 X 57 Y 2 X -57 Y 2 X 57 Y 1 X -169 Y 1 X 56 Y 1 X 56 Y 1 X 57 Y 1 X -113 Y 56 Y 2 X
 -56 Y 113 Y 1 X 56 Y 1 X -113 Y 57 Y 3 X -57 Y 1 X 113 Y 1 X -113 Y 1 X 57 Y 1 X -169 Y 1 X 169 Y 1 X -113 Y 1 X 113 Y 1 X -226 Y 1 X 282 Y 2 X -113 Y 1 X -169 Y 1 X 169 Y -56 Y 1 X 56 Y 1 X -56 Y 56 Y 1 X 57 Y 1 X -57 Y 1 X 113 Y 2 X -56 Y 2 X 112
 Y 1 X -169 Y 1 X 57 Y 1 X -57 Y 2 X 57 Y -57 Y 1 X 113 Y 1 X -169 Y 113 Y 1 X 56 Y 1 X -113 Y 2 X 169 Y -169 Y 1 X 113 Y 3 X -56 Y 1 X -169 Y 56 Y 1 X 56 Y 1 X 113 Y 1 X -169 Y 1 X 56 Y 1 X -56 Y 1 X 113 Y 3 X -57 Y 1 X 113 Y 1 X -56 Y 2 X 56 Y -225
 Y 1 X 56 Y 1 X 225 Y 3 X -169 Y 57 Y 2 X -113 Y 1 X 56 Y 1 X 113 Y 1 X -169 Y 1 X 225 Y 1 X -112 Y 2 X 56 Y -113 Y 2 X 57 Y -57 Y 2 X 57 Y 1 X -113 Y 1 X 169 Y 1 X -169 Y 56 Y 1 X 57 Y 1 X -169 Y 56 Y 1 X 56 Y 2 X 57 Y 1 X -57 Y 1 X 57 Y -57 Y 4 X
 57 Y -57 Y 1 X 113 Y 1 X -169 Y 225 Y 1 X -56 Y 1 X -113 Y 1 X -56 Y 1 X -56 Y 1 X 112 Y 1 X -112 Y 1 X 169 Y -113 Y 1 X 56 Y 1 X -56 Y 56 Y 1 X -56 Y 2 X 113 Y 2 X -113 Y 2 X 113 Y -57 Y 1 X 57 Y 1 X -57 Y 1 X 57 Y 2 X -113 Y 113 Y 1 X -113 Y 1 X
 113 Y 1 X -57 Y 1 X 113 Y -56 Y 2 X -57 Y 1 X -56 Y 169 Y 2 X -113 Y 2 X -112 Y 169 Y 1 X -113 Y 1 X 169 Y 1 X -113 Y 2 X 57 Y 3 X 56 Y 1 X -169 Y 113 Y 1 X -113 Y 2 X 169 Y 2 X -113 Y 57 Y 1 X 112 Y 1 X -169 Y 113 Y 1 X -169 Y 1 X 56 Y 1 X 57 Y 1 X
 -113 Y 1 X 56 Y 1 X 113 Y 1 X -56 Y 2 X 56 Y -56 Y 5 X 56 Y 1 X -56 Y 1 X -57 Y 113 Y 2 X -56 Y 56 Y 1 X -169 Y 1 X 113 Y -57 Y 1 X -56 Y 2 X 169 Y 1 X -56 Y 1 X -113 Y 56 Y 1 X 113 Y 1 X 56 Y 1 X -112 Y 2 X -57 Y 2 X -56 Y 113 Y 1 X -113 Y 1 X 56 Y
 -56 Y 1 X -56 Y 1 X 225 Y 2 X -113 Y 2 X 113 Y 1 X -56 Y 56 Y 1 X 56 Y 1 X -169 Y 1 X 57 Y 1 X 56 Y -113 Y 2 X 113 Y 2 X -169 Y 2 X 169 Y 1 X -169 Y 1 X 169 Y 2 X -56 Y 3 X -57 Y 1 X 113 Y -56 Y 1 X -57 Y 1 X 57 Y -169 Y 1 X 225 Y 1 X -56 Y 56 Y 1 X
 -56 Y 1 X 56 Y 1 X -225 Y 56 Y 1 X -56 Y 1 X 56 Y 2 X 56 Y 2 X -112 Y 1 X 56 Y 1 X 113 Y 1 X -113 Y 56 Y 2 X -56 Y 169 Y 1 X 56 Y 1 X -112 Y 1 X 56 Y 1 X -56 Y 1 X -113 Y 2 X -56 Y 1 X 56 Y 1 X 56 Y 1 X -56 Y 1 X 113 Y -169 Y 1 X 56 Y 1 X 169 Y 1 X
 -56 Y 56 Y 2 X -113 Y 113 Y 1 X -169 Y 1 X -56 Y 169 Y 2 X 56 Y -225 Y 1 X 56 Y 2 X 113 Y 1 X -57 Y 1 X 57 Y -113 Y 1 X 169 Y 1 X -169 Y 1 X 169 Y 1 X -56 Y 1 X 56 Y -113 Y 1 X 57 Y 1 X -57 Y 113 Y 2 X -56 Y 1 X -57 Y 1 X -56 Y 2 X 56 Y 1 X 113 Y
 -169 Y 1 X 56 Y 1 X 57 Y 1 X -57 Y 1 X 57 Y 1 X 56 Y 1 X -169 Y 1 X 56 Y 2 X 57 Y 2 X 56 Y 2 X -169 Y 113 Y 1 X -57 Y 2 X 57 Y 1 X -113 Y 1 X 169 Y 1 X -113 Y 1 X 57 Y 2 X -57 Y 1 X 57 Y 2 X -113 Y 1 X 169 Y 1 X -113 Y 57 Y 1 X 112 Y 1 X -56 Y 2 X
 -113 Y 1 X 169 Y 1 X -56 Y 1 X 56 Y -112 Y 1 X -57 Y 1 X -56 Y 2 X -56 Y 56 Y 1 X 113 Y 1 X 56 Y 1 X -169 Y 2 X 113 Y 1 X 56 Y 1 X -113 Y 1 X 113 Y 1 X -169 Y 56 Y 2 X 113 Y -113 Y 1 X 113 Y 1 X -169 Y 1 X 169 Y -56 Y 1 X -113 Y 1 X 113 Y 1 X -169 Y
 1 X 112 Y 1 X -56 Y 1 X 113 Y 1 X -113 Y 1 X 56 Y 2 X 57 Y 1 X -113 Y 2 X 113 Y 1 X -57 Y 1 X 57 Y 1 X -57 Y 57 Y 2 X s 0.490196 0.545098 0.615686 c 0.364706 0.419608 0.490196 c 437 40 786 666 bf 0.490196 0.545098 0.615686 c 786 666 m 437 X s 1223
 666 m 40 Y s 1223 706 m -437 X s 786 706 m -40 Y s 1 1 1 c black 1 1 1 c
 gsave  710 695 779 14 C 807.368 678.29 t 0 r /Helvetica-Bold findfont 30.4333 sf 0 0 m (Nodes before/after pruning) show NC gr  0.490196 0.545098 0.615686 c 0.941176 0.941176 0.941176 c 711 695 1534 14 bf
 gr  gr showpage
end
%%EOF
