%!PS-Adobe-2.0 EPSF-2.0
%%BoundingBox:  0 0 567 544
%%Title: plots/CorrelationMatrixS.eps: Correlations between MVA input variables (signal)
%%Creator: ROOT Version 5.34/36
%%CreationDate: Tue Feb 28 17:22:24 2017
%%EndComments
%%BeginProlog
80 dict begin
/s {stroke} def /l {lineto} def /m {moveto} def /t {translate} def
/r {rotate} def /rl {roll}  def /R {repeat} def
/d {rlineto} def /rm {rmoveto} def /gr {grestore} def /f {eofill} def
/c {setrgbcolor} def /black {0 setgray} def /sd {setdash} def
/cl {closepath} def /sf {scalefont setfont} def /lw {setlinewidth} def
/box {m dup 0 exch d exch 0 d 0 exch neg d cl} def
/NC{systemdict begin initclip end}def/C{NC box clip newpath}def
/bl {box s} def /bf {gsave box gsave f grestore 1 lw [] 0 sd s grestore} def /Y { 0 exch d} def /X { 0 d} def 
/K {{pop pop 0 moveto} exch kshow} bind def
/ita {/ang 15 def gsave [1 0 ang dup sin exch cos div 1 0 0] concat} def 
/mp {newpath /y exch def /x exch def} def
/side {[w .77 mul w .23 mul] .385 w mul sd w 0 l currentpoint t -144 r} def
/mr {mp x y w2 0 360 arc} def /m24 {mr s} def /m20 {mr f} def
/mb {mp x y w2 add m w2 neg 0 d 0 w neg d w 0 d 0 w d cl} def
/mt {mp x y w2 add m w2 neg w neg d w 0 d cl} def
/m21 {mb f} def /m25 {mb s} def /m22 {mt f} def /m26{mt s} def
/m23 {mp x y w2 sub m w2 w d w neg 0 d cl f} def
/m27 {mp x y w2 add m w3 neg w2 neg d w3 w2 neg d w3 w2 d cl s} def
/m28 {mp x w2 sub y w2 sub w3 add m w3 0 d  0 w3 neg d w3 0 d 0 w3 d w3 0 d  0 w3 d w3 neg 0 d 0 w3 d w3 neg 0 d 0 w3 neg d w3 neg 0 d cl s } def
/m29 {mp gsave x w2 sub y w2 add w3 sub m currentpoint t 4 {side} repeat cl fill gr} def
/m30 {mp gsave x w2 sub y w2 add w3 sub m currentpoint t 4 {side} repeat cl s gr} def
/m31 {mp x y w2 sub m 0 w d x w2 sub y m w 0 d x w2 sub y w2 add m w w neg d x w2 sub y w2 sub m w w d s} def
/m32 {mp x y w2 sub m w2 w d w neg 0 d cl s} def
/m33 {mp x y w2 add m w3 neg w2 neg d w3 w2 neg d w3 w2 d cl f} def
/m34 {mp x w2 sub y w2 sub w3 add m w3 0 d  0 w3 neg d w3 0 d 0 w3 d w3 0 d  0 w3 d w3 neg 0 d 0 w3 d w3 neg 0 d 0 w3 neg d w3 neg 0 d cl f } def
/m2 {mp x y w2 sub m 0 w d x w2 sub y m w 0 d s} def
/m5 {mp x w2 sub y w2 sub m w w d x w2 sub y w2 add m w w neg d s} def
/reEncode {exch findfont dup length dict begin {1 index /FID eq  {pop pop} {def} ifelse } forall /Encoding exch def currentdict end dup /FontName get exch definefont pop } def [/Times-Bold /Times-Italic /Times-BoldItalic /Helvetica /Helvetica-Oblique
 /Helvetica-Bold /Helvetica-BoldOblique /Courier /Courier-Oblique /Courier-Bold /Courier-BoldOblique /Times-Roman /AvantGarde-Book /AvantGarde-BookOblique /AvantGarde-Demi /AvantGarde-DemiOblique /Bookman-Demi /Bookman-DemiItalic /Bookman-Light
 /Bookman-LightItalic /Helvetica-Narrow /Helvetica-Narrow-Bold /Helvetica-Narrow-BoldOblique /Helvetica-Narrow-Oblique /NewCenturySchlbk-Roman /NewCenturySchlbk-Bold /NewCenturySchlbk-BoldItalic /NewCenturySchlbk-Italic /Palatino-Bold
 /Palatino-BoldItalic /Palatino-Italic /Palatino-Roman ] {ISOLatin1Encoding reEncode } forall
%%EndProlog
%%BeginSetup
%%EndSetup
newpath  gsave  .25 .25 scale  gsave  0 0 t 0.490196 0.545098 0.615686 c[  ] 0 sd 3 lw 0.941176 0.941176 0.941176 c 2268 2176 0 0 bf black 1 1 0.992157 c 1633 1567 340 326 bf black 1633 1567 340 326 bl 1 1 0.992157 c 1633 1567 340 326 bf black 1633
 1567 340 326 bl 1 1 1 c 1 0 0 c 163 157 340 326 bf 0 1 0.333333 c 164 157 503 326 bf 163 157 667 326 bf 0 1 0.0533333 c 163 157 830 326 bf 164 157 993 326 bf 163 157 1157 326 bf 163 157 1320 326 bf 163 157 1483 326 bf 164 157 1646 326 bf 1 0.466667
 0 c 163 157 1810 326 bf 0 1 0.333333 c 163 157 340 483 bf 1 0 0 c 164 157 503 483 bf 0 1 0.8 c 163 157 667 483 bf 0 1 0.333333 c 163 157 830 483 bf 0.6 1 0 c 164 157 993 483 bf 163 157 1157 483 bf 1 0.933333 0 c 163 157 1320 483 bf 0.6 1 0 c 163 157
 1483 483 bf 0 1 0.0533333 c 164 157 1646 483 bf 163 157 1810 483 bf 0 1 0.333333 c 163 157 340 640 bf 0 1 0.8 c 164 157 503 640 bf 1 0 0 c 163 157 667 640 bf 0 1 0.333333 c 163 157 830 640 bf 164 157 993 640 bf 0 1 0.52 c 163 157 1157 640 bf 0 1 0.8
 c 163 157 1320 640 bf 0 1 0.0533333 c 163 157 1483 640 bf 0 1 0.333333 c 164 157 1646 640 bf 0 0.733333 1 c 163 157 1810 640 bf 0 1 0.0533333 c 163 156 340 797 bf 0 1 0.333333 c 164 156 503 797 bf 163 156 667 797 bf 1 0 0 c 163 156 830 797 bf 0 1
 0.0533333 c 164 156 993 797 bf 163 156 1157 797 bf 163 156 1320 797 bf 163 156 1483 797 bf 164 156 1646 797 bf 163 156 1810 797 bf 163 157 340 953 bf 0.6 1 0 c 164 157 503 953 bf 0 1 0.333333 c 163 157 667 953 bf 0 1 0.0533333 c 163 157 830 953 bf 1
 0 0 c 164 157 993 953 bf 1 0.466667 0 c 163 157 1157 953 bf 1 0.186667 0 c 163 157 1320 953 bf 0.6 1 0 c 163 157 1483 953 bf 0 1 0.0533333 c 164 157 1646 953 bf 163 157 1810 953 bf 163 157 340 1110 bf 0.6 1 0 c 164 157 503 1110 bf 0 1 0.52 c 163 157
 667 1110 bf 0 1 0.0533333 c 163 157 830 1110 bf 1 0.466667 0 c 164 157 993 1110 bf 1 0 0 c 163 157 1157 1110 bf 1 0.466667 0 c 163 157 1320 1110 bf 0.413333 1 0 c 163 157 1483 1110 bf 0 1 0.0533333 c 164 157 1646 1110 bf 163 157 1810 1110 bf 163 156
 340 1267 bf 1 0.933333 0 c 164 156 503 1267 bf 0 1 0.8 c 163 156 667 1267 bf 0 1 0.0533333 c 163 156 830 1267 bf 1 0.186667 0 c 164 156 993 1267 bf 1 0.466667 0 c 163 156 1157 1267 bf 1 0 0 c 163 156 1320 1267 bf 0.413333 1 0 c 163 156 1483 1267 bf
 0 1 0.0533333 c 164 156 1646 1267 bf 0.413333 1 0 c 163 156 1810 1267 bf 0 1 0.0533333 c 163 157 340 1423 bf 0.6 1 0 c 164 157 503 1423 bf 0 1 0.0533333 c 163 157 667 1423 bf 163 157 830 1423 bf 0.6 1 0 c 164 157 993 1423 bf 0.413333 1 0 c 163 157
 1157 1423 bf 163 157 1320 1423 bf 1 0 0 c 163 157 1483 1423 bf 0 1 0.333333 c 164 157 1646 1423 bf 163 157 1810 1423 bf 0 1 0.0533333 c 163 157 340 1580 bf 164 157 503 1580 bf 0 1 0.333333 c 163 157 667 1580 bf 0 1 0.0533333 c 163 157 830 1580 bf
 164 157 993 1580 bf 163 157 1157 1580 bf 163 157 1320 1580 bf 0 1 0.333333 c 163 157 1483 1580 bf 1 0 0 c 164 157 1646 1580 bf 0.133333 1 0 c 163 157 1810 1580 bf 1 0.466667 0 c 163 156 340 1737 bf 0 1 0.0533333 c 164 156 503 1737 bf 0 0.733333 1 c
 163 156 667 1737 bf 0 1 0.0533333 c 163 156 830 1737 bf 164 156 993 1737 bf 163 156 1157 1737 bf 0.413333 1 0 c 163 156 1320 1737 bf 0 1 0.333333 c 163 156 1483 1737 bf 0.133333 1 0 c 164 156 1646 1737 bf 1 0 0 c 163 156 1810 1737 bf 0.386667 0 1 c
 102 79 1984 326 bf 0.2 0 1 c 102 78 1984 405 bf 0 0.0800001 1 c 102 79 1984 483 bf 0 0.266667 1 c 102 78 1984 562 bf 0 0.546666 1 c 102 78 1984 640 bf 0 0.733333 1 c 102 79 1984 718 bf 0 1 0.986667 c 102 78 1984 797 bf 0 1 0.8 c 102 78 1984 875 bf 0
 1 0.52 c 102 79 1984 953 bf 0 1 0.333333 c 102 78 1984 1032 bf 0 1 0.0533333 c 102 78 1984 1110 bf 0.133333 1 0 c 102 79 1984 1188 bf 0.413333 1 0 c 102 78 1984 1267 bf 0.6 1 0 c 102 78 1984 1345 bf 0.88 1 0 c 102 79 1984 1423 bf 1 0.933333 0 c 102
 78 1984 1502 bf 1 0.653333 0 c 102 78 1984 1580 bf 1 0.466667 0 c 102 79 1984 1658 bf 1 0.186667 0 c 102 78 1984 1737 bf 1 0 0 c 102 78 1984 1815 bf black 2086 326 m 1567 Y s 2037 326 m 49 X s 2037 483 m 49 X s 2037 640 m 49 X s 2037 797 m 49 X s
 2037 953 m 49 X s 2037 1110 m 49 X s 2037 1267 m 49 X s 2037 1423 m 49 X s 2037 1580 m 49 X s 2037 1737 m 49 X s 2037 1893 m 49 X s
 gsave  2268 2176 0 0 C 2138.35 296.782 t 0 r /Helvetica-Bold findfont 79.9028 sf 0 0 m (100) show NC gr 
 gsave  2268 2176 0 0 C 2096.5 296.782 t 0 r /Symbol findfont 79.9028 sf 0 0 m (-) show NC gr 
 gsave  2268 2176 0 0 C 2138.35 452.782 t 0 r /Helvetica-Bold findfont 79.9028 sf 0 0 m (80) show NC gr 
 gsave  2268 2176 0 0 C 2096.5 452.782 t 0 r /Symbol findfont 79.9028 sf 0 0 m (-) show NC gr 
 gsave  2268 2176 0 0 C 2138.35 612.588 t 0 r /Helvetica-Bold findfont 79.9028 sf 0 0 m (60) show NC gr 
 gsave  2268 2176 0 0 C 2096.5 612.588 t 0 r /Symbol findfont 79.9028 sf 0 0 m (-) show NC gr 
 gsave  2268 2176 0 0 C 2138.35 768.589 t 0 r /Helvetica-Bold findfont 79.9028 sf 0 0 m (40) show NC gr 
 gsave  2268 2176 0 0 C 2096.5 768.589 t 0 r /Symbol findfont 79.9028 sf 0 0 m (-) show NC gr 
 gsave  2268 2176 0 0 C 2138.35 924.589 t 0 r /Helvetica-Bold findfont 79.9028 sf 0 0 m (20) show NC gr 
 gsave  2268 2176 0 0 C 2096.5 924.589 t 0 r /Symbol findfont 79.9028 sf 0 0 m (-) show NC gr 
 gsave  2268 2176 0 0 C 2096.5 1080.59 t 0 r /Helvetica-Bold findfont 79.9028 sf 0 0 m (0) show NC gr 
 gsave  2268 2176 0 0 C 2096.5 1236.59 t 0 r /Helvetica-Bold findfont 79.9028 sf 0 0 m (20) show NC gr 
 gsave  2268 2176 0 0 C 2096.5 1396.4 t 0 r /Helvetica-Bold findfont 79.9028 sf 0 0 m (40) show NC gr 
 gsave  2268 2176 0 0 C 2096.5 1552.4 t 0 r /Helvetica-Bold findfont 79.9028 sf 0 0 m (60) show NC gr 
 gsave  2268 2176 0 0 C 2096.5 1708.4 t 0 r /Helvetica-Bold findfont 79.9028 sf 0 0 m (80) show NC gr 
 gsave  2268 2176 0 0 C 2096.5 1864.4 t 0 r /Helvetica-Bold findfont 79.9028 sf 0 0 m (100) show NC gr  1 1 1 c black 340 326 m 1633 X s
 gsave  2268 2176 0 0 C 410.928 262.538 t -19 r /Helvetica-Bold findfont 53.2685 sf 0 0 m (TMath::Log\(Lc_ENDVERTEX_CHI2/Lc_ENDVERTEX_NDOF\)) show NC gr 
 gsave  2268 2176 0 0 C 574.539 262.538 t -19 r /Helvetica-Bold findfont 53.2685 sf 0 0 m (Lc_TAU) show NC gr 
 gsave  2268 2176 0 0 C 738.149 262.538 t -19 r /Helvetica-Bold findfont 53.2685 sf 0 0 m (Lc_PT) show NC gr 
 gsave  2268 2176 0 0 C 901.76 262.538 t -19 r /Helvetica-Bold findfont 53.2685 sf 0 0 m (abs\(TMath::Log\(Lc_DIRA_OWNPV\)\)) show NC gr 
 gsave  2268 2176 0 0 C 1065.37 262.538 t -19 r /Helvetica-Bold findfont 53.2685 sf 0 0 m (Lc_DTF_chi2_0) show NC gr 
 gsave  2268 2176 0 0 C 1228.98 262.538 t -19 r /Helvetica-Bold findfont 53.2685 sf 0 0 m (TMath::Log\(Lc_IPCHI2_OWNPV\)) show NC gr 
 gsave  2268 2176 0 0 C 1392.59 262.538 t -19 r /Helvetica-Bold findfont 53.2685 sf 0 0 m (Lc_IP_OWNPV) show NC gr 
 gsave  2268 2176 0 0 C 1556.2 262.538 t -19 r /Helvetica-Bold findfont 53.2685 sf 0 0 m (TMath::Min\(TMath::Min\(p_IPCHI2_OWNPV,p_IPCHI2_OWNPV\),L2_IPCHI2_OWNPV\)) show NC gr 
 gsave  2268 2176 0 0 C 1719.81 262.538 t -19 r /Helvetica-Bold findfont 53.2685 sf 0 0 m (TMath::Max\(TMath::Max\(p_TRACK_GhostProb,p_TRACK_GhostProb\),L2_TRACK_GhostProb\)) show NC gr 
 gsave  2268 2176 0 0 C 1883.42 262.538 t -19 r /Helvetica-Bold findfont 53.2685 sf 0 0 m (TMath::Log\(Lc_MAXDOCA\)) show NC gr  340 373 m -47 Y s[ 4 8] 0 sd 340 1893 m -1567 Y s[  ] 0 sd 503 373 m -47 Y s[ 4 8] 0 sd 503 1893 m -1567 Y s[  ] 0 sd 667
 373 m -47 Y s[ 4 8] 0 sd 667 1893 m -1567 Y s[  ] 0 sd 830 373 m -47 Y s[ 4 8] 0 sd 830 1893 m -1567 Y s[  ] 0 sd 993 373 m -47 Y s[ 4 8] 0 sd 993 1893 m -1567 Y s[  ] 0 sd 1157 373 m -47 Y s[ 4 8] 0 sd 1157 1893 m -1567 Y s[  ] 0 sd 1320 373 m -47
 Y s[ 4 8] 0 sd 1320 1893 m -1567 Y s[  ] 0 sd 1483 373 m -47 Y s[ 4 8] 0 sd 1483 1893 m -1567 Y s[  ] 0 sd 1646 373 m -47 Y s[ 4 8] 0 sd 1646 1893 m -1567 Y s[  ] 0 sd 1810 373 m -47 Y s[ 4 8] 0 sd 1810 1893 m -1567 Y s[  ] 0 sd 1973 373 m -47 Y s[
 4 8] 0 sd 1973 1893 m -1567 Y s[  ] 0 sd 340 1893 m 1633 X s 340 1846 m 47 Y s 503 1846 m 47 Y s 667 1846 m 47 Y s 830 1846 m 47 Y s 993 1846 m 47 Y s 1157 1846 m 47 Y s 1320 1846 m 47 Y s 1483 1846 m 47 Y s 1646 1846 m 47 Y s 1810 1846 m 47 Y s
 1973 1846 m 47 Y s 340 326 m 1567 Y s
 gsave  2268 2176 0 0 C -1194.74 391.904 t 0 r /Helvetica-Bold findfont 53.2685 sf 0 0 m (TMath::Log\(Lc_ENDVERTEX_CHI2/Lc_ENDVERTEX_NDOF\)) show NC gr 
 gsave  2268 2176 0 0 C 114.147 544.1 t 0 r /Helvetica-Bold findfont 53.2685 sf 0 0 m (Lc_TAU) show NC gr 
 gsave  2268 2176 0 0 C 152.196 700.1 t 0 r /Helvetica-Bold findfont 53.2685 sf 0 0 m (Lc_PT) show NC gr 
 gsave  2268 2176 0 0 C -593.563 859.906 t 0 r /Helvetica-Bold findfont 53.2685 sf 0 0 m (abs\(TMath::Log\(Lc_DIRA_OWNPV\)\)) show NC gr 
 gsave  2268 2176 0 0 C -79.9028 1015.91 t 0 r /Helvetica-Bold findfont 53.2685 sf 0 0 m (Lc_DTF_chi2_0) show NC gr 
 gsave  2268 2176 0 0 C -506.051 1175.71 t 0 r /Helvetica-Bold findfont 53.2685 sf 0 0 m (TMath::Log\(Lc_IPCHI2_OWNPV\)) show NC gr 
 gsave  2268 2176 0 0 C -60.8783 1327.91 t 0 r /Helvetica-Bold findfont 53.2685 sf 0 0 m (Lc_IP_OWNPV) show NC gr 
 gsave  2268 2176 0 0 C -1780.69 1487.71 t 0 r /Helvetica-Bold findfont 53.2685 sf 0 0 m (TMath::Min\(TMath::Min\(p_IPCHI2_OWNPV,p_IPCHI2_OWNPV\),L2_IPCHI2_OWNPV\)) show NC gr 
 gsave  2268 2176 0 0 C -2069.86 1643.71 t 0 r /Helvetica-Bold findfont 53.2685 sf 0 0 m (TMath::Max\(TMath::Max\(p_TRACK_GhostProb,p_TRACK_GhostProb\),L2_TRACK_GhostProb\)) show NC gr 
 gsave  2268 2176 0 0 C -380.489 1803.52 t 0 r /Helvetica-Bold findfont 53.2685 sf 0 0 m (TMath::Log\(Lc_MAXDOCA\)) show NC gr  389 326 m -49 X s[ 4 8] 0 sd 1973 326 m -1633 X s[  ] 0 sd 389 483 m -49 X s[ 4 8] 0 sd 1973 483 m -1633 X s[  ] 0 sd 389
 640 m -49 X s[ 4 8] 0 sd 1973 640 m -1633 X s[  ] 0 sd 389 797 m -49 X s[ 4 8] 0 sd 1973 797 m -1633 X s[  ] 0 sd 389 953 m -49 X s[ 4 8] 0 sd 1973 953 m -1633 X s[  ] 0 sd 389 1110 m -49 X s[ 4 8] 0 sd 1973 1110 m -1633 X s[  ] 0 sd 389 1267 m -49
 X s[ 4 8] 0 sd 1973 1267 m -1633 X s[  ] 0 sd 389 1423 m -49 X s[ 4 8] 0 sd 1973 1423 m -1633 X s[  ] 0 sd 389 1580 m -49 X s[ 4 8] 0 sd 1973 1580 m -1633 X s[  ] 0 sd 389 1737 m -49 X s[ 4 8] 0 sd 1973 1737 m -1633 X s[  ] 0 sd 389 1893 m -49 X s[
 4 8] 0 sd 1973 1893 m -1633 X s[  ] 0 sd 1973 326 m 1567 Y s 1924 326 m 49 X s 1924 483 m 49 X s 1924 640 m 49 X s 1924 797 m 49 X s 1924 953 m 49 X s 1924 1110 m 49 X s 1924 1267 m 49 X s 1924 1423 m 49 X s 1924 1580 m 49 X s 1924 1737 m 49 X s
 1924 1893 m 49 X s 0.490196 0.545098 0.615686 c 0.364706 0.419608 0.490196 c 1362 128 23 2038 bf 0.490196 0.545098 0.615686 c 23 2038 m 1362 X s 1385 2038 m 128 Y s 1385 2166 m -1362 X s 23 2166 m -128 Y s 1 1 1 c black 1 1 1 c
 gsave  2268 2176 0 0 C 87.5126 2073.67 t 0 r /Helvetica-Bold findfont 98.9272 sf 0 0 m (Correlation Matrix \(signal\)) show NC gr  black 1 1 1 c
 gsave  2268 2176 0 0 C 365.27 384.294 t 0 r /Helvetica-Bold findfont 60.8783 sf 0 0 m (100) show NC gr  black 1 1 1 c
 gsave  2268 2176 0 0 C 544.1 384.294 t 0 r /Helvetica-Bold findfont 60.8783 sf 0 0 m ( \2555) show NC gr  black 1 1 1 c
 gsave  2268 2176 0 0 C 707.71 384.294 t 0 r /Helvetica-Bold findfont 60.8783 sf 0 0 m ( \2555) show NC gr  black 1 1 1 c
 gsave  2268 2176 0 0 C 875.125 380.489 t 0 r /Helvetica-Bold findfont 60.8783 sf 0 0 m (  2) show NC gr  black 1 1 1 c
 gsave  2268 2176 0 0 C 1693.18 380.489 t 0 r /Helvetica-Bold findfont 60.8783 sf 0 0 m (  4) show NC gr  black 1 1 1 c
 gsave  2268 2176 0 0 C 1852.98 380.489 t 0 r /Helvetica-Bold findfont 60.8783 sf 0 0 m ( 71) show NC gr  black 1 1 1 c
 gsave  2268 2176 0 0 C 380.489 540.295 t 0 r /Helvetica-Bold findfont 60.8783 sf 0 0 m ( \2555) show NC gr  black 1 1 1 c
 gsave  2268 2176 0 0 C 528.88 540.295 t 0 r /Helvetica-Bold findfont 60.8783 sf 0 0 m (100) show NC gr  black 1 1 1 c
 gsave  2268 2176 0 0 C 700.1 536.49 t 0 r /Helvetica-Bold findfont 60.8783 sf 0 0 m (\25522) show NC gr  black 1 1 1 c
 gsave  2268 2176 0 0 C 878.93 536.49 t 0 r /Helvetica-Bold findfont 60.8783 sf 0 0 m ( \2551) show NC gr  black 1 1 1 c
 gsave  2268 2176 0 0 C 1031.13 540.295 t 0 r /Helvetica-Bold findfont 60.8783 sf 0 0 m ( 39) show NC gr  black 1 1 1 c
 gsave  2268 2176 0 0 C 1194.74 540.295 t 0 r /Helvetica-Bold findfont 60.8783 sf 0 0 m ( 38) show NC gr  black 1 1 1 c
 gsave  2268 2176 0 0 C 1358.35 540.295 t 0 r /Helvetica-Bold findfont 60.8783 sf 0 0 m ( 50) show NC gr  black 1 1 1 c
 gsave  2268 2176 0 0 C 1521.96 540.295 t 0 r /Helvetica-Bold findfont 60.8783 sf 0 0 m ( 38) show NC gr  black 1 1 1 c
 gsave  2268 2176 0 0 C 1693.18 540.295 t 0 r /Helvetica-Bold findfont 60.8783 sf 0 0 m (  5) show NC gr  black 1 1 1 c
 gsave  2268 2176 0 0 C 1856.79 540.295 t 0 r /Helvetica-Bold findfont 60.8783 sf 0 0 m (  9) show NC gr  black 1 1 1 c
 gsave  2268 2176 0 0 C 380.489 696.296 t 0 r /Helvetica-Bold findfont 60.8783 sf 0 0 m ( \2555) show NC gr  black 1 1 1 c
 gsave  2268 2176 0 0 C 536.49 692.491 t 0 r /Helvetica-Bold findfont 60.8783 sf 0 0 m (\25522) show NC gr  black 1 1 1 c
 gsave  2268 2176 0 0 C 692.491 696.296 t 0 r /Helvetica-Bold findfont 60.8783 sf 0 0 m (100) show NC gr  black 1 1 1 c
 gsave  2268 2176 0 0 C 871.321 696.296 t 0 r /Helvetica-Bold findfont 60.8783 sf 0 0 m ( \2553) show NC gr  black 1 1 1 c
 gsave  2268 2176 0 0 C 1034.93 692.491 t 0 r /Helvetica-Bold findfont 60.8783 sf 0 0 m ( \2557) show NC gr  black 1 1 1 c
 gsave  2268 2176 0 0 C 1190.93 696.296 t 0 r /Helvetica-Bold findfont 60.8783 sf 0 0 m (\25516) show NC gr  black 1 1 1 c
 gsave  2268 2176 0 0 C 1354.54 696.296 t 0 r /Helvetica-Bold findfont 60.8783 sf 0 0 m (\25528) show NC gr  black 1 1 1 c
 gsave  2268 2176 0 0 C 1529.57 692.491 t 0 r /Helvetica-Bold findfont 60.8783 sf 0 0 m (  4) show NC gr  black 1 1 1 c
 gsave  2268 2176 0 0 C 1689.37 696.296 t 0 r /Helvetica-Bold findfont 60.8783 sf 0 0 m ( \2556) show NC gr  black 1 1 1 c
 gsave  2268 2176 0 0 C 1845.37 696.296 t 0 r /Helvetica-Bold findfont 60.8783 sf 0 0 m (\25545) show NC gr  black 1 1 1 c
 gsave  2268 2176 0 0 C 384.294 848.491 t 0 r /Helvetica-Bold findfont 60.8783 sf 0 0 m (  2) show NC gr  black 1 1 1 c
 gsave  2268 2176 0 0 C 551.71 848.491 t 0 r /Helvetica-Bold findfont 60.8783 sf 0 0 m ( \2551) show NC gr  black 1 1 1 c
 gsave  2268 2176 0 0 C 707.71 852.296 t 0 r /Helvetica-Bold findfont 60.8783 sf 0 0 m ( \2553) show NC gr  black 1 1 1 c
 gsave  2268 2176 0 0 C 856.101 852.296 t 0 r /Helvetica-Bold findfont 60.8783 sf 0 0 m (100) show NC gr  black 1 1 1 c
 gsave  2268 2176 0 0 C 1042.54 848.491 t 0 r /Helvetica-Bold findfont 60.8783 sf 0 0 m (  1) show NC gr  black 1 1 1 c
 gsave  2268 2176 0 0 C 1202.35 852.296 t 0 r /Helvetica-Bold findfont 60.8783 sf 0 0 m (  3) show NC gr  black 1 1 1 c
 gsave  2268 2176 0 0 C 1365.96 852.296 t 0 r /Helvetica-Bold findfont 60.8783 sf 0 0 m (  5) show NC gr  black 1 1 1 c
 gsave  2268 2176 0 0 C 1693.18 848.491 t 0 r /Helvetica-Bold findfont 60.8783 sf 0 0 m (  2) show NC gr  black 1 1 1 c
 gsave  2268 2176 0 0 C 1856.79 848.491 t 0 r /Helvetica-Bold findfont 60.8783 sf 0 0 m (  4) show NC gr  black 1 1 1 c
 gsave  2268 2176 0 0 C 540.295 1012.1 t 0 r /Helvetica-Bold findfont 60.8783 sf 0 0 m ( 39) show NC gr  black 1 1 1 c
 gsave  2268 2176 0 0 C 707.71 1008.3 t 0 r /Helvetica-Bold findfont 60.8783 sf 0 0 m ( \2557) show NC gr  black 1 1 1 c
 gsave  2268 2176 0 0 C 878.93 1008.3 t 0 r /Helvetica-Bold findfont 60.8783 sf 0 0 m (  1) show NC gr  black 1 1 1 c
 gsave  2268 2176 0 0 C 1019.71 1012.1 t 0 r /Helvetica-Bold findfont 60.8783 sf 0 0 m (100) show NC gr  black 1 1 1 c
 gsave  2268 2176 0 0 C 1194.74 1012.1 t 0 r /Helvetica-Bold findfont 60.8783 sf 0 0 m ( 75) show NC gr  black 1 1 1 c
 gsave  2268 2176 0 0 C 1362.15 1012.1 t 0 r /Helvetica-Bold findfont 60.8783 sf 0 0 m ( 81) show NC gr  black 1 1 1 c
 gsave  2268 2176 0 0 C 1521.96 1012.1 t 0 r /Helvetica-Bold findfont 60.8783 sf 0 0 m ( 32) show NC gr  black 1 1 1 c
 gsave  2268 2176 0 0 C 1856.79 1012.1 t 0 r /Helvetica-Bold findfont 60.8783 sf 0 0 m (  3) show NC gr  black 1 1 1 c
 gsave  2268 2176 0 0 C 540.295 1168.1 t 0 r /Helvetica-Bold findfont 60.8783 sf 0 0 m ( 38) show NC gr  black 1 1 1 c
 gsave  2268 2176 0 0 C 700.1 1168.1 t 0 r /Helvetica-Bold findfont 60.8783 sf 0 0 m (\25516) show NC gr  black 1 1 1 c
 gsave  2268 2176 0 0 C 875.125 1168.1 t 0 r /Helvetica-Bold findfont 60.8783 sf 0 0 m (  3) show NC gr  black 1 1 1 c
 gsave  2268 2176 0 0 C 1031.13 1168.1 t 0 r /Helvetica-Bold findfont 60.8783 sf 0 0 m ( 75) show NC gr  black 1 1 1 c
 gsave  2268 2176 0 0 C 1183.32 1168.1 t 0 r /Helvetica-Bold findfont 60.8783 sf 0 0 m (100) show NC gr  black 1 1 1 c
 gsave  2268 2176 0 0 C 1358.35 1168.1 t 0 r /Helvetica-Bold findfont 60.8783 sf 0 0 m ( 78) show NC gr  black 1 1 1 c
 gsave  2268 2176 0 0 C 1521.96 1168.1 t 0 r /Helvetica-Bold findfont 60.8783 sf 0 0 m ( 26) show NC gr  black 1 1 1 c
 gsave  2268 2176 0 0 C 1693.18 1164.3 t 0 r /Helvetica-Bold findfont 60.8783 sf 0 0 m (  2) show NC gr  black 1 1 1 c
 gsave  2268 2176 0 0 C 1856.79 1168.1 t 0 r /Helvetica-Bold findfont 60.8783 sf 0 0 m (  9) show NC gr  black 1 1 1 c
 gsave  2268 2176 0 0 C 540.295 1324.1 t 0 r /Helvetica-Bold findfont 60.8783 sf 0 0 m ( 50) show NC gr  black 1 1 1 c
 gsave  2268 2176 0 0 C 700.1 1324.1 t 0 r /Helvetica-Bold findfont 60.8783 sf 0 0 m (\25528) show NC gr  black 1 1 1 c
 gsave  2268 2176 0 0 C 875.125 1324.1 t 0 r /Helvetica-Bold findfont 60.8783 sf 0 0 m (  5) show NC gr  black 1 1 1 c
 gsave  2268 2176 0 0 C 1034.93 1324.1 t 0 r /Helvetica-Bold findfont 60.8783 sf 0 0 m ( 81) show NC gr  black 1 1 1 c
 gsave  2268 2176 0 0 C 1194.74 1324.1 t 0 r /Helvetica-Bold findfont 60.8783 sf 0 0 m ( 78) show NC gr  black 1 1 1 c
 gsave  2268 2176 0 0 C 1346.93 1324.1 t 0 r /Helvetica-Bold findfont 60.8783 sf 0 0 m (100) show NC gr  black 1 1 1 c
 gsave  2268 2176 0 0 C 1521.96 1320.3 t 0 r /Helvetica-Bold findfont 60.8783 sf 0 0 m ( 22) show NC gr  black 1 1 1 c
 gsave  2268 2176 0 0 C 1693.18 1320.3 t 0 r /Helvetica-Bold findfont 60.8783 sf 0 0 m (  4) show NC gr  black 1 1 1 c
 gsave  2268 2176 0 0 C 1849.18 1324.1 t 0 r /Helvetica-Bold findfont 60.8783 sf 0 0 m ( 20) show NC gr  black 1 1 1 c
 gsave  2268 2176 0 0 C 540.295 1480.1 t 0 r /Helvetica-Bold findfont 60.8783 sf 0 0 m ( 38) show NC gr  black 1 1 1 c
 gsave  2268 2176 0 0 C 711.515 1476.3 t 0 r /Helvetica-Bold findfont 60.8783 sf 0 0 m (  4) show NC gr  black 1 1 1 c
 gsave  2268 2176 0 0 C 1031.13 1480.1 t 0 r /Helvetica-Bold findfont 60.8783 sf 0 0 m ( 32) show NC gr  black 1 1 1 c
 gsave  2268 2176 0 0 C 1194.74 1480.1 t 0 r /Helvetica-Bold findfont 60.8783 sf 0 0 m ( 26) show NC gr  black 1 1 1 c
 gsave  2268 2176 0 0 C 1358.35 1476.3 t 0 r /Helvetica-Bold findfont 60.8783 sf 0 0 m ( 22) show NC gr  black 1 1 1 c
 gsave  2268 2176 0 0 C 1510.54 1480.1 t 0 r /Helvetica-Bold findfont 60.8783 sf 0 0 m (100) show NC gr  black 1 1 1 c
 gsave  2268 2176 0 0 C 1689.37 1476.3 t 0 r /Helvetica-Bold findfont 60.8783 sf 0 0 m ( \2552) show NC gr  black 1 1 1 c
 gsave  2268 2176 0 0 C 1852.98 1476.3 t 0 r /Helvetica-Bold findfont 60.8783 sf 0 0 m ( \2557) show NC gr  black 1 1 1 c
 gsave  2268 2176 0 0 C 384.294 1632.3 t 0 r /Helvetica-Bold findfont 60.8783 sf 0 0 m (  4) show NC gr  black 1 1 1 c
 gsave  2268 2176 0 0 C 547.905 1636.1 t 0 r /Helvetica-Bold findfont 60.8783 sf 0 0 m (  5) show NC gr  black 1 1 1 c
 gsave  2268 2176 0 0 C 707.71 1636.1 t 0 r /Helvetica-Bold findfont 60.8783 sf 0 0 m ( \2556) show NC gr  black 1 1 1 c
 gsave  2268 2176 0 0 C 875.125 1632.3 t 0 r /Helvetica-Bold findfont 60.8783 sf 0 0 m (  2) show NC gr  black 1 1 1 c
 gsave  2268 2176 0 0 C 1202.35 1632.3 t 0 r /Helvetica-Bold findfont 60.8783 sf 0 0 m (  2) show NC gr  black 1 1 1 c
 gsave  2268 2176 0 0 C 1365.96 1632.3 t 0 r /Helvetica-Bold findfont 60.8783 sf 0 0 m (  4) show NC gr  black 1 1 1 c
 gsave  2268 2176 0 0 C 1525.76 1632.3 t 0 r /Helvetica-Bold findfont 60.8783 sf 0 0 m ( \2552) show NC gr  black 1 1 1 c
 gsave  2268 2176 0 0 C 1674.15 1636.1 t 0 r /Helvetica-Bold findfont 60.8783 sf 0 0 m (100) show NC gr  black 1 1 1 c
 gsave  2268 2176 0 0 C 1849.18 1636.1 t 0 r /Helvetica-Bold findfont 60.8783 sf 0 0 m ( 10) show NC gr  black 1 1 1 c
 gsave  2268 2176 0 0 C 380.489 1792.1 t 0 r /Helvetica-Bold findfont 60.8783 sf 0 0 m ( 71) show NC gr  black 1 1 1 c
 gsave  2268 2176 0 0 C 547.905 1795.91 t 0 r /Helvetica-Bold findfont 60.8783 sf 0 0 m (  9) show NC gr  black 1 1 1 c
 gsave  2268 2176 0 0 C 700.1 1795.91 t 0 r /Helvetica-Bold findfont 60.8783 sf 0 0 m (\25545) show NC gr  black 1 1 1 c
 gsave  2268 2176 0 0 C 875.125 1792.1 t 0 r /Helvetica-Bold findfont 60.8783 sf 0 0 m (  4) show NC gr  black 1 1 1 c
 gsave  2268 2176 0 0 C 1038.74 1795.91 t 0 r /Helvetica-Bold findfont 60.8783 sf 0 0 m (  3) show NC gr  black 1 1 1 c
 gsave  2268 2176 0 0 C 1202.35 1795.91 t 0 r /Helvetica-Bold findfont 60.8783 sf 0 0 m (  9) show NC gr  black 1 1 1 c
 gsave  2268 2176 0 0 C 1358.35 1795.91 t 0 r /Helvetica-Bold findfont 60.8783 sf 0 0 m ( 20) show NC gr  black 1 1 1 c
 gsave  2268 2176 0 0 C 1525.76 1792.1 t 0 r /Helvetica-Bold findfont 60.8783 sf 0 0 m ( \2557) show NC gr  black 1 1 1 c
 gsave  2268 2176 0 0 C 1685.57 1795.91 t 0 r /Helvetica-Bold findfont 60.8783 sf 0 0 m ( 10) show NC gr  black 1 1 1 c
 gsave  2268 2176 0 0 C 1837.76 1795.91 t 0 r /Helvetica-Bold findfont 60.8783 sf 0 0 m (100) show NC gr  black
 gsave  2268 2176 0 0 C 1201.89 1915.23 t 0 r /Helvetica-Bold findfont 53.2685 sf 0 0 m (Linear correlation coefficients in %) show NC gr 
 gr  gr showpage
end
%%EOF
