%!PS-Adobe-2.0 EPSF-2.0
%%BoundingBox:  0 0 567 419
%%Title: plots/mva_BDT.eps: TMVA response BDT
%%Creator: ROOT Version 5.34/36
%%CreationDate: Tue Feb 28 17:22:35 2017
%%EndComments
%%BeginProlog
80 dict begin
/s {stroke} def /l {lineto} def /m {moveto} def /t {translate} def
/r {rotate} def /rl {roll}  def /R {repeat} def
/d {rlineto} def /rm {rmoveto} def /gr {grestore} def /f {eofill} def
/c {setrgbcolor} def /black {0 setgray} def /sd {setdash} def
/cl {closepath} def /sf {scalefont setfont} def /lw {setlinewidth} def
/box {m dup 0 exch d exch 0 d 0 exch neg d cl} def
/NC{systemdict begin initclip end}def/C{NC box clip newpath}def
/bl {box s} def /bf {gsave box gsave f grestore 1 lw [] 0 sd s grestore} def /Y { 0 exch d} def /X { 0 d} def 
/K {{pop pop 0 moveto} exch kshow} bind def
/ita {/ang 15 def gsave [1 0 ang dup sin exch cos div 1 0 0] concat} def 
/mp {newpath /y exch def /x exch def} def
/side {[w .77 mul w .23 mul] .385 w mul sd w 0 l currentpoint t -144 r} def
/mr {mp x y w2 0 360 arc} def /m24 {mr s} def /m20 {mr f} def
/mb {mp x y w2 add m w2 neg 0 d 0 w neg d w 0 d 0 w d cl} def
/mt {mp x y w2 add m w2 neg w neg d w 0 d cl} def
/m21 {mb f} def /m25 {mb s} def /m22 {mt f} def /m26{mt s} def
/m23 {mp x y w2 sub m w2 w d w neg 0 d cl f} def
/m27 {mp x y w2 add m w3 neg w2 neg d w3 w2 neg d w3 w2 d cl s} def
/m28 {mp x w2 sub y w2 sub w3 add m w3 0 d  0 w3 neg d w3 0 d 0 w3 d w3 0 d  0 w3 d w3 neg 0 d 0 w3 d w3 neg 0 d 0 w3 neg d w3 neg 0 d cl s } def
/m29 {mp gsave x w2 sub y w2 add w3 sub m currentpoint t 4 {side} repeat cl fill gr} def
/m30 {mp gsave x w2 sub y w2 add w3 sub m currentpoint t 4 {side} repeat cl s gr} def
/m31 {mp x y w2 sub m 0 w d x w2 sub y m w 0 d x w2 sub y w2 add m w w neg d x w2 sub y w2 sub m w w d s} def
/m32 {mp x y w2 sub m w2 w d w neg 0 d cl s} def
/m33 {mp x y w2 add m w3 neg w2 neg d w3 w2 neg d w3 w2 d cl f} def
/m34 {mp x w2 sub y w2 sub w3 add m w3 0 d  0 w3 neg d w3 0 d 0 w3 d w3 0 d  0 w3 d w3 neg 0 d 0 w3 d w3 neg 0 d 0 w3 neg d w3 neg 0 d cl f } def
/m2 {mp x y w2 sub m 0 w d x w2 sub y m w 0 d s} def
/m5 {mp x w2 sub y w2 sub m w w d x w2 sub y w2 add m w w neg d s} def
/reEncode {exch findfont dup length dict begin {1 index /FID eq  {pop pop} {def} ifelse } forall /Encoding exch def currentdict end dup /FontName get exch definefont pop } def [/Times-Bold /Times-Italic /Times-BoldItalic /Helvetica /Helvetica-Oblique
 /Helvetica-Bold /Helvetica-BoldOblique /Courier /Courier-Oblique /Courier-Bold /Courier-BoldOblique /Times-Roman /AvantGarde-Book /AvantGarde-BookOblique /AvantGarde-Demi /AvantGarde-DemiOblique /Bookman-Demi /Bookman-DemiItalic /Bookman-Light
 /Bookman-LightItalic /Helvetica-Narrow /Helvetica-Narrow-Bold /Helvetica-Narrow-BoldOblique /Helvetica-Narrow-Oblique /NewCenturySchlbk-Roman /NewCenturySchlbk-Bold /NewCenturySchlbk-BoldItalic /NewCenturySchlbk-Italic /Palatino-Bold
 /Palatino-BoldItalic /Palatino-Italic /Palatino-Roman ] {ISOLatin1Encoding reEncode } forall
%%EndProlog
%%BeginSetup
%%EndSetup
newpath  gsave  .25 .25 scale  gsave  0 0 t 0.490196 0.545098 0.615686 c[  ] 0 sd 3 lw 0.941176 0.941176 0.941176 c 2268 1674 0 0 bf black 1 1 0.992157 c 1916 1306 238 201 bf black 1916 1306 238 201 bl 1 1 0.992157 c 1916 1306 238 201 bf black 1916
 1306 238 201 bl 238 201 m 1916 X s
 gsave  2268 1674 0 0 C 1689.37 30.4391 t 0 r /Helvetica-Bold findfont 68.4881 sf 0 0 m (BDT response) show NC gr  534 243 m -42 Y s 596 222 m -21 Y s 658 222 m -21 Y s 720 222 m -21 Y s 782 222 m -21 Y s 845 243 m -42 Y s 907 222 m -21 Y s 969 222 m
 -21 Y s 1031 222 m -21 Y s 1093 222 m -21 Y s 1155 243 m -42 Y s 1218 222 m -21 Y s 1280 222 m -21 Y s 1342 222 m -21 Y s 1404 222 m -21 Y s 1466 243 m -42 Y s 1528 222 m -21 Y s 1591 222 m -21 Y s 1653 222 m -21 Y s 1715 222 m -21 Y s 1777 243 m
 -42 Y s 1839 222 m -21 Y s 1901 222 m -21 Y s 1964 222 m -21 Y s 2026 222 m -21 Y s 2088 243 m -42 Y s 534 243 m -42 Y s 471 222 m -21 Y s 409 222 m -21 Y s 347 222 m -21 Y s 285 222 m -21 Y s 2088 243 m -42 Y s 2150 222 m -21 Y s
 gsave  2268 1674 0 0 C 506.051 129.366 t 0 r /Helvetica-Bold findfont 60.8783 sf 0 0 m (0.2) show NC gr 
 gsave  2268 1674 0 0 C 471.807 129.366 t 0 r /Symbol findfont 60.8783 sf 0 0 m (-) show NC gr 
 gsave  2268 1674 0 0 C 818.052 129.366 t 0 r /Helvetica-Bold findfont 60.8783 sf 0 0 m (0.1) show NC gr 
 gsave  2268 1674 0 0 C 783.808 129.366 t 0 r /Symbol findfont 60.8783 sf 0 0 m (-) show NC gr 
 gsave  2268 1674 0 0 C 1133.86 129.366 t 0 r /Helvetica-Bold findfont 60.8783 sf 0 0 m (0) show NC gr 
 gsave  2268 1674 0 0 C 1426.84 129.366 t 0 r /Helvetica-Bold findfont 60.8783 sf 0 0 m (0.1) show NC gr 
 gsave  2268 1674 0 0 C 1735.03 129.366 t 0 r /Helvetica-Bold findfont 60.8783 sf 0 0 m (0.2) show NC gr 
 gsave  2268 1674 0 0 C 2043.23 129.366 t 0 r /Helvetica-Bold findfont 60.8783 sf 0 0 m (0.3) show NC gr  238 1507 m 1916 X s 534 1464 m 43 Y s 596 1486 m 21 Y s 658 1486 m 21 Y s 720 1486 m 21 Y s 782 1486 m 21 Y s 845 1464 m 43 Y s 907 1486 m 21 Y
 s 969 1486 m 21 Y s 1031 1486 m 21 Y s 1093 1486 m 21 Y s 1155 1464 m 43 Y s 1218 1486 m 21 Y s 1280 1486 m 21 Y s 1342 1486 m 21 Y s 1404 1486 m 21 Y s 1466 1464 m 43 Y s 1528 1486 m 21 Y s 1591 1486 m 21 Y s 1653 1486 m 21 Y s 1715 1486 m 21 Y s
 1777 1464 m 43 Y s 1839 1486 m 21 Y s 1901 1486 m 21 Y s 1964 1486 m 21 Y s 2026 1486 m 21 Y s 2088 1464 m 43 Y s 534 1464 m 43 Y s 471 1486 m 21 Y s 409 1486 m 21 Y s 347 1486 m 21 Y s 285 1486 m 21 Y s 2088 1464 m 43 Y s 2150 1486 m 21 Y s 238 201
 m 1306 Y s
 gsave  2268 1674 0 0 C 64.6832 1426.84 t 90 r /Helvetica-Bold findfont 68.4881 sf 0 0 m (dx) show NC gr 
 gsave  2268 1674 0 0 C 34.244 1407.81 t 90 r /Helvetica-Bold findfont 45.6587 sf 0 0 m ( ) show NC gr 
 gsave  2268 1674 0 0 C 64.6832 1388.79 t 90 r /Helvetica-Bold findfont 68.4881 sf 0 0 m (/) show NC gr 
 gsave  2268 1674 0 0 C 30.4391 1369.76 t 90 r /Helvetica-Bold findfont 45.6587 sf 0 0 m ( ) show NC gr 
 gsave  2268 1674 0 0 C 60.8783 1111.03 t 90 r /Helvetica-Bold findfont 68.4881 sf 0 0 m (\(1/N\) dN) show NC gr  291 201 m -53 X s 265 238 m -27 X s 265 276 m -27 X s 265 314 m -27 X s 265 351 m -27 X s 291 389 m -53 X s 265 426 m -27 X s 265 464 m
 -27 X s 265 502 m -27 X s 265 539 m -27 X s 291 577 m -53 X s 265 614 m -27 X s 265 652 m -27 X s 265 689 m -27 X s 265 727 m -27 X s 291 765 m -53 X s 265 802 m -27 X s 265 840 m -27 X s 265 877 m -27 X s 265 915 m -27 X s 291 952 m -53 X s 265 990
 m -27 X s 265 1028 m -27 X s 265 1065 m -27 X s 265 1103 m -27 X s 291 1140 m -53 X s 265 1178 m -27 X s 265 1216 m -27 X s 265 1253 m -27 X s 265 1291 m -27 X s 291 1328 m -53 X s 291 1328 m -53 X s 265 1366 m -27 X s 265 1403 m -27 X s 265 1441 m
 -27 X s 265 1479 m -27 X s
 gsave  2268 1674 0 0 C 175.025 178.83 t 0 r /Helvetica-Bold findfont 60.8783 sf 0 0 m (0) show NC gr 
 gsave  2268 1674 0 0 C 182.635 365.27 t 0 r /Helvetica-Bold findfont 60.8783 sf 0 0 m (1) show NC gr 
 gsave  2268 1674 0 0 C 175.025 551.71 t 0 r /Helvetica-Bold findfont 60.8783 sf 0 0 m (2) show NC gr 
 gsave  2268 1674 0 0 C 175.025 741.954 t 0 r /Helvetica-Bold findfont 60.8783 sf 0 0 m (3) show NC gr 
 gsave  2268 1674 0 0 C 175.025 928.394 t 0 r /Helvetica-Bold findfont 60.8783 sf 0 0 m (4) show NC gr 
 gsave  2268 1674 0 0 C 175.025 1118.64 t 0 r /Helvetica-Bold findfont 60.8783 sf 0 0 m (5) show NC gr 
 gsave  2268 1674 0 0 C 175.025 1308.88 t 0 r /Helvetica-Bold findfont 60.8783 sf 0 0 m (6) show NC gr  2154 201 m 1306 Y s 2101 201 m 53 X s 2128 238 m 26 X s 2128 276 m 26 X s 2128 314 m 26 X s 2128 351 m 26 X s 2101 389 m 53 X s 2128 426 m 26 X s
 2128 464 m 26 X s 2128 502 m 26 X s 2128 539 m 26 X s 2101 577 m 53 X s 2128 614 m 26 X s 2128 652 m 26 X s 2128 689 m 26 X s 2128 727 m 26 X s 2101 765 m 53 X s 2128 802 m 26 X s 2128 840 m 26 X s 2128 877 m 26 X s 2128 915 m 26 X s 2101 952 m 53 X
 s 2128 990 m 26 X s 2128 1028 m 26 X s 2128 1065 m 26 X s 2128 1103 m 26 X s 2101 1140 m 53 X s 2128 1178 m 26 X s 2128 1216 m 26 X s 2128 1253 m 26 X s 2128 1291 m 26 X s 2101 1328 m 53 X s 2101 1328 m 53 X s 2128 1366 m 26 X s 2128 1403 m 26 X s
 2128 1441 m 26 X s 2128 1479 m 26 X s 0.490196 0.545098 0.615686 c 1 1 1 c 0.490196 0.545098 0.615686 c 680 201 238 1306 bl 238 1306 m 680 X s 918 1306 m 201 Y s 918 1507 m -680 X s 238 1507 m -201 Y s black
 gsave  2268 1674 0 0 C 441.368 1434.44 t 0 r /Helvetica-Bold findfont 76.0979 sf 0 0 m (Signal) show NC gr  0.49 0.6 0.82 c 269 1421 m 143 X 71 Y -143 X f 0 0 0.933333 c 6 lw 269 1492 m 143 X s 269 1421 m 143 X s 412 1421 m 71 Y s 269 1421 m 71 Y s
 black
 gsave  2268 1674 0 0 C 441.368 1335.52 t 0 r /Helvetica-Bold findfont 76.0979 sf 0 0 m (Background) show NC gr  1 0 0 c 3 lw 412 1326 m -5 -5 d s 412 1374 m -53 -53 d s 381 1391 m -70 -70 d s 333 1391 m -64 -64 d s 285 1391 m -16 -16 d s 6 lw 0 0
 0.933333 c 1 0 0 c 269 1391 m 143 X s 269 1321 m 143 X s 412 1321 m 70 Y s 269 1321 m 70 Y s 0 0 0.933333 c 0.49 0.6 0.82 c black 3 lw 0.49 0.6 0.82 c 238 201 m 2 Y 96 X -2 Y 96 X 2 Y 48 X 3 Y 48 X 9 Y 47 X -2 Y 48 X 12 Y 48 X 7 Y 48 X 30 Y 48 X 12
 Y 48 X 48 Y 48 X 51 Y 48 X 102 Y 48 X -7 Y 48 X 136 Y 48 X 177 Y 47 X 20 Y 48 X 102 Y 48 X 60 Y 48 X 8 Y 48 X 94 Y 48 X 44 Y 48 X -116 Y 48 X 19 Y 48 X -68 Y 48 X 61 Y 47 X -199 Y 48 X -124 Y 48 X -76 Y 48 X -51 Y 48 X -114 Y 48 X -121 Y 48 X -41 Y
 48 X -27 Y 48 X -20 Y 48 X -24 Y 48 X 3 Y 47 X -3 Y 48 X -7 Y f 6 lw 0 0 0.933333 c 0.49 0.6 0.82 c 0 0 0.933333 c 238 203 m 96 X -2 Y 96 X 2 Y 48 X 3 Y 48 X 9 Y 47 X -2 Y 48 X 12 Y 48 X 7 Y 48 X 30 Y 48 X 12 Y 48 X 48 Y 48 X 51 Y 48 X 102 Y 48 X -7
 Y 48 X 136 Y 48 X 177 Y 47 X 20 Y 48 X 102 Y 48 X 60 Y 48 X 8 Y 48 X 94 Y 48 X 44 Y 48 X -116 Y 48 X 19 Y 48 X -68 Y 48 X 61 Y 47 X -199 Y 48 X -124 Y 48 X -76 Y 48 X -51 Y 48 X -114 Y 48 X -121 Y 48 X -41 Y 48 X -27 Y 48 X -20 Y 48 X -24 Y 48 X 3 Y
 47 X -3 Y 48 X -7 Y s 1 0 0 c black 3 lw 1 0 0 c 2125 201 m s 2077 201 m s 2029 201 m s 1981 201 m s 1933 201 m s 1885 201 m s 1836 201 m s 1788 201 m s 1740 201 m s 1700 209 m -8 -8 d s 1669 226 m -25 -25 d s 1627 232 m -31 -31 d s 1581 234 m -33
 -33 d s 1579 281 m -79 -80 d s 1534 283 m -82 -82 d s 1519 316 m -115 -115 d s 1484 329 m -129 -128 d s 1484 377 m -177 -176 d s 1457 399 m -198 -198 d s 1436 426 m -225 -225 d s 1427 465 m -264 -264 d s 1388 474 m -273 -273 d s 1380 514 m -313 -313
 d s 1340 522 m -321 -321 d s 1340 570 m -369 -369 d s 1340 618 m -418 -417 d s 1311 638 m -437 -437 d s 1292 667 m -466 -466 d s 1292 715 m -514 -514 d s 1274 745 m -544 -544 d s 1244 763 m -562 -562 d s 1244 811 m -610 -610 d s 1244 859 m -658 -658
 d s 1244 907 m -706 -706 d s 1244 955 m -671 -670 d s 572 283 m -82 -82 d s 1244 1004 m -575 -575 d s 656 415 m -35 -34 d s 598 358 m -25 -25 d s 499 259 m -58 -58 d s 1209 1017 m -540 -540 d s 443 250 m -13 -13 d s 418 226 m -25 -25 d s 1196 1052 m
 -479 -479 d s 691 547 m -22 -22 d s 370 226 m -25 -25 d s 1196 1100 m -479 -479 d s 305 209 m -8 -8 d s 1181 1132 m -320 -319 d s 834 786 m -21 -21 d s 801 753 m -36 -36 d s 744 696 m -27 -27 d s 257 209 m -8 -8 d s 1108 1108 m -247 -247 d s 1100
 1149 m -239 -240 d s 1100 1197 m -239 -240 d s 1100 1245 m -47 -48 d s 1013 1157 m -152 -152 d s 1097 1289 m -44 -44 d s 1005 1197 m -48 -48 d s 924 1116 m -63 -63 d s 974 1215 m -17 -18 d s 900 1141 m -39 -40 d s 6 lw 238 209 m 96 X 17 Y 96 X 24 Y
 48 X 9 Y 48 X 24 Y 47 X 75 Y 48 X 57 Y 48 X 132 Y 48 X 149 Y 48 X 57 Y 48 X 33 Y 48 X 355 Y 48 X -25 Y 48 X 99 Y 48 X -58 Y 48 X 132 Y 47 X -181 Y 48 X 24 Y 48 X -115 Y 48 X -272 Y 48 X -107 Y 48 X -124 Y 48 X -49 Y 48 X -66 Y 48 X -83 Y 48 X -33 Y
 47 X -49 Y 48 X -8 Y 48 X -17 Y 48 X -8 Y 431 X s black 3 lw 238 201 m 1916 X s 534 243 m -42 Y s 596 222 m -21 Y s 658 222 m -21 Y s 720 222 m -21 Y s 782 222 m -21 Y s 845 243 m -42 Y s 907 222 m -21 Y s 969 222 m -21 Y s 1031 222 m -21 Y s 1093
 222 m -21 Y s 1155 243 m -42 Y s 1218 222 m -21 Y s 1280 222 m -21 Y s 1342 222 m -21 Y s 1404 222 m -21 Y s 1466 243 m -42 Y s 1528 222 m -21 Y s 1591 222 m -21 Y s 1653 222 m -21 Y s 1715 222 m -21 Y s 1777 243 m -42 Y s 1839 222 m -21 Y s 1901
 222 m -21 Y s 1964 222 m -21 Y s 2026 222 m -21 Y s 2088 243 m -42 Y s 534 243 m -42 Y s 471 222 m -21 Y s 409 222 m -21 Y s 347 222 m -21 Y s 285 222 m -21 Y s 2088 243 m -42 Y s 2150 222 m -21 Y s 238 1507 m 1916 X s 534 1464 m 43 Y s 596 1486 m
 21 Y s 658 1486 m 21 Y s 720 1486 m 21 Y s 782 1486 m 21 Y s 845 1464 m 43 Y s 907 1486 m 21 Y s 969 1486 m 21 Y s 1031 1486 m 21 Y s 1093 1486 m 21 Y s 1155 1464 m 43 Y s 1218 1486 m 21 Y s 1280 1486 m 21 Y s 1342 1486 m 21 Y s 1404 1486 m 21 Y s
 1466 1464 m 43 Y s 1528 1486 m 21 Y s 1591 1486 m 21 Y s 1653 1486 m 21 Y s 1715 1486 m 21 Y s 1777 1464 m 43 Y s 1839 1486 m 21 Y s 1901 1486 m 21 Y s 1964 1486 m 21 Y s 2026 1486 m 21 Y s 2088 1464 m 43 Y s 534 1464 m 43 Y s 471 1486 m 21 Y s 409
 1486 m 21 Y s 347 1486 m 21 Y s 285 1486 m 21 Y s 2088 1464 m 43 Y s 2150 1486 m 21 Y s 238 201 m 1306 Y s 291 201 m -53 X s 265 238 m -27 X s 265 276 m -27 X s 265 314 m -27 X s 265 351 m -27 X s 291 389 m -53 X s 265 426 m -27 X s 265 464 m -27 X
 s 265 502 m -27 X s 265 539 m -27 X s 291 577 m -53 X s 265 614 m -27 X s 265 652 m -27 X s 265 689 m -27 X s 265 727 m -27 X s 291 765 m -53 X s 265 802 m -27 X s 265 840 m -27 X s 265 877 m -27 X s 265 915 m -27 X s 291 952 m -53 X s 265 990 m -27
 X s 265 1028 m -27 X s 265 1065 m -27 X s 265 1103 m -27 X s 291 1140 m -53 X s 265 1178 m -27 X s 265 1216 m -27 X s 265 1253 m -27 X s 265 1291 m -27 X s 291 1328 m -53 X s 291 1328 m -53 X s 265 1366 m -27 X s 265 1403 m -27 X s 265 1441 m -27 X
 s 265 1479 m -27 X s 2154 201 m 1306 Y s 2101 201 m 53 X s 2128 238 m 26 X s 2128 276 m 26 X s 2128 314 m 26 X s 2128 351 m 26 X s 2101 389 m 53 X s 2128 426 m 26 X s 2128 464 m 26 X s 2128 502 m 26 X s 2128 539 m 26 X s 2101 577 m 53 X s 2128 614 m
 26 X s 2128 652 m 26 X s 2128 689 m 26 X s 2128 727 m 26 X s 2101 765 m 53 X s 2128 802 m 26 X s 2128 840 m 26 X s 2128 877 m 26 X s 2128 915 m 26 X s 2101 952 m 53 X s 2128 990 m 26 X s 2128 1028 m 26 X s 2128 1065 m 26 X s 2128 1103 m 26 X s 2101
 1140 m 53 X s 2128 1178 m 26 X s 2128 1216 m 26 X s 2128 1253 m 26 X s 2128 1291 m 26 X s 2101 1328 m 53 X s 2101 1328 m 53 X s 2128 1366 m 26 X s 2128 1403 m 26 X s 2128 1441 m 26 X s 2128 1479 m 26 X s
 gsave  2268 1674 0 0 C 2211.02 192.528 t 90 r /Helvetica-Bold findfont 45.6587 sf 0 0 m (U/O\255flow \(S,B\): \(0.0, 0.0\)% / \(0.0, 0.0\)%) show NC gr  0.490196 0.545098 0.615686 c 0.364706 0.419608 0.490196 c 1362 96 23 1570 bf 0.490196 0.545098
 0.615686 c 23 1570 m 1362 X s 1385 1570 m 96 Y s 1385 1666 m -1362 X s 23 1666 m -96 Y s 1 1 1 c black 1 1 1 c
 gsave  2268 1674 0 0 C 72.293 1598.06 t 0 r /Helvetica-Bold findfont 76.0979 sf 0 0 m (TMVA response for classifier: BDT) show NC gr 
 gr  gr showpage
end
%%EOF
