%!PS-Adobe-2.0 EPSF-2.0
%%BoundingBox:  0 0 567 293
%%Title: plots/variables_id_c2.eps: TMVA Input Variables
%%Creator: ROOT Version 5.34/36
%%CreationDate: Tue Feb 28 17:22:19 2017
%%EndComments
%%BeginProlog
80 dict begin
/s {stroke} def /l {lineto} def /m {moveto} def /t {translate} def
/r {rotate} def /rl {roll}  def /R {repeat} def
/d {rlineto} def /rm {rmoveto} def /gr {grestore} def /f {eofill} def
/c {setrgbcolor} def /black {0 setgray} def /sd {setdash} def
/cl {closepath} def /sf {scalefont setfont} def /lw {setlinewidth} def
/box {m dup 0 exch d exch 0 d 0 exch neg d cl} def
/NC{systemdict begin initclip end}def/C{NC box clip newpath}def
/bl {box s} def /bf {gsave box gsave f grestore 1 lw [] 0 sd s grestore} def /Y { 0 exch d} def /X { 0 d} def 
/K {{pop pop 0 moveto} exch kshow} bind def
/ita {/ang 15 def gsave [1 0 ang dup sin exch cos div 1 0 0] concat} def 
/mp {newpath /y exch def /x exch def} def
/side {[w .77 mul w .23 mul] .385 w mul sd w 0 l currentpoint t -144 r} def
/mr {mp x y w2 0 360 arc} def /m24 {mr s} def /m20 {mr f} def
/mb {mp x y w2 add m w2 neg 0 d 0 w neg d w 0 d 0 w d cl} def
/mt {mp x y w2 add m w2 neg w neg d w 0 d cl} def
/m21 {mb f} def /m25 {mb s} def /m22 {mt f} def /m26{mt s} def
/m23 {mp x y w2 sub m w2 w d w neg 0 d cl f} def
/m27 {mp x y w2 add m w3 neg w2 neg d w3 w2 neg d w3 w2 d cl s} def
/m28 {mp x w2 sub y w2 sub w3 add m w3 0 d  0 w3 neg d w3 0 d 0 w3 d w3 0 d  0 w3 d w3 neg 0 d 0 w3 d w3 neg 0 d 0 w3 neg d w3 neg 0 d cl s } def
/m29 {mp gsave x w2 sub y w2 add w3 sub m currentpoint t 4 {side} repeat cl fill gr} def
/m30 {mp gsave x w2 sub y w2 add w3 sub m currentpoint t 4 {side} repeat cl s gr} def
/m31 {mp x y w2 sub m 0 w d x w2 sub y m w 0 d x w2 sub y w2 add m w w neg d x w2 sub y w2 sub m w w d s} def
/m32 {mp x y w2 sub m w2 w d w neg 0 d cl s} def
/m33 {mp x y w2 add m w3 neg w2 neg d w3 w2 neg d w3 w2 d cl f} def
/m34 {mp x w2 sub y w2 sub w3 add m w3 0 d  0 w3 neg d w3 0 d 0 w3 d w3 0 d  0 w3 d w3 neg 0 d 0 w3 d w3 neg 0 d 0 w3 neg d w3 neg 0 d cl f } def
/m2 {mp x y w2 sub m 0 w d x w2 sub y m w 0 d s} def
/m5 {mp x w2 sub y w2 sub m w w d x w2 sub y w2 add m w w neg d s} def
/reEncode {exch findfont dup length dict begin {1 index /FID eq  {pop pop} {def} ifelse } forall /Encoding exch def currentdict end dup /FontName get exch definefont pop } def [/Times-Bold /Times-Italic /Times-BoldItalic /Helvetica /Helvetica-Oblique
 /Helvetica-Bold /Helvetica-BoldOblique /Courier /Courier-Oblique /Courier-Bold /Courier-BoldOblique /Times-Roman /AvantGarde-Book /AvantGarde-BookOblique /AvantGarde-Demi /AvantGarde-DemiOblique /Bookman-Demi /Bookman-DemiItalic /Bookman-Light
 /Bookman-LightItalic /Helvetica-Narrow /Helvetica-Narrow-Bold /Helvetica-Narrow-BoldOblique /Helvetica-Narrow-Oblique /NewCenturySchlbk-Roman /NewCenturySchlbk-Bold /NewCenturySchlbk-BoldItalic /NewCenturySchlbk-Italic /Palatino-Bold
 /Palatino-BoldItalic /Palatino-Italic /Palatino-Roman ] {ISOLatin1Encoding reEncode } forall
%%EndProlog
%%BeginSetup
%%EndSetup
newpath  gsave  .25 .25 scale  gsave  0 0 t 0.490196 0.545098 0.615686 c[  ] 0 sd 3 lw 0.941176 0.941176 0.941176 c 2268 1174 0 0 bf 0.490196 0.545098 0.615686 c 0.941176 0.941176 0.941176 c 710 563 23 599 bf black 1 1 0.992157 c 548 426 143 680 bf
 black 548 426 143 680 bl 0 0 0.933333 c 6 lw 0.49 0.6 0.82 c black 3 lw 0.49 0.6 0.82 c 143 680 m 387 Y 14 X -154 Y 14 X -109 Y 14 X -14 Y 13 X -23 Y 14 X -12 Y 14 X -6 Y 13 X -16 Y 14 X -16 Y 14 X -5 Y 13 X -8 Y 14 X -4 Y 14 X -6 Y 13 X -1 Y 14 X
 -5 Y 14 X -1 Y 13 X -4 Y 14 X -1 Y 27 X -1 Y 41 X -1 Y 247 X f 6 lw 0 0 0.933333 c 0.49 0.6 0.82 c 0 0 0.933333 c 143 1067 m 14 X -154 Y 14 X -109 Y 14 X -14 Y 13 X -23 Y 14 X -12 Y 14 X -6 Y 13 X -16 Y 14 X -16 Y 14 X -5 Y 13 X -8 Y 14 X -4 Y 14 X
 -6 Y 13 X -1 Y 14 X -5 Y 14 X -1 Y 13 X -4 Y 14 X -1 Y 27 X -1 Y 41 X -1 Y 247 X s black 3 lw 143 680 m 548 X s
 gsave  710 563 23 599 C 490.009 609.662 t 0 r /Helvetica-Bold findfont 28.5988 sf 0 0 m (Lc_IP_OWNPV) show NC gr  235 693 m -13 Y s 258 686 m -6 Y s 281 686 m -6 Y s 304 686 m -6 Y s 327 693 m -13 Y s 350 686 m -6 Y s 373 686 m -6 Y s 396 686 m -6 Y
 s 419 693 m -13 Y s 442 686 m -6 Y s 465 686 m -6 Y s 488 686 m -6 Y s 511 693 m -13 Y s 534 686 m -6 Y s 556 686 m -6 Y s 579 686 m -6 Y s 602 693 m -13 Y s 235 693 m -13 Y s 212 686 m -6 Y s 189 686 m -6 Y s 166 686 m -6 Y s 602 693 m -13 Y s 625
 686 m -6 Y s 648 686 m -6 Y s 671 686 m -6 Y s
 gsave  710 563 23 599 C 213.667 652.396 t 0 r /Helvetica-Bold findfont 25.7389 sf 0 0 m (0.2) show NC gr 
 gsave  710 563 23 599 C 304.831 652.396 t 0 r /Helvetica-Bold findfont 25.7389 sf 0 0 m (0.4) show NC gr 
 gsave  710 563 23 599 C 395.996 652.396 t 0 r /Helvetica-Bold findfont 25.7389 sf 0 0 m (0.6) show NC gr 
 gsave  710 563 23 599 C 490.009 652.396 t 0 r /Helvetica-Bold findfont 25.7389 sf 0 0 m (0.8) show NC gr 
 gsave  710 563 23 599 C 595.418 652.396 t 0 r /Helvetica-Bold findfont 25.7389 sf 0 0 m (1) show NC gr  143 1106 m 548 X s 235 1093 m 13 Y s 258 1099 m 7 Y s 281 1099 m 7 Y s 304 1099 m 7 Y s 327 1093 m 13 Y s 350 1099 m 7 Y s 373 1099 m 7 Y s 396
 1099 m 7 Y s 419 1093 m 13 Y s 442 1099 m 7 Y s 465 1099 m 7 Y s 488 1099 m 7 Y s 511 1093 m 13 Y s 534 1099 m 7 Y s 556 1099 m 7 Y s 579 1099 m 7 Y s 602 1093 m 13 Y s 235 1093 m 13 Y s 212 1099 m 7 Y s 189 1099 m 7 Y s 166 1099 m 7 Y s 602 1093 m
 13 Y s 625 1099 m 7 Y s 648 1099 m 7 Y s 671 1099 m 7 Y s 143 680 m 426 Y s
 gsave  710 563 23 599 C 45.5822 1008.51 t 90 r /Helvetica-Bold findfont 28.5988 sf 0 0 m (0.0298 ) show NC gr 
 gsave  710 563 23 599 C 34.1867 999.96 t 90 r /Helvetica-Bold findfont 20.0192 sf 0 0 m ( ) show NC gr 
 gsave  710 563 23 599 C 45.5822 991.414 t 90 r /Helvetica-Bold findfont 28.5988 sf 0 0 m (/) show NC gr 
 gsave  710 563 23 599 C 51.28 982.867 t 90 r /Helvetica-Bold findfont 20.0192 sf 0 0 m ( ) show NC gr 
 gsave  710 563 23 599 C 45.5822 874.609 t 90 r /Helvetica-Bold findfont 28.5988 sf 0 0 m (\(1/N\) dN) show NC gr  160 680 m -17 X s 152 699 m -9 X s 152 719 m -9 X s 152 738 m -9 X s 160 758 m -17 X s 152 777 m -9 X s 152 797 m -9 X s 152 817 m -9 X
 s 160 836 m -17 X s 152 856 m -9 X s 152 875 m -9 X s 152 895 m -9 X s 160 914 m -17 X s 152 934 m -9 X s 152 953 m -9 X s 152 973 m -9 X s 160 993 m -17 X s 152 1012 m -9 X s 152 1032 m -9 X s 152 1051 m -9 X s 160 1071 m -17 X s 160 1071 m -17 X s
 152 1090 m -9 X s
 gsave  710 563 23 599 C 119.653 669.489 t 0 r /Helvetica-Bold findfont 25.7389 sf 0 0 m (0) show NC gr 
 gsave  710 563 23 599 C 119.653 749.258 t 0 r /Helvetica-Bold findfont 25.7389 sf 0 0 m (2) show NC gr 
 gsave  710 563 23 599 C 119.653 826.178 t 0 r /Helvetica-Bold findfont 25.7389 sf 0 0 m (4) show NC gr 
 gsave  710 563 23 599 C 119.653 903.098 t 0 r /Helvetica-Bold findfont 25.7389 sf 0 0 m (6) show NC gr 
 gsave  710 563 23 599 C 119.653 982.867 t 0 r /Helvetica-Bold findfont 25.7389 sf 0 0 m (8) show NC gr 
 gsave  710 563 23 599 C 105.409 1059.79 t 0 r /Helvetica-Bold findfont 25.7389 sf 0 0 m (10) show NC gr  691 680 m 426 Y s 674 680 m 17 X s 683 699 m 8 X s 683 719 m 8 X s 683 738 m 8 X s 674 758 m 17 X s 683 777 m 8 X s 683 797 m 8 X s 683 817 m 8
 X s 674 836 m 17 X s 683 856 m 8 X s 683 875 m 8 X s 683 895 m 8 X s 674 914 m 17 X s 683 934 m 8 X s 683 953 m 8 X s 683 973 m 8 X s 674 993 m 17 X s 683 1012 m 8 X s 683 1032 m 8 X s 683 1051 m 8 X s 674 1071 m 17 X s 674 1071 m 17 X s 683 1090 m
 8 X s 0.490196 0.545098 0.615686 c 0.364706 0.419608 0.490196 c 497 37 30 1122 bf 0.490196 0.545098 0.615686 c 30 1122 m 497 X s 527 1122 m 37 Y s 527 1159 m -497 X s 30 1159 m -37 Y s 1 1 1 c black 1 1 1 c
 gsave  710 563 23 599 C 45.5822 1133.86 t 0 r /Helvetica-Bold findfont 25.7389 sf 0 0 m (TMVA Input Variables: Lc_IP_OWNPV) show NC gr  1 0 0 c 6 lw black 3 lw 1 0 0 c 676 680 m s 661 680 m s 647 681 m -1 -1 d s 631 680 m s 617 681 m -1 -1 d s 601
 680 m s 587 681 m -1 -1 d s 572 682 m -1 -2 d s 557 682 m -2 -2 d s 541 681 m -1 -1 d s 527 682 m -2 -2 d s 511 681 m -1 -1 d s 497 682 m -2 -2 d s 482 682 m -2 -2 d s 467 682 m -2 -2 d s 454 683 m -4 -3 d s 439 684 m -4 -4 d s 427 687 m -7 -7 d s
 411 686 m -6 -6 d s 399 690 m -9 -10 d s 379 684 m -4 -4 d s 368 689 m -8 -9 d s 359 694 m -15 -14 d s 344 695 m -15 -15 d s 335 701 m -21 -21 d s 321 702 m -22 -22 d s 319 714 m -35 -34 d s 308 718 m -39 -38 d s 296 722 m -2 -2 d s 294 720 m -40
 -40 d s 280 721 m -41 -41 d s 280 736 m -56 -56 d s 268 739 m -59 -59 d s 256 743 m -62 -63 d s 253 754 m -74 -74 d s 246 762 m -82 -82 d s 233 765 m -84 -85 d s 226 772 m -83 -82 d s 226 788 m -83 -83 d s 212 789 m -69 -69 d s 212 804 m -69 -69 d s
 202 809 m -59 -59 d s 196 818 m -53 -52 d s 183 821 m -40 -40 d s 171 824 m -28 -28 d s 6 lw 143 810 m 14 X 14 Y 14 X -3 Y 14 X -3 Y 13 X -9 Y 14 X -21 Y 14 X -23 Y 13 X -3 Y 14 X -19 Y 14 X -4 Y 13 X -19 Y 14 X 2 Y 14 X -8 Y 13 X -13 Y 14 X -6 Y 14
 X -1 Y 13 X -5 Y 14 X -5 Y 14 X 6 Y 13 X -4 Y 14 X 1 Y 14 X -3 Y 13 X -1 Y 14 X -1 Y 41 X -1 Y 14 X 1 Y 27 X -1 Y 14 X 1 Y 27 X -1 Y 14 X -1 Y 14 X 1 Y 13 X -1 Y 14 X 1 Y 14 X -1 Y 41 X s black 3 lw 143 680 m 548 X s 235 693 m -13 Y s 258 686 m -6 Y
 s 281 686 m -6 Y s 304 686 m -6 Y s 327 693 m -13 Y s 350 686 m -6 Y s 373 686 m -6 Y s 396 686 m -6 Y s 419 693 m -13 Y s 442 686 m -6 Y s 465 686 m -6 Y s 488 686 m -6 Y s 511 693 m -13 Y s 534 686 m -6 Y s 556 686 m -6 Y s 579 686 m -6 Y s 602
 693 m -13 Y s 235 693 m -13 Y s 212 686 m -6 Y s 189 686 m -6 Y s 166 686 m -6 Y s 602 693 m -13 Y s 625 686 m -6 Y s 648 686 m -6 Y s 671 686 m -6 Y s 143 1106 m 548 X s 235 1093 m 13 Y s 258 1099 m 7 Y s 281 1099 m 7 Y s 304 1099 m 7 Y s 327 1093
 m 13 Y s 350 1099 m 7 Y s 373 1099 m 7 Y s 396 1099 m 7 Y s 419 1093 m 13 Y s 442 1099 m 7 Y s 465 1099 m 7 Y s 488 1099 m 7 Y s 511 1093 m 13 Y s 534 1099 m 7 Y s 556 1099 m 7 Y s 579 1099 m 7 Y s 602 1093 m 13 Y s 235 1093 m 13 Y s 212 1099 m 7 Y
 s 189 1099 m 7 Y s 166 1099 m 7 Y s 602 1093 m 13 Y s 625 1099 m 7 Y s 648 1099 m 7 Y s 671 1099 m 7 Y s 143 680 m 426 Y s 160 680 m -17 X s 152 699 m -9 X s 152 719 m -9 X s 152 738 m -9 X s 160 758 m -17 X s 152 777 m -9 X s 152 797 m -9 X s 152
 817 m -9 X s 160 836 m -17 X s 152 856 m -9 X s 152 875 m -9 X s 152 895 m -9 X s 160 914 m -17 X s 152 934 m -9 X s 152 953 m -9 X s 152 973 m -9 X s 160 993 m -17 X s 152 1012 m -9 X s 152 1032 m -9 X s 152 1051 m -9 X s 160 1071 m -17 X s 160
 1071 m -17 X s 152 1090 m -9 X s 691 680 m 426 Y s 674 680 m 17 X s 683 699 m 8 X s 683 719 m 8 X s 683 738 m 8 X s 674 758 m 17 X s 683 777 m 8 X s 683 797 m 8 X s 683 817 m 8 X s 674 836 m 17 X s 683 856 m 8 X s 683 875 m 8 X s 683 895 m 8 X s 674
 914 m 17 X s 683 934 m 8 X s 683 953 m 8 X s 683 973 m 8 X s 674 993 m 17 X s 683 1012 m 8 X s 683 1032 m 8 X s 683 1051 m 8 X s 674 1071 m 17 X s 674 1071 m 17 X s 683 1090 m 8 X s
 gsave  710 563 23 599 C 719.017 677.484 t 90 r /Helvetica-Bold findfont 20.0192 sf 0 0 m (U/O\255flow \(S,B\): \(0.0, 0.0\)% / \(0.0, 0.1\)%) show NC gr  0.490196 0.545098 0.615686 c 0.364706 0.419608 0.490196 c 497 37 30 1122 bf 0.490196 0.545098
 0.615686 c 30 1122 m 497 X s 527 1122 m 37 Y s 527 1159 m -497 X s 30 1159 m -37 Y s 1 1 1 c black 1 1 1 c
 gsave  710 563 23 599 C 45.5822 1133.86 t 0 r /Helvetica-Bold findfont 25.7389 sf 0 0 m (TMVA Input Variables: Lc_IP_OWNPV) show NC gr  0.490196 0.545098 0.615686 c 0.941176 0.941176 0.941176 c 710 563 779 599 bf black 1 1 0.992157 c 548 426 899 680
 bf black 548 426 899 680 bl 0 0 0.933333 c 6 lw 0.49 0.6 0.82 c black 3 lw 0.49 0.6 0.82 c 899 680 m 387 Y 14 X -327 Y 14 X -34 Y 13 X -13 Y 14 X -6 Y 27 X -2 Y 14 X -3 Y 41 X -1 Y 28 X -1 Y 41 X 1 Y 13 X -1 Y 329 X f 6 lw 0 0 0.933333 c 0.49 0.6
 0.82 c 0 0 0.933333 c 899 1067 m 14 X -327 Y 14 X -34 Y 13 X -13 Y 14 X -6 Y 27 X -2 Y 14 X -3 Y 41 X -1 Y 28 X -1 Y 41 X 1 Y 13 X -1 Y 329 X s black 3 lw 899 680 m 548 X s
 gsave  710 563 779 599 C 324.773 612.511 t 0 r /Helvetica-Bold findfont 28.5988 sf 0 0 m (TMath::Min\(TMath::Min\(p_IPCHI2_OWNPV,p_IPCHI2_OWNPV\),L2_IPCHI2_OWNPV\)) show NC gr  953 693 m -13 Y s 967 686 m -6 Y s 981 686 m -6 Y s 996 686 m -6 Y s
 1010 693 m -13 Y s 1024 686 m -6 Y s 1038 686 m -6 Y s 1052 686 m -6 Y s 1066 693 m -13 Y s 1080 686 m -6 Y s 1094 686 m -6 Y s 1108 686 m -6 Y s 1122 693 m -13 Y s 1137 686 m -6 Y s 1151 686 m -6 Y s 1165 686 m -6 Y s 1179 693 m -13 Y s 1193 686 m
 -6 Y s 1207 686 m -6 Y s 1221 686 m -6 Y s 1235 693 m -13 Y s 1249 686 m -6 Y s 1263 686 m -6 Y s 1278 686 m -6 Y s 1292 693 m -13 Y s 1306 686 m -6 Y s 1320 686 m -6 Y s 1334 686 m -6 Y s 1348 693 m -13 Y s 1362 686 m -6 Y s 1376 686 m -6 Y s 1390
 686 m -6 Y s 1405 693 m -13 Y s 953 693 m -13 Y s 939 686 m -6 Y s 925 686 m -6 Y s 911 686 m -6 Y s 1405 693 m -13 Y s 1419 686 m -6 Y s 1433 686 m -6 Y s
 gsave  710 563 779 599 C 928.738 652.396 t 0 r /Helvetica-Bold findfont 25.7389 sf 0 0 m (200) show NC gr 
 gsave  710 563 779 599 C 985.716 652.396 t 0 r /Helvetica-Bold findfont 25.7389 sf 0 0 m (400) show NC gr 
 gsave  710 563 779 599 C 1042.69 652.396 t 0 r /Helvetica-Bold findfont 25.7389 sf 0 0 m (600) show NC gr 
 gsave  710 563 779 599 C 1099.67 652.396 t 0 r /Helvetica-Bold findfont 25.7389 sf 0 0 m (800) show NC gr 
 gsave  710 563 779 599 C 1148.1 652.396 t 0 r /Helvetica-Bold findfont 25.7389 sf 0 0 m (1000) show NC gr 
 gsave  710 563 779 599 C 1205.08 652.396 t 0 r /Helvetica-Bold findfont 25.7389 sf 0 0 m (1200) show NC gr 
 gsave  710 563 779 599 C 1262.06 652.396 t 0 r /Helvetica-Bold findfont 25.7389 sf 0 0 m (1400) show NC gr 
 gsave  710 563 779 599 C 1319.04 652.396 t 0 r /Helvetica-Bold findfont 25.7389 sf 0 0 m (1600) show NC gr 
 gsave  710 563 779 599 C 1376.01 652.396 t 0 r /Helvetica-Bold findfont 25.7389 sf 0 0 m (1800) show NC gr  899 1106 m 548 X s 953 1093 m 13 Y s 967 1099 m 7 Y s 981 1099 m 7 Y s 996 1099 m 7 Y s 1010 1093 m 13 Y s 1024 1099 m 7 Y s 1038 1099 m 7 Y
 s 1052 1099 m 7 Y s 1066 1093 m 13 Y s 1080 1099 m 7 Y s 1094 1099 m 7 Y s 1108 1099 m 7 Y s 1122 1093 m 13 Y s 1137 1099 m 7 Y s 1151 1099 m 7 Y s 1165 1099 m 7 Y s 1179 1093 m 13 Y s 1193 1099 m 7 Y s 1207 1099 m 7 Y s 1221 1099 m 7 Y s 1235 1093
 m 13 Y s 1249 1099 m 7 Y s 1263 1099 m 7 Y s 1278 1099 m 7 Y s 1292 1093 m 13 Y s 1306 1099 m 7 Y s 1320 1099 m 7 Y s 1334 1099 m 7 Y s 1348 1093 m 13 Y s 1362 1099 m 7 Y s 1376 1099 m 7 Y s 1390 1099 m 7 Y s 1405 1093 m 13 Y s 953 1093 m 13 Y s 939
 1099 m 7 Y s 925 1099 m 7 Y s 911 1099 m 7 Y s 1405 1093 m 13 Y s 1419 1099 m 7 Y s 1433 1099 m 7 Y s 899 680 m 426 Y s
 gsave  710 563 779 599 C 806.236 1039.84 t 90 r /Helvetica-Bold findfont 28.5988 sf 0 0 m (48.5 ) show NC gr 
 gsave  710 563 779 599 C 791.991 1031.3 t 90 r /Helvetica-Bold findfont 20.0192 sf 0 0 m ( ) show NC gr 
 gsave  710 563 779 599 C 806.236 1022.75 t 90 r /Helvetica-Bold findfont 28.5988 sf 0 0 m (/) show NC gr 
 gsave  710 563 779 599 C 811.934 1014.2 t 90 r /Helvetica-Bold findfont 20.0192 sf 0 0 m ( ) show NC gr 
 gsave  710 563 779 599 C 806.236 905.947 t 90 r /Helvetica-Bold findfont 28.5988 sf 0 0 m (\(1/N\) dN) show NC gr  915 680 m -16 X s 907 692 m -8 X s 907 705 m -8 X s 907 718 m -8 X s 915 730 m -16 X s 907 743 m -8 X s 907 756 m -8 X s 907 768 m -8
 X s 915 781 m -16 X s 907 794 m -8 X s 907 806 m -8 X s 907 819 m -8 X s 915 831 m -16 X s 907 844 m -8 X s 907 857 m -8 X s 907 869 m -8 X s 915 882 m -16 X s 907 895 m -8 X s 907 907 m -8 X s 907 920 m -8 X s 915 933 m -16 X s 907 945 m -8 X s 907
 958 m -8 X s 907 971 m -8 X s 915 983 m -16 X s 907 996 m -8 X s 907 1008 m -8 X s 907 1021 m -8 X s 915 1034 m -16 X s 907 1046 m -8 X s 907 1059 m -8 X s 907 1072 m -8 X s 915 1084 m -16 X s 915 1084 m -16 X s 907 1097 m -8 X s
 gsave  710 563 779 599 C 874.609 669.489 t 0 r /Helvetica-Bold findfont 25.7389 sf 0 0 m (0) show NC gr 
 gsave  710 563 779 599 C 823.329 720.769 t 0 r /Helvetica-Bold findfont 25.7389 sf 0 0 m (0.002) show NC gr 
 gsave  710 563 779 599 C 823.329 772.049 t 0 r /Helvetica-Bold findfont 25.7389 sf 0 0 m (0.004) show NC gr 
 gsave  710 563 779 599 C 823.329 820.48 t 0 r /Helvetica-Bold findfont 25.7389 sf 0 0 m (0.006) show NC gr 
 gsave  710 563 779 599 C 823.329 871.76 t 0 r /Helvetica-Bold findfont 25.7389 sf 0 0 m (0.008) show NC gr 
 gsave  710 563 779 599 C 843.271 923.04 t 0 r /Helvetica-Bold findfont 25.7389 sf 0 0 m (0.01) show NC gr 
 gsave  710 563 779 599 C 823.329 974.32 t 0 r /Helvetica-Bold findfont 25.7389 sf 0 0 m (0.012) show NC gr 
 gsave  710 563 779 599 C 823.329 1022.75 t 0 r /Helvetica-Bold findfont 25.7389 sf 0 0 m (0.014) show NC gr 
 gsave  710 563 779 599 C 823.329 1074.03 t 0 r /Helvetica-Bold findfont 25.7389 sf 0 0 m (0.016) show NC gr  1447 680 m 426 Y s 1430 680 m 17 X s 1438 692 m 9 X s 1438 705 m 9 X s 1438 718 m 9 X s 1430 730 m 17 X s 1438 743 m 9 X s 1438 756 m 9 X s
 1438 768 m 9 X s 1430 781 m 17 X s 1438 794 m 9 X s 1438 806 m 9 X s 1438 819 m 9 X s 1430 831 m 17 X s 1438 844 m 9 X s 1438 857 m 9 X s 1438 869 m 9 X s 1430 882 m 17 X s 1438 895 m 9 X s 1438 907 m 9 X s 1438 920 m 9 X s 1430 933 m 17 X s 1438
 945 m 9 X s 1438 958 m 9 X s 1438 971 m 9 X s 1430 983 m 17 X s 1438 996 m 9 X s 1438 1008 m 9 X s 1438 1021 m 9 X s 1430 1034 m 17 X s 1438 1046 m 9 X s 1438 1059 m 9 X s 1438 1072 m 9 X s 1430 1084 m 17 X s 1430 1084 m 17 X s 1438 1097 m 9 X s
 0.490196 0.545098 0.615686 c 0.364706 0.419608 0.490196 c 497 37 786 1122 bf 0.490196 0.545098 0.615686 c 786 1122 m 497 X s 1283 1122 m 37 Y s 1283 1159 m -497 X s 786 1159 m -37 Y s 1 1 1 c black 1 1 1 c
 gsave  710 563 779 599 C 817.631 1136.71 t 0 r /Helvetica-Bold findfont 8.57964 sf 0 0 m (TMVA Input Variables: TMath::Min\(TMath::Min\(p_IPCHI2_OWNPV,p_IPCHI2_OWNPV\),L2_IPCHI2_OWNPV\)) show NC gr  1 0 0 c 6 lw black 3 lw 1 0 0 c 1432 680 m s 1417
 680 m s 1402 680 m s 1388 680 m -1 X s 1372 680 m s 1357 680 m s 1342 680 m s 1327 680 m cl s 1312 680 m s 1297 680 m s 1282 680 m s 1267 680 m s 1251 680 m s 1236 680 m s 1222 680 m -1 X s 1207 680 m -1 X s 1191 680 m s 1176 680 m s 1161 680 m s
 1147 681 m -1 -1 d s 1132 681 m s 1132 680 m -1 X s 1117 681 m -1 -1 d s 1101 680 m s 1087 682 m -1 -2 d s 1072 681 m -1 -1 d s 1058 682 m -3 -2 d s 1043 682 m -3 -2 d s 1029 683 m -4 -3 d s 1015 684 m -5 -4 d s 1000 685 m -5 -5 d s 988 688 m -8 -8
 d s 972 687 m -7 -7 d s 966 696 m -16 -16 d s 954 699 m -19 -19 d s 945 705 m -25 -25 d s 939 715 m -34 -35 d s 927 717 m -28 -28 d s 927 732 m -28 -27 d s 927 747 m -28 -27 d s 919 754 m -20 -19 d s 913 764 m -14 -14 d s 913 779 m -14 -14 d s 913
 794 m -14 -14 d s 913 809 m -14 -14 d s 913 824 m -14 -14 d s 913 839 m -14 -14 d s 913 854 m -14 -13 d s 913 869 m -14 -13 d s 913 884 m -14 -13 d s 913 900 m -14 -14 d s 913 915 m -14 -14 d s 913 930 m -14 -14 d s 913 945 m -14 -14 d s 913 960 m
 -14 -14 d s 913 975 m -14 -14 d s 913 990 m -14 -14 d s 913 1005 m -14 -13 d s 6 lw 899 1006 m 14 X -252 Y 14 X -39 Y 13 X -10 Y 14 X -9 Y 14 X -9 Y 13 X 1 Y 14 X -3 Y 14 X -1 Y 13 X -1 Y 14 X -1 Y 28 X -1 Y 13 X 1 Y 14 X -2 Y 14 X 1 Y 13 X -1 Y 14
 X 1 Y 27 X -1 Y 288 X s black 3 lw 899 680 m 548 X s 953 693 m -13 Y s 967 686 m -6 Y s 981 686 m -6 Y s 996 686 m -6 Y s 1010 693 m -13 Y s 1024 686 m -6 Y s 1038 686 m -6 Y s 1052 686 m -6 Y s 1066 693 m -13 Y s 1080 686 m -6 Y s 1094 686 m -6 Y s
 1108 686 m -6 Y s 1122 693 m -13 Y s 1137 686 m -6 Y s 1151 686 m -6 Y s 1165 686 m -6 Y s 1179 693 m -13 Y s 1193 686 m -6 Y s 1207 686 m -6 Y s 1221 686 m -6 Y s 1235 693 m -13 Y s 1249 686 m -6 Y s 1263 686 m -6 Y s 1278 686 m -6 Y s 1292 693 m
 -13 Y s 1306 686 m -6 Y s 1320 686 m -6 Y s 1334 686 m -6 Y s 1348 693 m -13 Y s 1362 686 m -6 Y s 1376 686 m -6 Y s 1390 686 m -6 Y s 1405 693 m -13 Y s 953 693 m -13 Y s 939 686 m -6 Y s 925 686 m -6 Y s 911 686 m -6 Y s 1405 693 m -13 Y s 1419
 686 m -6 Y s 1433 686 m -6 Y s 899 1106 m 548 X s 953 1093 m 13 Y s 967 1099 m 7 Y s 981 1099 m 7 Y s 996 1099 m 7 Y s 1010 1093 m 13 Y s 1024 1099 m 7 Y s 1038 1099 m 7 Y s 1052 1099 m 7 Y s 1066 1093 m 13 Y s 1080 1099 m 7 Y s 1094 1099 m 7 Y s
 1108 1099 m 7 Y s 1122 1093 m 13 Y s 1137 1099 m 7 Y s 1151 1099 m 7 Y s 1165 1099 m 7 Y s 1179 1093 m 13 Y s 1193 1099 m 7 Y s 1207 1099 m 7 Y s 1221 1099 m 7 Y s 1235 1093 m 13 Y s 1249 1099 m 7 Y s 1263 1099 m 7 Y s 1278 1099 m 7 Y s 1292 1093 m
 13 Y s 1306 1099 m 7 Y s 1320 1099 m 7 Y s 1334 1099 m 7 Y s 1348 1093 m 13 Y s 1362 1099 m 7 Y s 1376 1099 m 7 Y s 1390 1099 m 7 Y s 1405 1093 m 13 Y s 953 1093 m 13 Y s 939 1099 m 7 Y s 925 1099 m 7 Y s 911 1099 m 7 Y s 1405 1093 m 13 Y s 1419
 1099 m 7 Y s 1433 1099 m 7 Y s 899 680 m 426 Y s 915 680 m -16 X s 907 692 m -8 X s 907 705 m -8 X s 907 718 m -8 X s 915 730 m -16 X s 907 743 m -8 X s 907 756 m -8 X s 907 768 m -8 X s 915 781 m -16 X s 907 794 m -8 X s 907 806 m -8 X s 907 819 m
 -8 X s 915 831 m -16 X s 907 844 m -8 X s 907 857 m -8 X s 907 869 m -8 X s 915 882 m -16 X s 907 895 m -8 X s 907 907 m -8 X s 907 920 m -8 X s 915 933 m -16 X s 907 945 m -8 X s 907 958 m -8 X s 907 971 m -8 X s 915 983 m -16 X s 907 996 m -8 X s
 907 1008 m -8 X s 907 1021 m -8 X s 915 1034 m -16 X s 907 1046 m -8 X s 907 1059 m -8 X s 907 1072 m -8 X s 915 1084 m -16 X s 915 1084 m -16 X s 907 1097 m -8 X s 1447 680 m 426 Y s 1430 680 m 17 X s 1438 692 m 9 X s 1438 705 m 9 X s 1438 718 m 9
 X s 1430 730 m 17 X s 1438 743 m 9 X s 1438 756 m 9 X s 1438 768 m 9 X s 1430 781 m 17 X s 1438 794 m 9 X s 1438 806 m 9 X s 1438 819 m 9 X s 1430 831 m 17 X s 1438 844 m 9 X s 1438 857 m 9 X s 1438 869 m 9 X s 1430 882 m 17 X s 1438 895 m 9 X s
 1438 907 m 9 X s 1438 920 m 9 X s 1430 933 m 17 X s 1438 945 m 9 X s 1438 958 m 9 X s 1438 971 m 9 X s 1430 983 m 17 X s 1438 996 m 9 X s 1438 1008 m 9 X s 1438 1021 m 9 X s 1430 1034 m 17 X s 1438 1046 m 9 X s 1438 1059 m 9 X s 1438 1072 m 9 X s
 1430 1084 m 17 X s 1430 1084 m 17 X s 1438 1097 m 9 X s
 gsave  710 563 779 599 C 1474.92 677.484 t 90 r /Helvetica-Bold findfont 20.0192 sf 0 0 m (U/O\255flow \(S,B\): \(0.0, 0.0\)% / \(0.1, 0.6\)%) show NC gr  0.490196 0.545098 0.615686 c 0.364706 0.419608 0.490196 c 497 37 786 1122 bf 0.490196 0.545098
 0.615686 c 786 1122 m 497 X s 1283 1122 m 37 Y s 1283 1159 m -497 X s 786 1159 m -37 Y s 1 1 1 c black 1 1 1 c
 gsave  710 563 779 599 C 817.631 1136.71 t 0 r /Helvetica-Bold findfont 8.57964 sf 0 0 m (TMVA Input Variables: TMath::Min\(TMath::Min\(p_IPCHI2_OWNPV,p_IPCHI2_OWNPV\),L2_IPCHI2_OWNPV\)) show NC gr  0.490196 0.545098 0.615686 c 0.941176 0.941176
 0.941176 c 711 563 1534 599 bf black 1 1 0.992157 c 547 426 1655 680 bf black 547 426 1655 680 bl 0 0 0.933333 c 6 lw 0.49 0.6 0.82 c black 3 lw 0.49 0.6 0.82 c 1655 680 m 341 Y 14 X -57 Y 14 X -181 Y 13 X -50 Y 14 X -21 Y 14 X -10 Y 13 X -5 Y 14 X
 -5 Y 14 X 2 Y 13 X -4 Y 14 X -3 Y 14 X 3 Y 13 X -2 Y 14 X -4 Y 14 X 2 Y 27 X -2 Y 14 X 1 Y 13 X -2 Y 28 X -1 Y 14 X -1 Y 13 X 2 Y 14 X -1 Y 14 X -2 Y 13 X 2 Y 14 X -1 Y 14 X 1 Y 13 X -2 Y 164 X f 6 lw 0 0 0.933333 c 0.49 0.6 0.82 c 0 0 0.933333 c
 1655 1021 m 14 X -57 Y 14 X -181 Y 13 X -50 Y 14 X -21 Y 14 X -10 Y 13 X -5 Y 14 X -5 Y 14 X 2 Y 13 X -4 Y 14 X -3 Y 14 X 3 Y 13 X -2 Y 14 X -4 Y 14 X 2 Y 27 X -2 Y 14 X 1 Y 13 X -2 Y 28 X -1 Y 14 X -1 Y 13 X 2 Y 14 X -1 Y 14 X -2 Y 13 X 2 Y 14 X -1
 Y 14 X 1 Y 13 X -2 Y 164 X s black 3 lw 1655 680 m 547 X s
 gsave  711 563 1534 599 C 928.738 612.511 t 0 r /Helvetica-Bold findfont 28.5988 sf 0 0 m (TMath::Max\(TMath::Max\(p_TRACK_GhostProb,p_TRACK_GhostProb\),L2_TRACK_GhostProb\)) show NC gr  1720 693 m -13 Y s 1733 686 m -6 Y s 1746 686 m -6 Y s 1759
 686 m -6 Y s 1772 686 m -6 Y s 1785 693 m -13 Y s 1798 686 m -6 Y s 1811 686 m -6 Y s 1824 686 m -6 Y s 1837 686 m -6 Y s 1851 693 m -13 Y s 1864 686 m -6 Y s 1877 686 m -6 Y s 1890 686 m -6 Y s 1903 686 m -6 Y s 1916 693 m -13 Y s 1929 686 m -6 Y s
 1942 686 m -6 Y s 1955 686 m -6 Y s 1968 686 m -6 Y s 1981 693 m -13 Y s 1994 686 m -6 Y s 2007 686 m -6 Y s 2020 686 m -6 Y s 2033 686 m -6 Y s 2046 693 m -13 Y s 2059 686 m -6 Y s 2072 686 m -6 Y s 2086 686 m -6 Y s 2099 686 m -6 Y s 2112 693 m
 -13 Y s 2125 686 m -6 Y s 2138 686 m -6 Y s 2151 686 m -6 Y s 2164 686 m -6 Y s 2177 693 m -13 Y s 1720 693 m -13 Y s 1707 686 m -6 Y s 1694 686 m -6 Y s 1681 686 m -6 Y s 1668 686 m -6 Y s 2177 693 m -13 Y s 2190 686 m -6 Y s
 gsave  711 563 1534 599 C 1692.24 652.396 t 0 r /Helvetica-Bold findfont 25.7389 sf 0 0 m (0.05) show NC gr 
 gsave  711 563 1534 599 C 1766.31 652.396 t 0 r /Helvetica-Bold findfont 25.7389 sf 0 0 m (0.1) show NC gr 
 gsave  711 563 1534 599 C 1823.29 652.396 t 0 r /Helvetica-Bold findfont 25.7389 sf 0 0 m (0.15) show NC gr 
 gsave  711 563 1534 599 C 1894.51 652.396 t 0 r /Helvetica-Bold findfont 25.7389 sf 0 0 m (0.2) show NC gr 
 gsave  711 563 1534 599 C 1954.34 652.396 t 0 r /Helvetica-Bold findfont 25.7389 sf 0 0 m (0.25) show NC gr 
 gsave  711 563 1534 599 C 2025.56 652.396 t 0 r /Helvetica-Bold findfont 25.7389 sf 0 0 m (0.3) show NC gr 
 gsave  711 563 1534 599 C 2085.39 652.396 t 0 r /Helvetica-Bold findfont 25.7389 sf 0 0 m (0.35) show NC gr 
 gsave  711 563 1534 599 C 2156.61 652.396 t 0 r /Helvetica-Bold findfont 25.7389 sf 0 0 m (0.4) show NC gr  1655 1106 m 547 X s 1720 1093 m 13 Y s 1733 1099 m 7 Y s 1746 1099 m 7 Y s 1759 1099 m 7 Y s 1772 1099 m 7 Y s 1785 1093 m 13 Y s 1798 1099 m
 7 Y s 1811 1099 m 7 Y s 1824 1099 m 7 Y s 1837 1099 m 7 Y s 1851 1093 m 13 Y s 1864 1099 m 7 Y s 1877 1099 m 7 Y s 1890 1099 m 7 Y s 1903 1099 m 7 Y s 1916 1093 m 13 Y s 1929 1099 m 7 Y s 1942 1099 m 7 Y s 1955 1099 m 7 Y s 1968 1099 m 7 Y s 1981
 1093 m 13 Y s 1994 1099 m 7 Y s 2007 1099 m 7 Y s 2020 1099 m 7 Y s 2033 1099 m 7 Y s 2046 1093 m 13 Y s 2059 1099 m 7 Y s 2072 1099 m 7 Y s 2086 1099 m 7 Y s 2099 1099 m 7 Y s 2112 1093 m 13 Y s 2125 1099 m 7 Y s 2138 1099 m 7 Y s 2151 1099 m 7 Y s
 2164 1099 m 7 Y s 2177 1093 m 13 Y s 1720 1093 m 13 Y s 1707 1099 m 7 Y s 1694 1099 m 7 Y s 1681 1099 m 7 Y s 1668 1099 m 7 Y s 2177 1093 m 13 Y s 2190 1099 m 7 Y s 1655 680 m 426 Y s
 gsave  711 563 1534 599 C 1561.19 1008.51 t 90 r /Helvetica-Bold findfont 28.5988 sf 0 0 m (0.0105 ) show NC gr 
 gsave  711 563 1534 599 C 1546.95 999.96 t 90 r /Helvetica-Bold findfont 20.0192 sf 0 0 m ( ) show NC gr 
 gsave  711 563 1534 599 C 1561.19 991.414 t 90 r /Helvetica-Bold findfont 28.5988 sf 0 0 m (/) show NC gr 
 gsave  711 563 1534 599 C 1566.89 982.867 t 90 r /Helvetica-Bold findfont 20.0192 sf 0 0 m ( ) show NC gr 
 gsave  711 563 1534 599 C 1561.19 874.609 t 90 r /Helvetica-Bold findfont 28.5988 sf 0 0 m (\(1/N\) dN) show NC gr  1671 680 m -16 X s 1663 690 m -8 X s 1663 700 m -8 X s 1663 710 m -8 X s 1663 720 m -8 X s 1671 731 m -16 X s 1663 741 m -8 X s 1663
 751 m -8 X s 1663 761 m -8 X s 1663 771 m -8 X s 1671 781 m -16 X s 1663 792 m -8 X s 1663 802 m -8 X s 1663 812 m -8 X s 1663 822 m -8 X s 1671 832 m -16 X s 1663 842 m -8 X s 1663 853 m -8 X s 1663 863 m -8 X s 1663 873 m -8 X s 1671 883 m -16 X s
 1663 893 m -8 X s 1663 903 m -8 X s 1663 914 m -8 X s 1663 924 m -8 X s 1671 934 m -16 X s 1663 944 m -8 X s 1663 954 m -8 X s 1663 964 m -8 X s 1663 975 m -8 X s 1671 985 m -16 X s 1663 995 m -8 X s 1663 1005 m -8 X s 1663 1015 m -8 X s 1663 1025 m
 -8 X s 1671 1036 m -16 X s 1663 1046 m -8 X s 1663 1056 m -8 X s 1663 1066 m -8 X s 1663 1076 m -8 X s 1671 1086 m -16 X s 1671 1086 m -16 X s 1663 1097 m -8 X s
 gsave  711 563 1534 599 C 1632.41 669.489 t 0 r /Helvetica-Bold findfont 25.7389 sf 0 0 m (0) show NC gr 
 gsave  711 563 1534 599 C 1632.41 720.769 t 0 r /Helvetica-Bold findfont 25.7389 sf 0 0 m (5) show NC gr 
 gsave  711 563 1534 599 C 1618.17 772.049 t 0 r /Helvetica-Bold findfont 25.7389 sf 0 0 m (10) show NC gr 
 gsave  711 563 1534 599 C 1618.17 823.329 t 0 r /Helvetica-Bold findfont 25.7389 sf 0 0 m (15) show NC gr 
 gsave  711 563 1534 599 C 1618.17 871.76 t 0 r /Helvetica-Bold findfont 25.7389 sf 0 0 m (20) show NC gr 
 gsave  711 563 1534 599 C 1618.17 923.04 t 0 r /Helvetica-Bold findfont 25.7389 sf 0 0 m (25) show NC gr 
 gsave  711 563 1534 599 C 1618.17 974.32 t 0 r /Helvetica-Bold findfont 25.7389 sf 0 0 m (30) show NC gr 
 gsave  711 563 1534 599 C 1618.17 1025.6 t 0 r /Helvetica-Bold findfont 25.7389 sf 0 0 m (35) show NC gr 
 gsave  711 563 1534 599 C 1618.17 1076.88 t 0 r /Helvetica-Bold findfont 25.7389 sf 0 0 m (40) show NC gr  2202 680 m 426 Y s 2186 680 m 16 X s 2194 690 m 8 X s 2194 700 m 8 X s 2194 710 m 8 X s 2194 720 m 8 X s 2186 731 m 16 X s 2194 741 m 8 X s
 2194 751 m 8 X s 2194 761 m 8 X s 2194 771 m 8 X s 2186 781 m 16 X s 2194 792 m 8 X s 2194 802 m 8 X s 2194 812 m 8 X s 2194 822 m 8 X s 2186 832 m 16 X s 2194 842 m 8 X s 2194 853 m 8 X s 2194 863 m 8 X s 2194 873 m 8 X s 2186 883 m 16 X s 2194 893
 m 8 X s 2194 903 m 8 X s 2194 914 m 8 X s 2194 924 m 8 X s 2186 934 m 16 X s 2194 944 m 8 X s 2194 954 m 8 X s 2194 964 m 8 X s 2194 975 m 8 X s 2186 985 m 16 X s 2194 995 m 8 X s 2194 1005 m 8 X s 2194 1015 m 8 X s 2194 1025 m 8 X s 2186 1036 m 16
 X s 2194 1046 m 8 X s 2194 1056 m 8 X s 2194 1066 m 8 X s 2194 1076 m 8 X s 2186 1086 m 16 X s 2186 1086 m 16 X s 2194 1097 m 8 X s 0.490196 0.545098 0.615686 c 0.364706 0.419608 0.490196 c 497 37 1542 1122 bf 0.490196 0.545098 0.615686 c 1542 1122
 m 497 X s 2039 1122 m 37 Y s 2039 1159 m -497 X s 1542 1159 m -37 Y s 1 1 1 c black 1 1 1 c
 gsave  711 563 1534 599 C 1549.8 1136.71 t 0 r /Helvetica-Bold findfont 8.57964 sf 0 0 m (TMVA Input Variables: TMath::Max\(TMath::Max\(p_TRACK_GhostProb,p_TRACK_GhostProb\),L2_TRACK_GhostProb\)) show NC gr  1 0 0 c 6 lw black 3 lw 1 0 0 c 2188 680
 m s 2173 680 m s 2158 680 m s 2143 680 m s 2128 680 m cl s 2113 680 m s 2097 680 m s 2082 680 m s 2067 680 m s 2052 680 m s 2037 680 m s 2022 680 m s 2007 680 m s 1992 680 m s 1977 680 m s 1962 680 m s 1947 680 m s 1932 680 m s 1917 680 m s 1902 680
 m s 1886 680 m s 1871 680 m s 1856 680 m s 1841 680 m s 1826 680 m s 1811 680 m s 1796 680 m s 1789 688 m -8 -8 d s 1778 692 m -12 -12 d s 1778 708 m -27 -28 d s 1765 709 m -29 -29 d s 1757 716 m -36 -36 d s 1744 718 m -38 -38 d s 1737 727 m -47 -47
 d s 1724 728 m -49 -48 d s 1715 735 m -55 -55 d s 1710 745 m -55 -55 d s 1699 749 m -44 -44 d s 1696 761 m -41 -41 d s 1696 777 m -41 -42 d s 1695 790 m -40 -40 d s 1683 793 m -28 -27 d s 1683 808 m -28 -27 d s 1683 824 m -28 -28 d s 1683 839 m -28
 -28 d s 1683 854 m -28 -28 d s 1681 867 m -26 -26 d s 1669 870 m -14 -13 d s 1669 886 m -14 -14 d s 1669 901 m -14 -14 d s 1669 916 m -14 -14 d s 1669 931 m -14 -14 d s 1669 946 m -14 -14 d s 1669 961 m -14 -13 d s 1669 977 m -14 -14 d s 1669 992 m
 -14 -14 d s 1669 1007 m -14 -14 d s 1669 1022 m -14 -14 d s 1669 1037 m -14 -14 d s 1669 1052 m -14 -13 d s 1668 1067 m -13 -13 d s 6 lw 1655 1067 m 14 X -200 Y 14 X -77 Y 13 X -41 Y 14 X -14 Y 14 X -7 Y 13 X -10 Y 14 X -2 Y 14 X -7 Y 13 X -21 Y 14
 X -8 Y 410 X s black 3 lw 1655 680 m 547 X s 1720 693 m -13 Y s 1733 686 m -6 Y s 1746 686 m -6 Y s 1759 686 m -6 Y s 1772 686 m -6 Y s 1785 693 m -13 Y s 1798 686 m -6 Y s 1811 686 m -6 Y s 1824 686 m -6 Y s 1837 686 m -6 Y s 1851 693 m -13 Y s
 1864 686 m -6 Y s 1877 686 m -6 Y s 1890 686 m -6 Y s 1903 686 m -6 Y s 1916 693 m -13 Y s 1929 686 m -6 Y s 1942 686 m -6 Y s 1955 686 m -6 Y s 1968 686 m -6 Y s 1981 693 m -13 Y s 1994 686 m -6 Y s 2007 686 m -6 Y s 2020 686 m -6 Y s 2033 686 m -6
 Y s 2046 693 m -13 Y s 2059 686 m -6 Y s 2072 686 m -6 Y s 2086 686 m -6 Y s 2099 686 m -6 Y s 2112 693 m -13 Y s 2125 686 m -6 Y s 2138 686 m -6 Y s 2151 686 m -6 Y s 2164 686 m -6 Y s 2177 693 m -13 Y s 1720 693 m -13 Y s 1707 686 m -6 Y s 1694
 686 m -6 Y s 1681 686 m -6 Y s 1668 686 m -6 Y s 2177 693 m -13 Y s 2190 686 m -6 Y s 1655 1106 m 547 X s 1720 1093 m 13 Y s 1733 1099 m 7 Y s 1746 1099 m 7 Y s 1759 1099 m 7 Y s 1772 1099 m 7 Y s 1785 1093 m 13 Y s 1798 1099 m 7 Y s 1811 1099 m 7 Y
 s 1824 1099 m 7 Y s 1837 1099 m 7 Y s 1851 1093 m 13 Y s 1864 1099 m 7 Y s 1877 1099 m 7 Y s 1890 1099 m 7 Y s 1903 1099 m 7 Y s 1916 1093 m 13 Y s 1929 1099 m 7 Y s 1942 1099 m 7 Y s 1955 1099 m 7 Y s 1968 1099 m 7 Y s 1981 1093 m 13 Y s 1994 1099
 m 7 Y s 2007 1099 m 7 Y s 2020 1099 m 7 Y s 2033 1099 m 7 Y s 2046 1093 m 13 Y s 2059 1099 m 7 Y s 2072 1099 m 7 Y s 2086 1099 m 7 Y s 2099 1099 m 7 Y s 2112 1093 m 13 Y s 2125 1099 m 7 Y s 2138 1099 m 7 Y s 2151 1099 m 7 Y s 2164 1099 m 7 Y s 2177
 1093 m 13 Y s 1720 1093 m 13 Y s 1707 1099 m 7 Y s 1694 1099 m 7 Y s 1681 1099 m 7 Y s 1668 1099 m 7 Y s 2177 1093 m 13 Y s 2190 1099 m 7 Y s 1655 680 m 426 Y s 1671 680 m -16 X s 1663 690 m -8 X s 1663 700 m -8 X s 1663 710 m -8 X s 1663 720 m -8 X
 s 1671 731 m -16 X s 1663 741 m -8 X s 1663 751 m -8 X s 1663 761 m -8 X s 1663 771 m -8 X s 1671 781 m -16 X s 1663 792 m -8 X s 1663 802 m -8 X s 1663 812 m -8 X s 1663 822 m -8 X s 1671 832 m -16 X s 1663 842 m -8 X s 1663 853 m -8 X s 1663 863 m
 -8 X s 1663 873 m -8 X s 1671 883 m -16 X s 1663 893 m -8 X s 1663 903 m -8 X s 1663 914 m -8 X s 1663 924 m -8 X s 1671 934 m -16 X s 1663 944 m -8 X s 1663 954 m -8 X s 1663 964 m -8 X s 1663 975 m -8 X s 1671 985 m -16 X s 1663 995 m -8 X s 1663
 1005 m -8 X s 1663 1015 m -8 X s 1663 1025 m -8 X s 1671 1036 m -16 X s 1663 1046 m -8 X s 1663 1056 m -8 X s 1663 1066 m -8 X s 1663 1076 m -8 X s 1671 1086 m -16 X s 1671 1086 m -16 X s 1663 1097 m -8 X s 2202 680 m 426 Y s 2186 680 m 16 X s 2194
 690 m 8 X s 2194 700 m 8 X s 2194 710 m 8 X s 2194 720 m 8 X s 2186 731 m 16 X s 2194 741 m 8 X s 2194 751 m 8 X s 2194 761 m 8 X s 2194 771 m 8 X s 2186 781 m 16 X s 2194 792 m 8 X s 2194 802 m 8 X s 2194 812 m 8 X s 2194 822 m 8 X s 2186 832 m 16
 X s 2194 842 m 8 X s 2194 853 m 8 X s 2194 863 m 8 X s 2194 873 m 8 X s 2186 883 m 16 X s 2194 893 m 8 X s 2194 903 m 8 X s 2194 914 m 8 X s 2194 924 m 8 X s 2186 934 m 16 X s 2194 944 m 8 X s 2194 954 m 8 X s 2194 964 m 8 X s 2194 975 m 8 X s 2186
 985 m 16 X s 2194 995 m 8 X s 2194 1005 m 8 X s 2194 1015 m 8 X s 2194 1025 m 8 X s 2186 1036 m 16 X s 2194 1046 m 8 X s 2194 1056 m 8 X s 2194 1066 m 8 X s 2194 1076 m 8 X s 2186 1086 m 16 X s 2186 1086 m 16 X s 2194 1097 m 8 X s
 gsave  711 563 1534 599 C 2230.83 677.484 t 90 r /Helvetica-Bold findfont 20.0192 sf 0 0 m (U/O\255flow \(S,B\): \(0.0, 0.0\)% / \(0.1, 0.0\)%) show NC gr  0.490196 0.545098 0.615686 c 0.364706 0.419608 0.490196 c 497 37 1542 1122 bf 0.490196
 0.545098 0.615686 c 1542 1122 m 497 X s 2039 1122 m 37 Y s 2039 1159 m -497 X s 1542 1159 m -37 Y s 1 1 1 c black 1 1 1 c
 gsave  711 563 1534 599 C 1549.8 1136.71 t 0 r /Helvetica-Bold findfont 8.57964 sf 0 0 m (TMVA Input Variables: TMath::Max\(TMath::Max\(p_TRACK_GhostProb,p_TRACK_GhostProb\),L2_TRACK_GhostProb\)) show NC gr  0.490196 0.545098 0.615686 c 0.941176
 0.941176 0.941176 c 710 563 23 12 bf black 1 1 0.992157 c 548 426 143 93 bf black 548 426 143 93 bl 0 0 0.933333 c 6 lw 0.49 0.6 0.82 c black 3 lw 0.49 0.6 0.82 c 143 93 m 1 Y 28 X -1 Y 41 X 1 Y 27 X -1 Y 14 X 4 Y 14 X -2 Y 13 X 5 Y 14 X 9 Y 14 X 1
 Y 13 X 17 Y 14 X 13 Y 14 X 28 Y 13 X 35 Y 14 X 43 Y 14 X 78 Y 13 X 41 Y 14 X 72 Y 14 X 43 Y 13 X -28 Y 14 X -5 Y 14 X -33 Y 13 X -67 Y 14 X -42 Y 14 X -29 Y 13 X -55 Y 14 X -28 Y 14 X -30 Y 13 X -27 Y 14 X -14 Y 14 X -12 Y 14 X -6 Y 13 X -2 Y 14 X
 -7 Y 14 X -1 Y 13 X -1 Y 14 X 1 Y 14 X -1 Y f 6 lw 0 0 0.933333 c 0.49 0.6 0.82 c 0 0 0.933333 c 143 94 m 28 X -1 Y 41 X 1 Y 27 X -1 Y 14 X 4 Y 14 X -2 Y 13 X 5 Y 14 X 9 Y 14 X 1 Y 13 X 17 Y 14 X 13 Y 14 X 28 Y 13 X 35 Y 14 X 43 Y 14 X 78 Y 13 X 41
 Y 14 X 72 Y 14 X 43 Y 13 X -28 Y 14 X -5 Y 14 X -33 Y 13 X -67 Y 14 X -42 Y 14 X -29 Y 13 X -55 Y 14 X -28 Y 14 X -30 Y 13 X -27 Y 14 X -14 Y 14 X -12 Y 14 X -6 Y 13 X -2 Y 14 X -7 Y 14 X -1 Y 13 X -1 Y 14 X 1 Y 14 X -1 Y s black 3 lw 143 93 m 548 X
 s
 gsave  710 563 23 12 C 319.076 25.64 t 0 r /Helvetica-Bold findfont 28.5988 sf 0 0 m (TMath::Log\(Lc_MAXDOCA\)) show NC gr  161 106 m -13 Y s 175 99 m -6 Y s 189 99 m -6 Y s 204 99 m -6 Y s 218 99 m -6 Y s 232 106 m -13 Y s 246 99 m -6 Y s 261 99 m
 -6 Y s 275 99 m -6 Y s 289 99 m -6 Y s 304 106 m -13 Y s 318 99 m -6 Y s 332 99 m -6 Y s 346 99 m -6 Y s 361 99 m -6 Y s 375 106 m -13 Y s 389 99 m -6 Y s 403 99 m -6 Y s 418 99 m -6 Y s 432 99 m -6 Y s 446 106 m -13 Y s 460 99 m -6 Y s 475 99 m -6
 Y s 489 99 m -6 Y s 503 99 m -6 Y s 517 106 m -13 Y s 532 99 m -6 Y s 546 99 m -6 Y s 560 99 m -6 Y s 575 99 m -6 Y s 589 106 m -13 Y s 603 99 m -6 Y s 617 99 m -6 Y s 632 99 m -6 Y s 646 99 m -6 Y s 660 106 m -13 Y s 161 106 m -13 Y s 147 99 m -6 Y
 s 660 106 m -13 Y s 674 99 m -6 Y s 689 99 m -6 Y s
 gsave  710 563 23 12 C 156.689 65.5245 t 0 r /Helvetica-Bold findfont 25.7389 sf 0 0 m (7) show NC gr 
 gsave  710 563 23 12 C 145.293 65.5245 t 0 r /Symbol findfont 25.7389 sf 0 0 m (-) show NC gr 
 gsave  710 563 23 12 C 227.911 65.5245 t 0 r /Helvetica-Bold findfont 25.7389 sf 0 0 m (6) show NC gr 
 gsave  710 563 23 12 C 216.516 65.5245 t 0 r /Symbol findfont 25.7389 sf 0 0 m (-) show NC gr 
 gsave  710 563 23 12 C 299.133 65.5245 t 0 r /Helvetica-Bold findfont 25.7389 sf 0 0 m (5) show NC gr 
 gsave  710 563 23 12 C 287.738 65.5245 t 0 r /Symbol findfont 25.7389 sf 0 0 m (-) show NC gr 
 gsave  710 563 23 12 C 370.356 65.5245 t 0 r /Helvetica-Bold findfont 25.7389 sf 0 0 m (4) show NC gr 
 gsave  710 563 23 12 C 358.96 65.5245 t 0 r /Symbol findfont 25.7389 sf 0 0 m (-) show NC gr 
 gsave  710 563 23 12 C 441.578 65.5245 t 0 r /Helvetica-Bold findfont 25.7389 sf 0 0 m (3) show NC gr 
 gsave  710 563 23 12 C 430.182 65.5245 t 0 r /Symbol findfont 25.7389 sf 0 0 m (-) show NC gr 
 gsave  710 563 23 12 C 512.8 65.5245 t 0 r /Helvetica-Bold findfont 25.7389 sf 0 0 m (2) show NC gr 
 gsave  710 563 23 12 C 501.405 65.5245 t 0 r /Symbol findfont 25.7389 sf 0 0 m (-) show NC gr 
 gsave  710 563 23 12 C 586.871 65.5245 t 0 r /Helvetica-Bold findfont 25.7389 sf 0 0 m (1) show NC gr 
 gsave  710 563 23 12 C 572.627 65.5245 t 0 r /Symbol findfont 25.7389 sf 0 0 m (-) show NC gr 
 gsave  710 563 23 12 C 649.547 65.5245 t 0 r /Helvetica-Bold findfont 25.7389 sf 0 0 m (0) show NC gr  143 519 m 548 X s 161 506 m 13 Y s 175 512 m 7 Y s 189 512 m 7 Y s 204 512 m 7 Y s 218 512 m 7 Y s 232 506 m 13 Y s 246 512 m 7 Y s 261 512 m 7 Y
 s 275 512 m 7 Y s 289 512 m 7 Y s 304 506 m 13 Y s 318 512 m 7 Y s 332 512 m 7 Y s 346 512 m 7 Y s 361 512 m 7 Y s 375 506 m 13 Y s 389 512 m 7 Y s 403 512 m 7 Y s 418 512 m 7 Y s 432 512 m 7 Y s 446 506 m 13 Y s 460 512 m 7 Y s 475 512 m 7 Y s 489
 512 m 7 Y s 503 512 m 7 Y s 517 506 m 13 Y s 532 512 m 7 Y s 546 512 m 7 Y s 560 512 m 7 Y s 575 512 m 7 Y s 589 506 m 13 Y s 603 512 m 7 Y s 617 512 m 7 Y s 632 512 m 7 Y s 646 512 m 7 Y s 660 506 m 13 Y s 161 506 m 13 Y s 147 512 m 7 Y s 660 506 m
 13 Y s 674 512 m 7 Y s 689 512 m 7 Y s 143 93 m 426 Y s
 gsave  710 563 23 12 C 48.4311 438.729 t 90 r /Helvetica-Bold findfont 28.5988 sf 0 0 m (0.192 ) show NC gr 
 gsave  710 563 23 12 C 34.1867 430.182 t 90 r /Helvetica-Bold findfont 20.0192 sf 0 0 m ( ) show NC gr 
 gsave  710 563 23 12 C 45.5822 421.636 t 90 r /Helvetica-Bold findfont 28.5988 sf 0 0 m (/) show NC gr 
 gsave  710 563 23 12 C 51.28 413.089 t 90 r /Helvetica-Bold findfont 20.0192 sf 0 0 m ( ) show NC gr 
 gsave  710 563 23 12 C 45.5822 304.831 t 90 r /Helvetica-Bold findfont 28.5988 sf 0 0 m (\(1/N\) dN) show NC gr  160 93 m -17 X s 152 107 m -9 X s 152 122 m -9 X s 152 137 m -9 X s 152 151 m -9 X s 160 166 m -17 X s 152 180 m -9 X s 152 195 m -9 X s
 152 209 m -9 X s 152 224 m -9 X s 160 239 m -17 X s 152 253 m -9 X s 152 268 m -9 X s 152 282 m -9 X s 152 297 m -9 X s 160 311 m -17 X s 152 326 m -9 X s 152 340 m -9 X s 152 355 m -9 X s 152 370 m -9 X s 160 384 m -17 X s 152 399 m -9 X s 152 413
 m -9 X s 152 428 m -9 X s 152 442 m -9 X s 160 457 m -17 X s 160 457 m -17 X s 152 472 m -9 X s 152 486 m -9 X s 152 501 m -9 X s 152 515 m -9 X s
 gsave  710 563 23 12 C 119.653 82.6178 t 0 r /Helvetica-Bold findfont 25.7389 sf 0 0 m (0) show NC gr 
 gsave  710 563 23 12 C 102.56 156.689 t 0 r /Helvetica-Bold findfont 25.7389 sf 0 0 m (0.1) show NC gr 
 gsave  710 563 23 12 C 96.8623 227.911 t 0 r /Helvetica-Bold findfont 25.7389 sf 0 0 m (0.2) show NC gr 
 gsave  710 563 23 12 C 96.8623 301.982 t 0 r /Helvetica-Bold findfont 25.7389 sf 0 0 m (0.3) show NC gr 
 gsave  710 563 23 12 C 96.8623 373.205 t 0 r /Helvetica-Bold findfont 25.7389 sf 0 0 m (0.4) show NC gr 
 gsave  710 563 23 12 C 96.8623 447.276 t 0 r /Helvetica-Bold findfont 25.7389 sf 0 0 m (0.5) show NC gr  691 93 m 426 Y s 674 93 m 17 X s 683 107 m 8 X s 683 122 m 8 X s 683 137 m 8 X s 683 151 m 8 X s 674 166 m 17 X s 683 180 m 8 X s 683 195 m 8 X
 s 683 209 m 8 X s 683 224 m 8 X s 674 239 m 17 X s 683 253 m 8 X s 683 268 m 8 X s 683 282 m 8 X s 683 297 m 8 X s 674 311 m 17 X s 683 326 m 8 X s 683 340 m 8 X s 683 355 m 8 X s 683 370 m 8 X s 674 384 m 17 X s 683 399 m 8 X s 683 413 m 8 X s 683
 428 m 8 X s 683 442 m 8 X s 674 457 m 17 X s 674 457 m 17 X s 683 472 m 8 X s 683 486 m 8 X s 683 501 m 8 X s 683 515 m 8 X s 0.490196 0.545098 0.615686 c 0.364706 0.419608 0.490196 c 497 37 30 535 bf 0.490196 0.545098 0.615686 c 30 535 m 497 X s
 527 535 m 37 Y s 527 572 m -497 X s 30 572 m -37 Y s 1 1 1 c black 1 1 1 c
 gsave  710 563 23 12 C 37.0356 546.987 t 0 r /Helvetica-Bold findfont 20.0192 sf 0 0 m (TMVA Input Variables: TMath::Log\(Lc_MAXDOCA\)) show NC gr  1 0 0 c 6 lw black 3 lw 1 0 0 c 677 94 m -1 -1 d s 664 95 m -3 -2 d s 650 97 m -4 -4 d s 639 101 m -8
 -8 d s 626 103 m -10 -10 d s 622 114 m -21 -21 d s 609 116 m -23 -23 d s 609 131 m -38 -38 d s 609 146 m -54 -53 d s 599 152 m -59 -59 d s 595 163 m -70 -70 d s 584 167 m -74 -74 d s 581 179 m -86 -86 d s 572 185 m -92 -92 d s 567 196 m -102 -103 d
 s 567 211 m -117 -118 d s 567 226 m -132 -133 d s 554 228 m -134 -135 d s 554 243 m -149 -150 d s 548 252 m -8 -8 d s 535 239 m -145 -146 d s 526 246 m -151 -153 d s 526 261 m -166 -168 d s 526 276 m -182 -183 d s 526 291 m -197 -198 d s 526 306 m
 -191 -192 d s 330 108 m -16 -15 d s 526 321 m -164 -165 d s 358 152 m -9 -9 d s 338 131 m -3 -2 d s 317 111 m -18 -18 d s 521 332 m -131 -133 d s 376 185 m -14 -14 d s 294 103 m -10 -10 d s 513 338 m -123 -124 d s 277 101 m -8 -8 d s 513 353 m -123
 -124 d s 257 95 m -3 -2 d s 504 360 m -73 -74 d s 428 283 m -38 -38 d s 242 95 m -3 -2 d s 499 370 m -68 -69 d s 417 287 m -14 -14 d s 390 260 m s 232 101 m -6 -6 d s 224 93 m cl s 499 385 m -68 -69 d s 417 302 m -14 -13 d s 209 93 m s 499 400 m -68
 -69 d s 411 311 m -8 -7 d s 194 93 m cl s 499 415 m -68 -69 d s 181 95 m -2 -2 d s 499 430 m -14 -13 d s 475 406 m -44 -44 d s 164 93 m s 472 418 m -41 -41 d s 149 93 m cl s 472 433 m -28 -27 d s 432 393 m -1 -1 d s 472 448 m -14 -13 d s 453 429 m
 -9 -8 d s 6 lw 143 93 m 28 X 2 Y 14 X -2 Y 41 X 8 Y 13 X -6 Y 28 X 6 Y 13 X 2 Y 28 X 8 Y 13 X -3 Y 14 X 23 Y 14 X 21 Y 13 X 33 Y 28 X 75 Y 13 X 51 Y 14 X -28 Y 14 X 110 Y 13 X 36 Y 14 X 21 Y 14 X -44 Y 13 X 26 Y 14 X -72 Y 14 X -28 Y 13 X -93 Y 14 X
 13 Y 14 X -26 Y 13 X -41 Y 14 X -18 Y 14 X -15 Y 14 X -36 Y 13 X -13 Y 14 X -2 Y 14 X -6 Y 27 X -2 Y 14 X s black 3 lw 143 93 m 548 X s 161 106 m -13 Y s 175 99 m -6 Y s 189 99 m -6 Y s 204 99 m -6 Y s 218 99 m -6 Y s 232 106 m -13 Y s 246 99 m -6 Y
 s 261 99 m -6 Y s 275 99 m -6 Y s 289 99 m -6 Y s 304 106 m -13 Y s 318 99 m -6 Y s 332 99 m -6 Y s 346 99 m -6 Y s 361 99 m -6 Y s 375 106 m -13 Y s 389 99 m -6 Y s 403 99 m -6 Y s 418 99 m -6 Y s 432 99 m -6 Y s 446 106 m -13 Y s 460 99 m -6 Y s
 475 99 m -6 Y s 489 99 m -6 Y s 503 99 m -6 Y s 517 106 m -13 Y s 532 99 m -6 Y s 546 99 m -6 Y s 560 99 m -6 Y s 575 99 m -6 Y s 589 106 m -13 Y s 603 99 m -6 Y s 617 99 m -6 Y s 632 99 m -6 Y s 646 99 m -6 Y s 660 106 m -13 Y s 161 106 m -13 Y s
 147 99 m -6 Y s 660 106 m -13 Y s 674 99 m -6 Y s 689 99 m -6 Y s 143 519 m 548 X s 161 506 m 13 Y s 175 512 m 7 Y s 189 512 m 7 Y s 204 512 m 7 Y s 218 512 m 7 Y s 232 506 m 13 Y s 246 512 m 7 Y s 261 512 m 7 Y s 275 512 m 7 Y s 289 512 m 7 Y s 304
 506 m 13 Y s 318 512 m 7 Y s 332 512 m 7 Y s 346 512 m 7 Y s 361 512 m 7 Y s 375 506 m 13 Y s 389 512 m 7 Y s 403 512 m 7 Y s 418 512 m 7 Y s 432 512 m 7 Y s 446 506 m 13 Y s 460 512 m 7 Y s 475 512 m 7 Y s 489 512 m 7 Y s 503 512 m 7 Y s 517 506 m
 13 Y s 532 512 m 7 Y s 546 512 m 7 Y s 560 512 m 7 Y s 575 512 m 7 Y s 589 506 m 13 Y s 603 512 m 7 Y s 617 512 m 7 Y s 632 512 m 7 Y s 646 512 m 7 Y s 660 506 m 13 Y s 161 506 m 13 Y s 147 512 m 7 Y s 660 506 m 13 Y s 674 512 m 7 Y s 689 512 m 7 Y
 s 143 93 m 426 Y s 160 93 m -17 X s 152 107 m -9 X s 152 122 m -9 X s 152 137 m -9 X s 152 151 m -9 X s 160 166 m -17 X s 152 180 m -9 X s 152 195 m -9 X s 152 209 m -9 X s 152 224 m -9 X s 160 239 m -17 X s 152 253 m -9 X s 152 268 m -9 X s 152 282
 m -9 X s 152 297 m -9 X s 160 311 m -17 X s 152 326 m -9 X s 152 340 m -9 X s 152 355 m -9 X s 152 370 m -9 X s 160 384 m -17 X s 152 399 m -9 X s 152 413 m -9 X s 152 428 m -9 X s 152 442 m -9 X s 160 457 m -17 X s 160 457 m -17 X s 152 472 m -9 X
 s 152 486 m -9 X s 152 501 m -9 X s 152 515 m -9 X s 691 93 m 426 Y s 674 93 m 17 X s 683 107 m 8 X s 683 122 m 8 X s 683 137 m 8 X s 683 151 m 8 X s 674 166 m 17 X s 683 180 m 8 X s 683 195 m 8 X s 683 209 m 8 X s 683 224 m 8 X s 674 239 m 17 X s
 683 253 m 8 X s 683 268 m 8 X s 683 282 m 8 X s 683 297 m 8 X s 674 311 m 17 X s 683 326 m 8 X s 683 340 m 8 X s 683 355 m 8 X s 683 370 m 8 X s 674 384 m 17 X s 683 399 m 8 X s 683 413 m 8 X s 683 428 m 8 X s 683 442 m 8 X s 674 457 m 17 X s 674
 457 m 17 X s 683 472 m 8 X s 683 486 m 8 X s 683 501 m 8 X s 683 515 m 8 X s
 gsave  710 563 23 12 C 719.017 90.6129 t 90 r /Helvetica-Bold findfont 20.0192 sf 0 0 m (U/O\255flow \(S,B\): \(0.0, 0.0\)% / \(0.0, 0.0\)%) show NC gr  0.490196 0.545098 0.615686 c 0.364706 0.419608 0.490196 c 497 37 30 535 bf 0.490196 0.545098
 0.615686 c 30 535 m 497 X s 527 535 m 37 Y s 527 572 m -497 X s 30 572 m -37 Y s 1 1 1 c black 1 1 1 c
 gsave  710 563 23 12 C 37.0356 546.987 t 0 r /Helvetica-Bold findfont 20.0192 sf 0 0 m (TMVA Input Variables: TMath::Log\(Lc_MAXDOCA\)) show NC gr  0.490196 0.545098 0.615686 c 0.941176 0.941176 0.941176 c 710 563 779 12 bf 0.490196 0.545098
 0.615686 c 0.941176 0.941176 0.941176 c 711 563 1534 12 bf
 gr  gr showpage
end
%%EOF
